inventoryNb
1974.010-10
1978.025-06
1826
1827
2360
2361
1990.069
2394
3572-01
3572-02
2395
2362
2363
2364
2359
2369
2367
2368-01
2370
2366
2368-02
2371
0430
3278
JT0171
0704
0705
0706
1828
GED0050
4471
4266
1970.001
AME0030
G3050
4251
1989.033-01
1989.027
0839
0840
0841
0844
0845
0846
0847
0848
0849
0851
0852
0853
0854-01
0854-02
0854-03
0854-04
0854-05
0854-06
0854-07
0854-08
0854-09
0854-11
0854-12
0854-13
0854-14
0854-15
0854-16
0854-17
0854-18
0854-19
0854-20
0854-21
0850
0854-10
1982.019
1970.021
1838
1840
1841
1842
1843
1844
1845
1846
1847
1848
1852
1853
1837
3275
2372
2237-01
2237-02
2237-07
2248-01
2162
2163
2154
2373
2175
2176
2174
2172
2396
2183
3241
3047
3072
3043
3045
3073
3071
3074
3070
3067
3065
3066
3068
3069-01
3069-02
3069-03
3042
3033
3236
3272
3297
3299
3294
3542
1977.008-03
3664
4057
4058
4138
4111
4112
4161-01
4161-02
4193
4194
4198
4183
4197
4196
4188
4189
4190
4191
4192
4199
4284
4285
4286
4287
4288
4289
4297
4271
4253
4320
4470
1969.026
1969.024
1969.025
1969.027
1969.028
1969.005
1969.006
1969.007
1971.007
1972.010
1972.019
1973.028-03
1975.042
1976.027-05
1976.036-03
1976.036-04
1976.036-05
1976.002-08
1976.008-14
1976.009-13
1976.009-14
1976.009-16
1976.036-09
1976.018
1977.035-02
1977.035-03
1977.041-10
LS0027
LS0025
LD0281
LD0282
1978.017-03
1978.017-05
1978.017-02
1978.017-06
1978.001-03
1978.025-08
1979.001-02
1980.009-06
1980.009-03
1981.025-02
1981.032
1981.025-06
1981.025-07
1981.025-04
1981.025-05
MVE0093
1981.008
HB0048
HB0056
1982.020
1983.052-05-01
1983.052-05-02
2010.094-02
1986.011-02
1986.011-04
1986.011-05
1986.011-06
1986.011-07
1987.007
1989.004-02
1988.026-02
1989.004-01
1989.004-03
1988.026-03
1988.027-01
1989.033-03
1991.023
1991.024
1991.025
1991.026
1991.027
1991.029
1991.028
1992.025
1992.026
1992.024
1993.015
1993.016
1993.013
1993.014
1993.019
1993.020
AME0016
AME0031
AME0044
2010.094-01
2010.098
AME0017
AME0039
