{
  "collectionName": "Collection Musical Instruments",
  "inventoryNb": "0840",
  "objectName": "Whistle",
  "objectTitle": "",
  "objectCulture": "Aztecs",
  "geography": "Place of production: Mexico (America > North America)",
  "dating": "1300 / 1599",
  "material": "Terra cotta (Earth > Clay > Ceramics > Earthenware)",
  "technique": "",
  "dimensions": "Length: 12,5 cm, Width: 13,5 cm, Height: 5 cm",
  "legalRightOwner": "Mus\u00e9es Royaux d'Art et d'Histoire / Koninklijke Musea voor Kunst en Geschiedenis",
  "url": "http://carmentis.be/eMuseumPlus?service=ExternalInterface&module=collection&objectId=110223&viewType=detailView",
  "dlabel": "13.5 x 12.5 x 5.0"
}
