{
  "collectionName": "Collection Musical Instruments",
  "inventoryNb": "0854-08",
  "objectName": "Whistle",
  "objectTitle": "",
  "objectCulture": "Aztecs",
  "geography": "Place of production: Mexico (America > North America)",
  "dating": "1300 / 1599",
  "material": "Terra cotta (Earth > Clay > Ceramics > Earthenware)",
  "technique": "",
  "dimensions": "Height: 4,6 cm, Width: 3,8 cm, Depth: 3 cm",
  "legalRightOwner": "Mus\u00e9es Royaux d'Art et d'Histoire / Koninklijke Musea voor Kunst en Geschiedenis",
  "url": "http://carmentis.be/eMuseumPlus?service=ExternalInterface&module=collection&objectId=110308&viewType=detailView",
  "dlabel": "4.6 x 3.8 x 3.0"
}
