{
  "collectionName": "Collection Musical Instruments",
  "inventoryNb": "1826",
  "objectName": "Whistle",
  "objectTitle": "C\u00e1i sao",
  "objectCulture": "",
  "geography": "Place of production: Vietnam (Asia > South East Asia)",
  "dating": "before 1891",
  "material": "Bamboo (stalk) (Vegetal > Stalk)\nDecorative painting (Wood > Decoration and finishing > Painting (wood))",
  "technique": "",
  "dimensions": "Length: 29 cm, Width: 7,8 cm, Height: 7,8 cm",
  "legalRightOwner": "Mus\u00e9es Royaux d'Art et d'Histoire / Koninklijke Musea voor Kunst en Geschiedenis",
  "url": "http://carmentis.be/eMuseumPlus?service=ExternalInterface&module=collection&objectId=111771&viewType=detailView",
  "dlabel": "29.0 x 7.8 x 7.8"
}
