{
  "collectionName": "Collection Musical Instruments",
  "inventoryNb": "1976.036-09",
  "objectName": "Whistle",
  "objectTitle": "",
  "objectCulture": "Kissi",
  "geography": "Place of production: Sierra Leone (Africa > West Africa)",
  "dating": "before 1976",
  "material": "Synthetic resin (Processed material > Synthetic)",
  "technique": "",
  "dimensions": "Height: 10 cm, Width: 4 cm",
  "legalRightOwner": "Mus\u00e9es Royaux d'Art et d'Histoire / Koninklijke Musea voor Kunst en Geschiedenis",
  "url": "http://carmentis.be/eMuseumPlus?service=ExternalInterface&module=collection&objectId=95211&viewType=detailView",
  "dlabel": "10.0 x 4.0"
}
