{
  "collectionName": "Collection Musical Instruments",
  "inventoryNb": "1976.009-16",
  "objectName": "Whistle",
  "objectTitle": "",
  "objectCulture": "Bobo",
  "geography": "Place of production: Burkina Faso (Africa > West Africa)",
  "dating": "before 1976",
  "material": "Wood (vegetal material) (Vegetal)",
  "technique": "",
  "dimensions": "Height: 8,5 cm, Width: 3 cm",
  "legalRightOwner": "Mus\u00e9es Royaux d'Art et d'Histoire / Koninklijke Musea voor Kunst en Geschiedenis",
  "url": "http://carmentis.be/eMuseumPlus?service=ExternalInterface&module=collection&objectId=95178&viewType=detailView",
  "dlabel": "8.5 x 3.0"
}
