{
  "collectionName": "Collection Musical Instruments",
  "inventoryNb": "1977.035-02",
  "objectName": "Whistle",
  "objectTitle": "",
  "objectCulture": "Luba",
  "geography": "Place of production: Congo, Democratic Republic of the (Africa > Central Africa)",
  "dating": "before 1977",
  "material": "Metal\nWood (vegetal material) (Vegetal)",
  "technique": "",
  "dimensions": "Height: 9,8 cm, Width: 7 cm",
  "legalRightOwner": "Mus\u00e9es Royaux d'Art et d'Histoire / Koninklijke Musea voor Kunst en Geschiedenis",
  "url": "http://carmentis.be/eMuseumPlus?service=ExternalInterface&module=collection&objectId=95262&viewType=detailView",
  "dlabel": "9.8 x 7.0"
}
