{
  "collectionName": "Collection Musical Instruments",
  "inventoryNb": "1978.001-03",
  "objectName": "Whistle",
  "objectTitle": "",
  "objectCulture": "Moos\u00e9",
  "geography": "Place of production: Burkina Faso (Africa > West Africa)",
  "dating": "before 1978",
  "material": "Wood (vegetal material) (Vegetal)",
  "technique": "",
  "dimensions": "Height: 8,5 cm, Width: 5 cm",
  "legalRightOwner": "Mus\u00e9es Royaux d'Art et d'Histoire / Koninklijke Musea voor Kunst en Geschiedenis",
  "url": "http://carmentis.be/eMuseumPlus?service=ExternalInterface&module=collection&objectId=95306&viewType=detailView",
  "dlabel": "8.5 x 5.0"
}
