{
  "collectionName": "Collection Musical Instruments",
  "inventoryNb": "1983.052-05-02",
  "objectName": "Whistle",
  "objectTitle": "",
  "objectCulture": "Culture unknown",
  "geography": "Place of production: Peru (America > South America)",
  "dating": "before 1983",
  "material": "Terra cotta (Earth > Clay > Ceramics > Earthenware)",
  "technique": "",
  "dimensions": "Length: 5,3 cm, Width: 3,4 cm",
  "legalRightOwner": "Mus\u00e9es Royaux d'Art et d'Histoire / Koninklijke Musea voor Kunst en Geschiedenis",
  "url": "http://carmentis.be/eMuseumPlus?service=ExternalInterface&module=collection&objectId=109614&viewType=detailView",
  "dlabel": "5.3 x 3.4"
}
