{
  "collectionName": "Collection Musical Instruments",
  "inventoryNb": "1986.011-04",
  "objectName": "Whistle",
  "objectTitle": "",
  "objectCulture": "Culture unknown",
  "geography": "Place of production: Costa Rica (America > Central America)",
  "dating": "before 1986",
  "material": "Terra cotta (Earth > Clay > Ceramics > Earthenware)",
  "technique": "",
  "dimensions": "Length: 9,8 cm, Width: 5,9 cm, Height: 10 cm",
  "legalRightOwner": "Mus\u00e9es Royaux d'Art et d'Histoire / Koninklijke Musea voor Kunst en Geschiedenis",
  "url": "http://carmentis.be/eMuseumPlus?service=ExternalInterface&module=collection&objectId=110588&viewType=detailView",
  "dlabel": "10.0 x 9.8 x 5.9"
}
