{
  "collectionName": "Collection Musical Instruments",
  "inventoryNb": "1989.027",
  "objectName": "Whistle",
  "objectTitle": "",
  "objectCulture": "Inca",
  "geography": "Place of production: Peru (America > South America)",
  "dating": "1200 / 1599",
  "material": "Silver (Metal)",
  "technique": "",
  "dimensions": "Length: 7,3 cm, Width: 4,4 cm",
  "legalRightOwner": "Mus\u00e9es Royaux d'Art et d'Histoire / Koninklijke Musea voor Kunst en Geschiedenis",
  "url": "http://carmentis.be/eMuseumPlus?service=ExternalInterface&module=collection&objectId=110605&viewType=detailView",
  "dlabel": "7.3 x 4.4"
}
