{
  "collectionName": "Collection Musical Instruments",
  "inventoryNb": "1989.004-02",
  "objectName": "Whistle",
  "objectTitle": "",
  "objectCulture": "Culture unknown",
  "geography": "Place of production: Santa Cruz (Costa Rica) (America > Central America > Costa Rica > Guanacaste (province))",
  "dating": "before 1988",
  "material": "Terra cotta (Earth > Clay > Ceramics > Earthenware)",
  "technique": "",
  "dimensions": "Length: 15 cm, Width: 12 cm, Height: 6,2 cm",
  "legalRightOwner": "Mus\u00e9es Royaux d'Art et d'Histoire / Koninklijke Musea voor Kunst en Geschiedenis",
  "url": "http://carmentis.be/eMuseumPlus?service=ExternalInterface&module=collection&objectId=111292&viewType=detailView",
  "dlabel": "15.0 x 12.0 x 6.2"
}
