{
  "collectionName": "Collection Musical Instruments",
  "inventoryNb": "1993.014",
  "objectName": "Whistle",
  "objectTitle": "",
  "objectCulture": "Inca",
  "geography": "Place of production: Ecuador (America > South America)",
  "dating": "before 1993",
  "material": "Terra cotta (Earth > Clay > Ceramics > Earthenware)\nPigment (Unidentified raw material)",
  "technique": "",
  "dimensions": "Length: 28,5 cm, Width: 11 cm",
  "legalRightOwner": "Mus\u00e9es Royaux d'Art et d'Histoire / Koninklijke Musea voor Kunst en Geschiedenis",
  "url": "http://carmentis.be/eMuseumPlus?service=ExternalInterface&module=collection&objectId=111389&viewType=detailView",
  "dlabel": "28.5 x 11.0"
}
