{
  "collectionName": "Collection Musical Instruments",
  "inventoryNb": "2359",
  "objectName": "Whistle",
  "objectTitle": "sifflet",
  "objectCulture": "",
  "geography": "Place of production: France (Europe > Western Europe)",
  "dating": "before 1911",
  "material": "",
  "technique": "Glaze (Ceramics > Decoration and finishing)\nEarthenware (Ceramics > Categories)",
  "dimensions": "Length: 6,7 cm, Width: 4,4 cm, Height: 4,6 cm",
  "legalRightOwner": "Mus\u00e9es Royaux d'Art et d'Histoire / Koninklijke Musea voor Kunst en Geschiedenis",
  "url": "http://carmentis.be/eMuseumPlus?service=ExternalInterface&module=collection&objectId=117533&viewType=detailView",
  "dlabel": "6.7 x 4.6 x 4.4"
}
