{
  "collectionName": "Collection Musical Instruments",
  "inventoryNb": "2368-01",
  "objectName": "Whistle",
  "objectTitle": "sifflet",
  "objectCulture": "",
  "geography": "Place of production: Vosges (department) (Europe > Western Europe > France > Lorraine (region))",
  "dating": "before 1911",
  "material": "Earthenware (Earth > Clay > Ceramics)",
  "technique": "Glaze (Ceramics > Decoration and finishing)",
  "dimensions": "Length: 6,3 cm, Width: 3 cm, Height: 3,8 cm",
  "legalRightOwner": "Mus\u00e9es Royaux d'Art et d'Histoire / Koninklijke Musea voor Kunst en Geschiedenis",
  "url": "http://carmentis.be/eMuseumPlus?service=ExternalInterface&module=collection&objectId=117542&viewType=detailView",
  "dlabel": "6.3 x 3.8 x 3.0"
}
