{
  "collectionName": "Collection Musical Instruments",
  "inventoryNb": "2373",
  "objectName": "Whistle",
  "objectTitle": "",
  "objectCulture": "",
  "geography": "Place of production: Germany (Europe > Central Europe)",
  "dating": "before 1907",
  "material": "Terra cotta (Earth > Clay > Ceramics > Earthenware)",
  "technique": "Coating (Ceramics > Decoration and finishing)\nPainting (ceramic) (Ceramics > Decoration and finishing)",
  "dimensions": "Length: 8 cm, Width: 4,7 cm, Height: 9,5 cm",
  "legalRightOwner": "Mus\u00e9es Royaux d'Art et d'Histoire / Koninklijke Musea voor Kunst en Geschiedenis",
  "url": "http://carmentis.be/eMuseumPlus?service=ExternalInterface&module=collection&objectId=117548&viewType=detailView",
  "dlabel": "9.5 x 8.0 x 4.7"
}
