{
  "collectionName": "Collection Musical Instruments",
  "inventoryNb": "3275",
  "objectName": "Whistle",
  "objectTitle": "",
  "objectCulture": "",
  "geography": "Place of production: Japan (Asia > East Asia)",
  "dating": "before 1903",
  "material": "",
  "technique": "Faience (earthenware) (Ceramics > Categories)",
  "dimensions": "Height: 4,5 cm, Width: 4 cm, Depth: 10 cm",
  "legalRightOwner": "Mus\u00e9es Royaux d'Art et d'Histoire / Koninklijke Musea voor Kunst en Geschiedenis",
  "url": "http://carmentis.be/eMuseumPlus?service=ExternalInterface&module=collection&objectId=112109&viewType=detailView",
  "dlabel": "10.0 x 4.5 x 4.0"
}
