{
  "collectionName": "Collection Musical Instruments",
  "inventoryNb": "4138",
  "objectName": "Whistle",
  "objectTitle": "",
  "objectCulture": "Pende",
  "geography": "Place of production: Congo, Democratic Republic of the (Africa > Central Africa)",
  "dating": "before 1965",
  "material": "Ivory (Animal > Tooth > Mammal tooth)",
  "technique": "",
  "dimensions": "Height: 5,4 cm, Width: 4 cm",
  "legalRightOwner": "Mus\u00e9es Royaux d'Art et d'Histoire / Koninklijke Musea voor Kunst en Geschiedenis",
  "url": "http://carmentis.be/eMuseumPlus?service=ExternalInterface&module=collection&objectId=94942&viewType=detailView",
  "dlabel": "5.4 x 4.0"
}
