[
  [
    {
      "x": 150.0,
      "y": 172.1333
    },
    {
      "x": 151.0,
      "y": 178.1333
    },
    {
      "x": 161.0,
      "y": 190.1333
    },
    {
      "x": 162.0,
      "y": 204.1333
    },
    {
      "x": 167.0,
      "y": 212.1333
    },
    {
      "x": 173.0,
      "y": 242.1333
    },
    {
      "x": 185.0,
      "y": 264.1333
    },
    {
      "x": 188.0,
      "y": 292.1333
    },
    {
      "x": 195.0,
      "y": 306.1333
    },
    {
      "x": 268.0,
      "y": 306.1333
    },
    {
      "x": 271.0,
      "y": 302.1333
    },
    {
      "x": 286.0,
      "y": 299.1333
    },
    {
      "x": 395.0,
      "y": 295.1333
    }
  ],
  [
    {
      "x": 150.0,
      "y": 172.1333
    },
    {
      "x": 151.0,
      "y": 178.1333
    },
    {
      "x": 161.0,
      "y": 190.1333
    },
    {
      "x": 162.0,
      "y": 204.1333
    },
    {
      "x": 167.0,
      "y": 212.1333
    },
    {
      "x": 173.0,
      "y": 242.1333
    },
    {
      "x": 185.0,
      "y": 264.1333
    },
    {
      "x": 188.0,
      "y": 292.1333
    },
    {
      "x": 195.0,
      "y": 306.1333
    },
    {
      "x": 268.0,
      "y": 306.1333
    },
    {
      "x": 271.0,
      "y": 302.1333
    },
    {
      "x": 286.0,
      "y": 299.1333
    },
    {
      "x": 395.0,
      "y": 295.1333
    }
  ],
  [
    {
      "x": 150.0,
      "y": 172.1333
    },
    {
      "x": 151.0,
      "y": 178.1333
    },
    {
      "x": 161.0,
      "y": 190.1333
    },
    {
      "x": 162.0,
      "y": 204.1333
    },
    {
      "x": 167.0,
      "y": 212.1333
    },
    {
      "x": 173.0,
      "y": 242.1333
    },
    {
      "x": 185.0,
      "y": 264.1333
    },
    {
      "x": 188.0,
      "y": 292.1333
    },
    {
      "x": 195.0,
      "y": 306.1333
    },
    {
      "x": 268.0,
      "y": 306.1333
    },
    {
      "x": 271.0,
      "y": 302.1333
    },
    {
      "x": 286.0,
      "y": 299.1333
    },
    {
      "x": 395.0,
      "y": 295.1333
    }
  ],
  [
    {
      "x": 150.0,
      "y": 172.1333
    },
    {
      "x": 151.0,
      "y": 178.1333
    },
    {
      "x": 161.0,
      "y": 190.1333
    },
    {
      "x": 162.0,
      "y": 204.1333
    },
    {
      "x": 167.0,
      "y": 212.1333
    },
    {
      "x": 173.0,
      "y": 242.1333
    },
    {
      "x": 185.0,
      "y": 264.1333
    },
    {
      "x": 188.0,
      "y": 292.1333
    },
    {
      "x": 195.0,
      "y": 306.1333
    },
    {
      "x": 268.0,
      "y": 306.1333
    },
    {
      "x": 271.0,
      "y": 302.1333
    },
    {
      "x": 286.0,
      "y": 299.1333
    },
    {
      "x": 395.0,
      "y": 295.1333
    }
  ],
  [
    {
      "x": 150.0,
      "y": 172.1333
    },
    {
      "x": 151.0,
      "y": 178.1333
    },
    {
      "x": 161.0,
      "y": 190.1333
    },
    {
      "x": 162.0,
      "y": 204.1333
    },
    {
      "x": 167.0,
      "y": 212.1333
    },
    {
      "x": 173.0,
      "y": 242.1333
    },
    {
      "x": 185.0,
      "y": 264.1333
    },
    {
      "x": 188.0,
      "y": 292.1333
    },
    {
      "x": 195.0,
      "y": 306.1333
    },
    {
      "x": 268.0,
      "y": 306.1333
    },
    {
      "x": 271.0,
      "y": 302.1333
    },
    {
      "x": 286.0,
      "y": 299.1333
    },
    {
      "x": 395.0,
      "y": 295.1333
    }
  ],
  [
    {
      "x": 150.0,
      "y": 172.1333
    },
    {
      "x": 151.0,
      "y": 178.1333
    },
    {
      "x": 161.0,
      "y": 190.1333
    },
    {
      "x": 162.0,
      "y": 204.1333
    },
    {
      "x": 167.0,
      "y": 212.1333
    },
    {
      "x": 173.0,
      "y": 242.1333
    },
    {
      "x": 185.0,
      "y": 264.1333
    },
    {
      "x": 188.0,
      "y": 292.1333
    },
    {
      "x": 195.0,
      "y": 306.1333
    },
    {
      "x": 268.0,
      "y": 306.1333
    },
    {
      "x": 271.0,
      "y": 302.1333
    },
    {
      "x": 286.0,
      "y": 299.1333
    },
    {
      "x": 395.0,
      "y": 295.1333
    }
  ],
  [
    {
      "x": 150.0,
      "y": 172.1333
    },
    {
      "x": 151.0,
      "y": 178.1333
    },
    {
      "x": 161.0,
      "y": 190.1333
    },
    {
      "x": 162.0,
      "y": 204.1333
    },
    {
      "x": 167.0,
      "y": 212.1333
    },
    {
      "x": 173.0,
      "y": 242.1333
    },
    {
      "x": 185.0,
      "y": 264.1333
    },
    {
      "x": 188.0,
      "y": 292.1333
    },
    {
      "x": 195.0,
      "y": 306.1333
    },
    {
      "x": 268.0,
      "y": 306.1333
    },
    {
      "x": 271.0,
      "y": 302.1333
    },
    {
      "x": 286.0,
      "y": 299.1333
    },
    {
      "x": 395.0,
      "y": 295.1333
    }
  ],
  [
    {
      "x": 150.0,
      "y": 172.1333
    },
    {
      "x": 151.0,
      "y": 178.1333
    },
    {
      "x": 161.0,
      "y": 190.1333
    },
    {
      "x": 162.0,
      "y": 204.1333
    },
    {
      "x": 167.0,
      "y": 212.1333
    },
    {
      "x": 173.0,
      "y": 242.1333
    },
    {
      "x": 185.0,
      "y": 264.1333
    },
    {
      "x": 188.0,
      "y": 292.1333
    },
    {
      "x": 195.0,
      "y": 306.1333
    },
    {
      "x": 268.0,
      "y": 306.1333
    },
    {
      "x": 271.0,
      "y": 302.1333
    },
    {
      "x": 286.0,
      "y": 299.1333
    },
    {
      "x": 395.0,
      "y": 295.1333
    }
  ],
  [
    {
      "x": 150.0,
      "y": 172.1333
    },
    {
      "x": 151.0,
      "y": 178.1333
    },
    {
      "x": 161.0,
      "y": 190.1333
    },
    {
      "x": 162.0,
      "y": 204.1333
    },
    {
      "x": 167.0,
      "y": 212.1333
    },
    {
      "x": 173.0,
      "y": 242.1333
    },
    {
      "x": 185.0,
      "y": 264.1333
    },
    {
      "x": 188.0,
      "y": 292.1333
    },
    {
      "x": 195.0,
      "y": 306.1333
    },
    {
      "x": 268.0,
      "y": 306.1333
    },
    {
      "x": 271.0,
      "y": 302.1333
    },
    {
      "x": 286.0,
      "y": 299.1333
    },
    {
      "x": 395.0,
      "y": 295.1333
    }
  ],
  [
    {
      "x": 150.0,
      "y": 172.1333
    },
    {
      "x": 151.0,
      "y": 178.1333
    },
    {
      "x": 161.0,
      "y": 190.1333
    },
    {
      "x": 162.0,
      "y": 204.1333
    },
    {
      "x": 167.0,
      "y": 212.1333
    },
    {
      "x": 173.0,
      "y": 242.1333
    },
    {
      "x": 185.0,
      "y": 264.1333
    },
    {
      "x": 188.0,
      "y": 292.1333
    },
    {
      "x": 195.0,
      "y": 306.1333
    },
    {
      "x": 268.0,
      "y": 306.1333
    },
    {
      "x": 271.0,
      "y": 302.1333
    },
    {
      "x": 286.0,
      "y": 299.1333
    },
    {
      "x": 395.0,
      "y": 295.1333
    }
  ],
  [
    {
      "x": 150.0,
      "y": 172.1333
    },
    {
      "x": 151.0,
      "y": 178.1333
    },
    {
      "x": 161.0,
      "y": 190.1333
    },
    {
      "x": 162.0,
      "y": 204.1333
    },
    {
      "x": 167.0,
      "y": 212.1333
    },
    {
      "x": 173.0,
      "y": 242.1333
    },
    {
      "x": 185.0,
      "y": 264.1333
    },
    {
      "x": 188.0,
      "y": 292.1333
    },
    {
      "x": 195.0,
      "y": 306.1333
    },
    {
      "x": 268.0,
      "y": 306.1333
    },
    {
      "x": 271.0,
      "y": 302.1333
    },
    {
      "x": 286.0,
      "y": 299.1333
    },
    {
      "x": 395.0,
      "y": 295.1333
    }
  ],
  [
    {
      "x": 150.0,
      "y": 172.1333
    },
    {
      "x": 151.0,
      "y": 178.1333
    },
    {
      "x": 161.0,
      "y": 190.1333
    },
    {
      "x": 162.0,
      "y": 204.1333
    },
    {
      "x": 167.0,
      "y": 212.1333
    },
    {
      "x": 173.0,
      "y": 242.1333
    },
    {
      "x": 185.0,
      "y": 264.1333
    },
    {
      "x": 188.0,
      "y": 292.1333
    },
    {
      "x": 195.0,
      "y": 306.1333
    },
    {
      "x": 268.0,
      "y": 306.1333
    },
    {
      "x": 271.0,
      "y": 302.1333
    },
    {
      "x": 286.0,
      "y": 299.1333
    },
    {
      "x": 395.0,
      "y": 295.1333
    }
  ],
  [
    {
      "x": 150.0,
      "y": 172.1333
    },
    {
      "x": 151.0,
      "y": 178.1333
    },
    {
      "x": 161.0,
      "y": 190.1333
    },
    {
      "x": 162.0,
      "y": 204.1333
    },
    {
      "x": 167.0,
      "y": 212.1333
    },
    {
      "x": 173.0,
      "y": 242.1333
    },
    {
      "x": 185.0,
      "y": 264.1333
    },
    {
      "x": 188.0,
      "y": 292.1333
    },
    {
      "x": 195.0,
      "y": 306.1333
    },
    {
      "x": 268.0,
      "y": 306.1333
    },
    {
      "x": 271.0,
      "y": 302.1333
    },
    {
      "x": 286.0,
      "y": 299.1333
    },
    {
      "x": 395.0,
      "y": 295.1333
    }
  ],
  [
    {
      "x": 152.0,
      "y": 169.1333
    },
    {
      "x": 163.0,
      "y": 167.1333
    },
    {
      "x": 329.0,
      "y": 166.1333
    },
    {
      "x": 336.0,
      "y": 171.1333
    },
    {
      "x": 336.0,
      "y": 177.1333
    },
    {
      "x": 349.0,
      "y": 190.1333
    },
    {
      "x": 349.0,
      "y": 196.1333
    },
    {
      "x": 354.0,
      "y": 200.1333
    },
    {
      "x": 355.0,
      "y": 207.1333
    },
    {
      "x": 368.0,
      "y": 218.1333
    },
    {
      "x": 371.0,
      "y": 252.1333
    },
    {
      "x": 375.0,
      "y": 268.1333
    },
    {
      "x": 380.0,
      "y": 270.1333
    },
    {
      "x": 382.0,
      "y": 280.1333
    },
    {
      "x": 386.0,
      "y": 281.1333
    },
    {
      "x": 387.0,
      "y": 291.1333
    },
    {
      "x": 396.0,
      "y": 300.1333
    }
  ],
  [
    {
      "x": 152.0,
      "y": 169.1333
    },
    {
      "x": 163.0,
      "y": 167.1333
    },
    {
      "x": 329.0,
      "y": 166.1333
    },
    {
      "x": 336.0,
      "y": 171.1333
    },
    {
      "x": 336.0,
      "y": 177.1333
    },
    {
      "x": 349.0,
      "y": 190.1333
    },
    {
      "x": 349.0,
      "y": 196.1333
    },
    {
      "x": 354.0,
      "y": 200.1333
    },
    {
      "x": 355.0,
      "y": 207.1333
    },
    {
      "x": 368.0,
      "y": 218.1333
    },
    {
      "x": 371.0,
      "y": 252.1333
    },
    {
      "x": 375.0,
      "y": 268.1333
    },
    {
      "x": 380.0,
      "y": 270.1333
    },
    {
      "x": 382.0,
      "y": 280.1333
    },
    {
      "x": 386.0,
      "y": 281.1333
    },
    {
      "x": 387.0,
      "y": 291.1333
    },
    {
      "x": 396.0,
      "y": 300.1333
    }
  ],
  [
    {
      "x": 152.0,
      "y": 169.1333
    },
    {
      "x": 163.0,
      "y": 167.1333
    },
    {
      "x": 329.0,
      "y": 166.1333
    },
    {
      "x": 336.0,
      "y": 171.1333
    },
    {
      "x": 336.0,
      "y": 177.1333
    },
    {
      "x": 349.0,
      "y": 190.1333
    },
    {
      "x": 349.0,
      "y": 196.1333
    },
    {
      "x": 354.0,
      "y": 200.1333
    },
    {
      "x": 355.0,
      "y": 207.1333
    },
    {
      "x": 368.0,
      "y": 218.1333
    },
    {
      "x": 371.0,
      "y": 252.1333
    },
    {
      "x": 375.0,
      "y": 268.1333
    },
    {
      "x": 380.0,
      "y": 270.1333
    },
    {
      "x": 382.0,
      "y": 280.1333
    },
    {
      "x": 386.0,
      "y": 281.1333
    },
    {
      "x": 387.0,
      "y": 291.1333
    },
    {
      "x": 396.0,
      "y": 300.1333
    }
  ],
  [
    {
      "x": 152.0,
      "y": 169.1333
    },
    {
      "x": 163.0,
      "y": 167.1333
    },
    {
      "x": 329.0,
      "y": 166.1333
    },
    {
      "x": 336.0,
      "y": 171.1333
    },
    {
      "x": 336.0,
      "y": 177.1333
    },
    {
      "x": 349.0,
      "y": 190.1333
    },
    {
      "x": 349.0,
      "y": 196.1333
    },
    {
      "x": 354.0,
      "y": 200.1333
    },
    {
      "x": 355.0,
      "y": 207.1333
    },
    {
      "x": 368.0,
      "y": 218.1333
    },
    {
      "x": 371.0,
      "y": 252.1333
    },
    {
      "x": 375.0,
      "y": 268.1333
    },
    {
      "x": 380.0,
      "y": 270.1333
    },
    {
      "x": 382.0,
      "y": 280.1333
    },
    {
      "x": 386.0,
      "y": 281.1333
    },
    {
      "x": 387.0,
      "y": 291.1333
    },
    {
      "x": 396.0,
      "y": 300.1333
    }
  ],
  [
    {
      "x": 152.0,
      "y": 169.1333
    },
    {
      "x": 163.0,
      "y": 167.1333
    },
    {
      "x": 329.0,
      "y": 166.1333
    },
    {
      "x": 336.0,
      "y": 171.1333
    },
    {
      "x": 336.0,
      "y": 177.1333
    },
    {
      "x": 349.0,
      "y": 190.1333
    },
    {
      "x": 349.0,
      "y": 196.1333
    },
    {
      "x": 354.0,
      "y": 200.1333
    },
    {
      "x": 355.0,
      "y": 207.1333
    },
    {
      "x": 368.0,
      "y": 218.1333
    },
    {
      "x": 371.0,
      "y": 252.1333
    },
    {
      "x": 375.0,
      "y": 268.1333
    },
    {
      "x": 380.0,
      "y": 270.1333
    },
    {
      "x": 382.0,
      "y": 280.1333
    },
    {
      "x": 386.0,
      "y": 281.1333
    },
    {
      "x": 387.0,
      "y": 291.1333
    },
    {
      "x": 396.0,
      "y": 300.1333
    }
  ],
  [
    {
      "x": 152.0,
      "y": 169.1333
    },
    {
      "x": 163.0,
      "y": 167.1333
    },
    {
      "x": 329.0,
      "y": 166.1333
    },
    {
      "x": 336.0,
      "y": 171.1333
    },
    {
      "x": 336.0,
      "y": 177.1333
    },
    {
      "x": 349.0,
      "y": 190.1333
    },
    {
      "x": 349.0,
      "y": 196.1333
    },
    {
      "x": 354.0,
      "y": 200.1333
    },
    {
      "x": 355.0,
      "y": 207.1333
    },
    {
      "x": 368.0,
      "y": 218.1333
    },
    {
      "x": 371.0,
      "y": 252.1333
    },
    {
      "x": 375.0,
      "y": 268.1333
    },
    {
      "x": 380.0,
      "y": 270.1333
    },
    {
      "x": 382.0,
      "y": 280.1333
    },
    {
      "x": 386.0,
      "y": 281.1333
    },
    {
      "x": 387.0,
      "y": 291.1333
    },
    {
      "x": 396.0,
      "y": 300.1333
    }
  ],
  [
    {
      "x": 152.0,
      "y": 169.1333
    },
    {
      "x": 163.0,
      "y": 167.1333
    },
    {
      "x": 329.0,
      "y": 166.1333
    },
    {
      "x": 336.0,
      "y": 171.1333
    },
    {
      "x": 336.0,
      "y": 177.1333
    },
    {
      "x": 349.0,
      "y": 190.1333
    },
    {
      "x": 349.0,
      "y": 196.1333
    },
    {
      "x": 354.0,
      "y": 200.1333
    },
    {
      "x": 355.0,
      "y": 207.1333
    },
    {
      "x": 368.0,
      "y": 218.1333
    },
    {
      "x": 371.0,
      "y": 252.1333
    },
    {
      "x": 375.0,
      "y": 268.1333
    },
    {
      "x": 380.0,
      "y": 270.1333
    },
    {
      "x": 382.0,
      "y": 280.1333
    },
    {
      "x": 386.0,
      "y": 281.1333
    },
    {
      "x": 387.0,
      "y": 291.1333
    },
    {
      "x": 396.0,
      "y": 300.1333
    }
  ],
  [
    {
      "x": 152.0,
      "y": 169.1333
    },
    {
      "x": 163.0,
      "y": 167.1333
    },
    {
      "x": 329.0,
      "y": 166.1333
    },
    {
      "x": 336.0,
      "y": 171.1333
    },
    {
      "x": 336.0,
      "y": 177.1333
    },
    {
      "x": 349.0,
      "y": 190.1333
    },
    {
      "x": 349.0,
      "y": 196.1333
    },
    {
      "x": 354.0,
      "y": 200.1333
    },
    {
      "x": 355.0,
      "y": 207.1333
    },
    {
      "x": 368.0,
      "y": 218.1333
    },
    {
      "x": 371.0,
      "y": 252.1333
    },
    {
      "x": 375.0,
      "y": 268.1333
    },
    {
      "x": 380.0,
      "y": 270.1333
    },
    {
      "x": 382.0,
      "y": 280.1333
    },
    {
      "x": 386.0,
      "y": 281.1333
    },
    {
      "x": 387.0,
      "y": 291.1333
    },
    {
      "x": 396.0,
      "y": 300.1333
    }
  ],
  [
    {
      "x": 152.0,
      "y": 169.1333
    },
    {
      "x": 163.0,
      "y": 167.1333
    },
    {
      "x": 329.0,
      "y": 166.1333
    },
    {
      "x": 336.0,
      "y": 171.1333
    },
    {
      "x": 336.0,
      "y": 177.1333
    },
    {
      "x": 349.0,
      "y": 190.1333
    },
    {
      "x": 349.0,
      "y": 196.1333
    },
    {
      "x": 354.0,
      "y": 200.1333
    },
    {
      "x": 355.0,
      "y": 207.1333
    },
    {
      "x": 368.0,
      "y": 218.1333
    },
    {
      "x": 371.0,
      "y": 252.1333
    },
    {
      "x": 375.0,
      "y": 268.1333
    },
    {
      "x": 380.0,
      "y": 270.1333
    },
    {
      "x": 382.0,
      "y": 280.1333
    },
    {
      "x": 386.0,
      "y": 281.1333
    },
    {
      "x": 387.0,
      "y": 291.1333
    },
    {
      "x": 396.0,
      "y": 300.1333
    }
  ],
  [
    {
      "x": 152.0,
      "y": 169.1333
    },
    {
      "x": 163.0,
      "y": 167.1333
    },
    {
      "x": 329.0,
      "y": 166.1333
    },
    {
      "x": 336.0,
      "y": 171.1333
    },
    {
      "x": 336.0,
      "y": 177.1333
    },
    {
      "x": 349.0,
      "y": 190.1333
    },
    {
      "x": 349.0,
      "y": 196.1333
    },
    {
      "x": 354.0,
      "y": 200.1333
    },
    {
      "x": 355.0,
      "y": 207.1333
    },
    {
      "x": 368.0,
      "y": 218.1333
    },
    {
      "x": 371.0,
      "y": 252.1333
    },
    {
      "x": 375.0,
      "y": 268.1333
    },
    {
      "x": 380.0,
      "y": 270.1333
    },
    {
      "x": 382.0,
      "y": 280.1333
    },
    {
      "x": 386.0,
      "y": 281.1333
    },
    {
      "x": 387.0,
      "y": 291.1333
    },
    {
      "x": 396.0,
      "y": 300.1333
    }
  ],
  [
    {
      "x": 152.0,
      "y": 169.1333
    },
    {
      "x": 163.0,
      "y": 167.1333
    },
    {
      "x": 329.0,
      "y": 166.1333
    },
    {
      "x": 336.0,
      "y": 171.1333
    },
    {
      "x": 336.0,
      "y": 177.1333
    },
    {
      "x": 349.0,
      "y": 190.1333
    },
    {
      "x": 349.0,
      "y": 196.1333
    },
    {
      "x": 354.0,
      "y": 200.1333
    },
    {
      "x": 355.0,
      "y": 207.1333
    },
    {
      "x": 368.0,
      "y": 218.1333
    },
    {
      "x": 371.0,
      "y": 252.1333
    },
    {
      "x": 375.0,
      "y": 268.1333
    },
    {
      "x": 380.0,
      "y": 270.1333
    },
    {
      "x": 382.0,
      "y": 280.1333
    },
    {
      "x": 386.0,
      "y": 281.1333
    },
    {
      "x": 387.0,
      "y": 291.1333
    },
    {
      "x": 396.0,
      "y": 300.1333
    }
  ],
  [
    {
      "x": 152.0,
      "y": 169.1333
    },
    {
      "x": 163.0,
      "y": 167.1333
    },
    {
      "x": 329.0,
      "y": 166.1333
    },
    {
      "x": 336.0,
      "y": 171.1333
    },
    {
      "x": 336.0,
      "y": 177.1333
    },
    {
      "x": 349.0,
      "y": 190.1333
    },
    {
      "x": 349.0,
      "y": 196.1333
    },
    {
      "x": 354.0,
      "y": 200.1333
    },
    {
      "x": 355.0,
      "y": 207.1333
    },
    {
      "x": 368.0,
      "y": 218.1333
    },
    {
      "x": 371.0,
      "y": 252.1333
    },
    {
      "x": 375.0,
      "y": 268.1333
    },
    {
      "x": 380.0,
      "y": 270.1333
    },
    {
      "x": 382.0,
      "y": 280.1333
    },
    {
      "x": 386.0,
      "y": 281.1333
    },
    {
      "x": 387.0,
      "y": 291.1333
    },
    {
      "x": 396.0,
      "y": 300.1333
    }
  ],
  [
    {
      "x": 152.0,
      "y": 169.1333
    },
    {
      "x": 163.0,
      "y": 167.1333
    },
    {
      "x": 329.0,
      "y": 166.1333
    },
    {
      "x": 336.0,
      "y": 171.1333
    },
    {
      "x": 336.0,
      "y": 177.1333
    },
    {
      "x": 349.0,
      "y": 190.1333
    },
    {
      "x": 349.0,
      "y": 196.1333
    },
    {
      "x": 354.0,
      "y": 200.1333
    },
    {
      "x": 355.0,
      "y": 207.1333
    },
    {
      "x": 368.0,
      "y": 218.1333
    },
    {
      "x": 371.0,
      "y": 252.1333
    },
    {
      "x": 375.0,
      "y": 268.1333
    },
    {
      "x": 380.0,
      "y": 270.1333
    },
    {
      "x": 382.0,
      "y": 280.1333
    },
    {
      "x": 386.0,
      "y": 281.1333
    },
    {
      "x": 387.0,
      "y": 291.1333
    },
    {
      "x": 396.0,
      "y": 300.1333
    }
  ],
  [
    {
      "x": 152.0,
      "y": 169.1333
    },
    {
      "x": 163.0,
      "y": 167.1333
    },
    {
      "x": 329.0,
      "y": 166.1333
    },
    {
      "x": 336.0,
      "y": 171.1333
    },
    {
      "x": 336.0,
      "y": 177.1333
    },
    {
      "x": 349.0,
      "y": 190.1333
    },
    {
      "x": 349.0,
      "y": 196.1333
    },
    {
      "x": 354.0,
      "y": 200.1333
    },
    {
      "x": 355.0,
      "y": 207.1333
    },
    {
      "x": 368.0,
      "y": 218.1333
    },
    {
      "x": 371.0,
      "y": 252.1333
    },
    {
      "x": 375.0,
      "y": 268.1333
    },
    {
      "x": 380.0,
      "y": 270.1333
    },
    {
      "x": 382.0,
      "y": 280.1333
    },
    {
      "x": 386.0,
      "y": 281.1333
    },
    {
      "x": 387.0,
      "y": 291.1333
    },
    {
      "x": 396.0,
      "y": 300.1333
    }
  ],
  [
    {
      "x": 152.0,
      "y": 169.1333
    },
    {
      "x": 163.0,
      "y": 167.1333
    },
    {
      "x": 329.0,
      "y": 166.1333
    },
    {
      "x": 336.0,
      "y": 171.1333
    },
    {
      "x": 336.0,
      "y": 177.1333
    },
    {
      "x": 349.0,
      "y": 190.1333
    },
    {
      "x": 349.0,
      "y": 196.1333
    },
    {
      "x": 354.0,
      "y": 200.1333
    },
    {
      "x": 355.0,
      "y": 207.1333
    },
    {
      "x": 368.0,
      "y": 218.1333
    },
    {
      "x": 371.0,
      "y": 252.1333
    },
    {
      "x": 375.0,
      "y": 268.1333
    },
    {
      "x": 380.0,
      "y": 270.1333
    },
    {
      "x": 382.0,
      "y": 280.1333
    },
    {
      "x": 386.0,
      "y": 281.1333
    },
    {
      "x": 387.0,
      "y": 291.1333
    },
    {
      "x": 396.0,
      "y": 300.1333
    }
  ],
  [
    {
      "x": 152.0,
      "y": 169.1333
    },
    {
      "x": 163.0,
      "y": 167.1333
    },
    {
      "x": 329.0,
      "y": 166.1333
    },
    {
      "x": 336.0,
      "y": 171.1333
    },
    {
      "x": 336.0,
      "y": 177.1333
    },
    {
      "x": 349.0,
      "y": 190.1333
    },
    {
      "x": 349.0,
      "y": 196.1333
    },
    {
      "x": 354.0,
      "y": 200.1333
    },
    {
      "x": 355.0,
      "y": 207.1333
    },
    {
      "x": 368.0,
      "y": 218.1333
    },
    {
      "x": 371.0,
      "y": 252.1333
    },
    {
      "x": 375.0,
      "y": 268.1333
    },
    {
      "x": 380.0,
      "y": 270.1333
    },
    {
      "x": 382.0,
      "y": 280.1333
    },
    {
      "x": 386.0,
      "y": 281.1333
    },
    {
      "x": 387.0,
      "y": 291.1333
    },
    {
      "x": 396.0,
      "y": 300.1333
    }
  ],
  [
    {
      "x": 152.0,
      "y": 169.1333
    },
    {
      "x": 163.0,
      "y": 167.1333
    },
    {
      "x": 329.0,
      "y": 166.1333
    },
    {
      "x": 336.0,
      "y": 171.1333
    },
    {
      "x": 336.0,
      "y": 177.1333
    },
    {
      "x": 349.0,
      "y": 190.1333
    },
    {
      "x": 349.0,
      "y": 196.1333
    },
    {
      "x": 354.0,
      "y": 200.1333
    },
    {
      "x": 355.0,
      "y": 207.1333
    },
    {
      "x": 368.0,
      "y": 218.1333
    },
    {
      "x": 371.0,
      "y": 252.1333
    },
    {
      "x": 375.0,
      "y": 268.1333
    },
    {
      "x": 380.0,
      "y": 270.1333
    },
    {
      "x": 382.0,
      "y": 280.1333
    },
    {
      "x": 386.0,
      "y": 281.1333
    },
    {
      "x": 387.0,
      "y": 291.1333
    },
    {
      "x": 396.0,
      "y": 300.1333
    }
  ],
  [
    {
      "x": 221.0,
      "y": 312.1333
    },
    {
      "x": 221.0,
      "y": 344.1333
    },
    {
      "x": 219.0,
      "y": 345.1333
    },
    {
      "x": 218.0,
      "y": 375.1333
    },
    {
      "x": 214.0,
      "y": 396.1333
    },
    {
      "x": 215.0,
      "y": 426.1333
    }
  ],
  [
    {
      "x": 221.0,
      "y": 312.1333
    },
    {
      "x": 221.0,
      "y": 344.1333
    },
    {
      "x": 219.0,
      "y": 345.1333
    },
    {
      "x": 218.0,
      "y": 375.1333
    },
    {
      "x": 214.0,
      "y": 396.1333
    },
    {
      "x": 215.0,
      "y": 426.1333
    }
  ],
  [
    {
      "x": 221.0,
      "y": 312.1333
    },
    {
      "x": 221.0,
      "y": 344.1333
    },
    {
      "x": 219.0,
      "y": 345.1333
    },
    {
      "x": 218.0,
      "y": 375.1333
    },
    {
      "x": 214.0,
      "y": 396.1333
    },
    {
      "x": 215.0,
      "y": 426.1333
    }
  ],
  [
    {
      "x": 221.0,
      "y": 312.1333
    },
    {
      "x": 221.0,
      "y": 344.1333
    },
    {
      "x": 219.0,
      "y": 345.1333
    },
    {
      "x": 218.0,
      "y": 375.1333
    },
    {
      "x": 214.0,
      "y": 396.1333
    },
    {
      "x": 215.0,
      "y": 426.1333
    }
  ],
  [
    {
      "x": 221.0,
      "y": 312.1333
    },
    {
      "x": 221.0,
      "y": 344.1333
    },
    {
      "x": 219.0,
      "y": 345.1333
    },
    {
      "x": 218.0,
      "y": 375.1333
    },
    {
      "x": 214.0,
      "y": 396.1333
    },
    {
      "x": 215.0,
      "y": 426.1333
    }
  ],
  [
    {
      "x": 221.0,
      "y": 312.1333
    },
    {
      "x": 221.0,
      "y": 344.1333
    },
    {
      "x": 219.0,
      "y": 345.1333
    },
    {
      "x": 218.0,
      "y": 375.1333
    },
    {
      "x": 214.0,
      "y": 396.1333
    },
    {
      "x": 215.0,
      "y": 426.1333
    }
  ],
  [
    {
      "x": 239.0,
      "y": 307.1333
    },
    {
      "x": 239.0,
      "y": 432.1333
    },
    {
      "x": 222.0,
      "y": 432.1333
    },
    {
      "x": 214.0,
      "y": 426.1333
    }
  ],
  [
    {
      "x": 239.0,
      "y": 307.1333
    },
    {
      "x": 239.0,
      "y": 432.1333
    },
    {
      "x": 222.0,
      "y": 432.1333
    },
    {
      "x": 214.0,
      "y": 426.1333
    }
  ],
  [
    {
      "x": 239.0,
      "y": 307.1333
    },
    {
      "x": 239.0,
      "y": 432.1333
    },
    {
      "x": 222.0,
      "y": 432.1333
    },
    {
      "x": 214.0,
      "y": 426.1333
    }
  ],
  [
    {
      "x": 239.0,
      "y": 307.1333
    },
    {
      "x": 239.0,
      "y": 432.1333
    },
    {
      "x": 222.0,
      "y": 432.1333
    },
    {
      "x": 214.0,
      "y": 426.1333
    }
  ],
  [
    {
      "x": 366.0,
      "y": 298.1333
    },
    {
      "x": 367.0,
      "y": 429.1333
    },
    {
      "x": 385.0,
      "y": 429.1333
    },
    {
      "x": 387.0,
      "y": 392.1333
    },
    {
      "x": 385.0,
      "y": 338.1333
    },
    {
      "x": 389.0,
      "y": 321.1333
    },
    {
      "x": 390.0,
      "y": 296.1333
    }
  ],
  [
    {
      "x": 366.0,
      "y": 298.1333
    },
    {
      "x": 367.0,
      "y": 429.1333
    },
    {
      "x": 385.0,
      "y": 429.1333
    },
    {
      "x": 387.0,
      "y": 392.1333
    },
    {
      "x": 385.0,
      "y": 338.1333
    },
    {
      "x": 389.0,
      "y": 321.1333
    },
    {
      "x": 390.0,
      "y": 296.1333
    }
  ],
  [
    {
      "x": 366.0,
      "y": 298.1333
    },
    {
      "x": 367.0,
      "y": 429.1333
    },
    {
      "x": 385.0,
      "y": 429.1333
    },
    {
      "x": 387.0,
      "y": 392.1333
    },
    {
      "x": 385.0,
      "y": 338.1333
    },
    {
      "x": 389.0,
      "y": 321.1333
    },
    {
      "x": 390.0,
      "y": 296.1333
    }
  ],
  [
    {
      "x": 366.0,
      "y": 298.1333
    },
    {
      "x": 367.0,
      "y": 429.1333
    },
    {
      "x": 385.0,
      "y": 429.1333
    },
    {
      "x": 387.0,
      "y": 392.1333
    },
    {
      "x": 385.0,
      "y": 338.1333
    },
    {
      "x": 389.0,
      "y": 321.1333
    },
    {
      "x": 390.0,
      "y": 296.1333
    }
  ],
  [
    {
      "x": 366.0,
      "y": 298.1333
    },
    {
      "x": 367.0,
      "y": 429.1333
    },
    {
      "x": 385.0,
      "y": 429.1333
    },
    {
      "x": 387.0,
      "y": 392.1333
    },
    {
      "x": 385.0,
      "y": 338.1333
    },
    {
      "x": 389.0,
      "y": 321.1333
    },
    {
      "x": 390.0,
      "y": 296.1333
    }
  ],
  [
    {
      "x": 366.0,
      "y": 298.1333
    },
    {
      "x": 367.0,
      "y": 429.1333
    },
    {
      "x": 385.0,
      "y": 429.1333
    },
    {
      "x": 387.0,
      "y": 392.1333
    },
    {
      "x": 385.0,
      "y": 338.1333
    },
    {
      "x": 389.0,
      "y": 321.1333
    },
    {
      "x": 390.0,
      "y": 296.1333
    }
  ],
  [
    {
      "x": 366.0,
      "y": 298.1333
    },
    {
      "x": 367.0,
      "y": 429.1333
    },
    {
      "x": 385.0,
      "y": 429.1333
    },
    {
      "x": 387.0,
      "y": 392.1333
    },
    {
      "x": 385.0,
      "y": 338.1333
    },
    {
      "x": 389.0,
      "y": 321.1333
    },
    {
      "x": 390.0,
      "y": 296.1333
    }
  ],
  [
    {
      "x": 156.0,
      "y": 186.1333
    },
    {
      "x": 154.0,
      "y": 327.1333
    },
    {
      "x": 170.0,
      "y": 327.1333
    },
    {
      "x": 171.0,
      "y": 325.1333
    },
    {
      "x": 172.0,
      "y": 308.1333
    },
    {
      "x": 175.0,
      "y": 305.1333
    },
    {
      "x": 178.0,
      "y": 287.1333
    },
    {
      "x": 185.0,
      "y": 274.1333
    },
    {
      "x": 187.0,
      "y": 255.1333
    }
  ],
  [
    {
      "x": 156.0,
      "y": 186.1333
    },
    {
      "x": 154.0,
      "y": 327.1333
    },
    {
      "x": 170.0,
      "y": 327.1333
    },
    {
      "x": 171.0,
      "y": 325.1333
    },
    {
      "x": 172.0,
      "y": 308.1333
    },
    {
      "x": 175.0,
      "y": 305.1333
    },
    {
      "x": 178.0,
      "y": 287.1333
    },
    {
      "x": 185.0,
      "y": 274.1333
    },
    {
      "x": 187.0,
      "y": 255.1333
    }
  ],
  [
    {
      "x": 156.0,
      "y": 186.1333
    },
    {
      "x": 154.0,
      "y": 327.1333
    },
    {
      "x": 170.0,
      "y": 327.1333
    },
    {
      "x": 171.0,
      "y": 325.1333
    },
    {
      "x": 172.0,
      "y": 308.1333
    },
    {
      "x": 175.0,
      "y": 305.1333
    },
    {
      "x": 178.0,
      "y": 287.1333
    },
    {
      "x": 185.0,
      "y": 274.1333
    },
    {
      "x": 187.0,
      "y": 255.1333
    }
  ],
  [
    {
      "x": 156.0,
      "y": 186.1333
    },
    {
      "x": 154.0,
      "y": 327.1333
    },
    {
      "x": 170.0,
      "y": 327.1333
    },
    {
      "x": 171.0,
      "y": 325.1333
    },
    {
      "x": 172.0,
      "y": 308.1333
    },
    {
      "x": 175.0,
      "y": 305.1333
    },
    {
      "x": 178.0,
      "y": 287.1333
    },
    {
      "x": 185.0,
      "y": 274.1333
    },
    {
      "x": 187.0,
      "y": 255.1333
    }
  ],
  [
    {
      "x": 156.0,
      "y": 186.1333
    },
    {
      "x": 154.0,
      "y": 327.1333
    },
    {
      "x": 170.0,
      "y": 327.1333
    },
    {
      "x": 171.0,
      "y": 325.1333
    },
    {
      "x": 172.0,
      "y": 308.1333
    },
    {
      "x": 175.0,
      "y": 305.1333
    },
    {
      "x": 178.0,
      "y": 287.1333
    },
    {
      "x": 185.0,
      "y": 274.1333
    },
    {
      "x": 187.0,
      "y": 255.1333
    }
  ],
  [
    {
      "x": 156.0,
      "y": 186.1333
    },
    {
      "x": 154.0,
      "y": 327.1333
    },
    {
      "x": 170.0,
      "y": 327.1333
    },
    {
      "x": 171.0,
      "y": 325.1333
    },
    {
      "x": 172.0,
      "y": 308.1333
    },
    {
      "x": 175.0,
      "y": 305.1333
    },
    {
      "x": 178.0,
      "y": 287.1333
    },
    {
      "x": 185.0,
      "y": 274.1333
    },
    {
      "x": 187.0,
      "y": 255.1333
    }
  ],
  [
    {
      "x": 156.0,
      "y": 186.1333
    },
    {
      "x": 154.0,
      "y": 327.1333
    },
    {
      "x": 170.0,
      "y": 327.1333
    },
    {
      "x": 171.0,
      "y": 325.1333
    },
    {
      "x": 172.0,
      "y": 308.1333
    },
    {
      "x": 175.0,
      "y": 305.1333
    },
    {
      "x": 178.0,
      "y": 287.1333
    },
    {
      "x": 185.0,
      "y": 274.1333
    },
    {
      "x": 187.0,
      "y": 255.1333
    }
  ],
  [
    {
      "x": 156.0,
      "y": 186.1333
    },
    {
      "x": 154.0,
      "y": 327.1333
    },
    {
      "x": 170.0,
      "y": 327.1333
    },
    {
      "x": 171.0,
      "y": 325.1333
    },
    {
      "x": 172.0,
      "y": 308.1333
    },
    {
      "x": 175.0,
      "y": 305.1333
    },
    {
      "x": 178.0,
      "y": 287.1333
    },
    {
      "x": 185.0,
      "y": 274.1333
    },
    {
      "x": 187.0,
      "y": 255.1333
    }
  ],
  [
    {
      "x": 156.0,
      "y": 186.1333
    },
    {
      "x": 154.0,
      "y": 327.1333
    },
    {
      "x": 170.0,
      "y": 327.1333
    },
    {
      "x": 171.0,
      "y": 325.1333
    },
    {
      "x": 172.0,
      "y": 308.1333
    },
    {
      "x": 175.0,
      "y": 305.1333
    },
    {
      "x": 178.0,
      "y": 287.1333
    },
    {
      "x": 185.0,
      "y": 274.1333
    },
    {
      "x": 187.0,
      "y": 255.1333
    }
  ],
  [
    {
      "x": 326.0,
      "y": 296.1333
    },
    {
      "x": 326.0,
      "y": 325.1333
    },
    {
      "x": 341.0,
      "y": 323.1333
    },
    {
      "x": 343.0,
      "y": 299.1333
    }
  ],
  [
    {
      "x": 326.0,
      "y": 296.1333
    },
    {
      "x": 326.0,
      "y": 325.1333
    },
    {
      "x": 341.0,
      "y": 323.1333
    },
    {
      "x": 343.0,
      "y": 299.1333
    }
  ],
  [
    {
      "x": 326.0,
      "y": 296.1333
    },
    {
      "x": 326.0,
      "y": 325.1333
    },
    {
      "x": 341.0,
      "y": 323.1333
    },
    {
      "x": 343.0,
      "y": 299.1333
    }
  ],
  [
    {
      "x": 326.0,
      "y": 296.1333
    },
    {
      "x": 326.0,
      "y": 325.1333
    },
    {
      "x": 341.0,
      "y": 323.1333
    },
    {
      "x": 343.0,
      "y": 299.1333
    }
  ]
]
