[
  [
    {
      "x": 209.0,
      "y": 88.1333
    },
    {
      "x": 202.0,
      "y": 88.1333
    },
    {
      "x": 176.0,
      "y": 99.1333
    },
    {
      "x": 99.0,
      "y": 123.1333
    },
    {
      "x": 221.0,
      "y": 128.1333
    },
    {
      "x": 260.0,
      "y": 135.1333
    },
    {
      "x": 288.0,
      "y": 135.1333
    }
  ],
  [
    {
      "x": 209.0,
      "y": 88.1333
    },
    {
      "x": 202.0,
      "y": 88.1333
    },
    {
      "x": 176.0,
      "y": 99.1333
    },
    {
      "x": 99.0,
      "y": 123.1333
    },
    {
      "x": 221.0,
      "y": 128.1333
    },
    {
      "x": 260.0,
      "y": 135.1333
    },
    {
      "x": 288.0,
      "y": 135.1333
    }
  ],
  [
    {
      "x": 209.0,
      "y": 88.1333
    },
    {
      "x": 202.0,
      "y": 88.1333
    },
    {
      "x": 176.0,
      "y": 99.1333
    },
    {
      "x": 99.0,
      "y": 123.1333
    },
    {
      "x": 221.0,
      "y": 128.1333
    },
    {
      "x": 260.0,
      "y": 135.1333
    },
    {
      "x": 288.0,
      "y": 135.1333
    }
  ],
  [
    {
      "x": 209.0,
      "y": 88.1333
    },
    {
      "x": 202.0,
      "y": 88.1333
    },
    {
      "x": 176.0,
      "y": 99.1333
    },
    {
      "x": 99.0,
      "y": 123.1333
    },
    {
      "x": 221.0,
      "y": 128.1333
    },
    {
      "x": 260.0,
      "y": 135.1333
    },
    {
      "x": 288.0,
      "y": 135.1333
    }
  ],
  [
    {
      "x": 209.0,
      "y": 88.1333
    },
    {
      "x": 202.0,
      "y": 88.1333
    },
    {
      "x": 176.0,
      "y": 99.1333
    },
    {
      "x": 99.0,
      "y": 123.1333
    },
    {
      "x": 221.0,
      "y": 128.1333
    },
    {
      "x": 260.0,
      "y": 135.1333
    },
    {
      "x": 288.0,
      "y": 135.1333
    }
  ],
  [
    {
      "x": 209.0,
      "y": 88.1333
    },
    {
      "x": 202.0,
      "y": 88.1333
    },
    {
      "x": 176.0,
      "y": 99.1333
    },
    {
      "x": 99.0,
      "y": 123.1333
    },
    {
      "x": 221.0,
      "y": 128.1333
    },
    {
      "x": 260.0,
      "y": 135.1333
    },
    {
      "x": 288.0,
      "y": 135.1333
    }
  ],
  [
    {
      "x": 209.0,
      "y": 88.1333
    },
    {
      "x": 202.0,
      "y": 88.1333
    },
    {
      "x": 176.0,
      "y": 99.1333
    },
    {
      "x": 99.0,
      "y": 123.1333
    },
    {
      "x": 221.0,
      "y": 128.1333
    },
    {
      "x": 260.0,
      "y": 135.1333
    },
    {
      "x": 288.0,
      "y": 135.1333
    }
  ],
  [
    {
      "x": 209.0,
      "y": 88.1333
    },
    {
      "x": 341.0,
      "y": 88.1333
    },
    {
      "x": 344.0,
      "y": 92.1333
    },
    {
      "x": 351.0,
      "y": 94.1333
    },
    {
      "x": 319.0,
      "y": 105.1333
    },
    {
      "x": 296.0,
      "y": 120.1333
    },
    {
      "x": 278.0,
      "y": 128.1333
    },
    {
      "x": 275.0,
      "y": 133.1333
    }
  ],
  [
    {
      "x": 209.0,
      "y": 88.1333
    },
    {
      "x": 341.0,
      "y": 88.1333
    },
    {
      "x": 344.0,
      "y": 92.1333
    },
    {
      "x": 351.0,
      "y": 94.1333
    },
    {
      "x": 319.0,
      "y": 105.1333
    },
    {
      "x": 296.0,
      "y": 120.1333
    },
    {
      "x": 278.0,
      "y": 128.1333
    },
    {
      "x": 275.0,
      "y": 133.1333
    }
  ],
  [
    {
      "x": 209.0,
      "y": 88.1333
    },
    {
      "x": 341.0,
      "y": 88.1333
    },
    {
      "x": 344.0,
      "y": 92.1333
    },
    {
      "x": 351.0,
      "y": 94.1333
    },
    {
      "x": 319.0,
      "y": 105.1333
    },
    {
      "x": 296.0,
      "y": 120.1333
    },
    {
      "x": 278.0,
      "y": 128.1333
    },
    {
      "x": 275.0,
      "y": 133.1333
    }
  ],
  [
    {
      "x": 209.0,
      "y": 88.1333
    },
    {
      "x": 341.0,
      "y": 88.1333
    },
    {
      "x": 344.0,
      "y": 92.1333
    },
    {
      "x": 351.0,
      "y": 94.1333
    },
    {
      "x": 319.0,
      "y": 105.1333
    },
    {
      "x": 296.0,
      "y": 120.1333
    },
    {
      "x": 278.0,
      "y": 128.1333
    },
    {
      "x": 275.0,
      "y": 133.1333
    }
  ],
  [
    {
      "x": 209.0,
      "y": 88.1333
    },
    {
      "x": 341.0,
      "y": 88.1333
    },
    {
      "x": 344.0,
      "y": 92.1333
    },
    {
      "x": 351.0,
      "y": 94.1333
    },
    {
      "x": 319.0,
      "y": 105.1333
    },
    {
      "x": 296.0,
      "y": 120.1333
    },
    {
      "x": 278.0,
      "y": 128.1333
    },
    {
      "x": 275.0,
      "y": 133.1333
    }
  ],
  [
    {
      "x": 209.0,
      "y": 88.1333
    },
    {
      "x": 341.0,
      "y": 88.1333
    },
    {
      "x": 344.0,
      "y": 92.1333
    },
    {
      "x": 351.0,
      "y": 94.1333
    },
    {
      "x": 319.0,
      "y": 105.1333
    },
    {
      "x": 296.0,
      "y": 120.1333
    },
    {
      "x": 278.0,
      "y": 128.1333
    },
    {
      "x": 275.0,
      "y": 133.1333
    }
  ],
  [
    {
      "x": 209.0,
      "y": 88.1333
    },
    {
      "x": 341.0,
      "y": 88.1333
    },
    {
      "x": 344.0,
      "y": 92.1333
    },
    {
      "x": 351.0,
      "y": 94.1333
    },
    {
      "x": 319.0,
      "y": 105.1333
    },
    {
      "x": 296.0,
      "y": 120.1333
    },
    {
      "x": 278.0,
      "y": 128.1333
    },
    {
      "x": 275.0,
      "y": 133.1333
    }
  ],
  [
    {
      "x": 209.0,
      "y": 88.1333
    },
    {
      "x": 341.0,
      "y": 88.1333
    },
    {
      "x": 344.0,
      "y": 92.1333
    },
    {
      "x": 351.0,
      "y": 94.1333
    },
    {
      "x": 319.0,
      "y": 105.1333
    },
    {
      "x": 296.0,
      "y": 120.1333
    },
    {
      "x": 278.0,
      "y": 128.1333
    },
    {
      "x": 275.0,
      "y": 133.1333
    }
  ],
  [
    {
      "x": 345.0,
      "y": 96.1333
    },
    {
      "x": 349.0,
      "y": 200.1333
    }
  ],
  [
    {
      "x": 345.0,
      "y": 96.1333
    },
    {
      "x": 349.0,
      "y": 200.1333
    }
  ],
  [
    {
      "x": 104.0,
      "y": 128.1333
    },
    {
      "x": 205.0,
      "y": 130.1333
    },
    {
      "x": 236.0,
      "y": 139.1333
    },
    {
      "x": 280.0,
      "y": 139.1333
    },
    {
      "x": 318.0,
      "y": 124.1333
    },
    {
      "x": 320.0,
      "y": 121.1333
    },
    {
      "x": 326.0,
      "y": 121.1333
    },
    {
      "x": 347.0,
      "y": 112.1333
    }
  ],
  [
    {
      "x": 104.0,
      "y": 128.1333
    },
    {
      "x": 205.0,
      "y": 130.1333
    },
    {
      "x": 236.0,
      "y": 139.1333
    },
    {
      "x": 280.0,
      "y": 139.1333
    },
    {
      "x": 318.0,
      "y": 124.1333
    },
    {
      "x": 320.0,
      "y": 121.1333
    },
    {
      "x": 326.0,
      "y": 121.1333
    },
    {
      "x": 347.0,
      "y": 112.1333
    }
  ],
  [
    {
      "x": 104.0,
      "y": 128.1333
    },
    {
      "x": 205.0,
      "y": 130.1333
    },
    {
      "x": 236.0,
      "y": 139.1333
    },
    {
      "x": 280.0,
      "y": 139.1333
    },
    {
      "x": 318.0,
      "y": 124.1333
    },
    {
      "x": 320.0,
      "y": 121.1333
    },
    {
      "x": 326.0,
      "y": 121.1333
    },
    {
      "x": 347.0,
      "y": 112.1333
    }
  ],
  [
    {
      "x": 104.0,
      "y": 128.1333
    },
    {
      "x": 205.0,
      "y": 130.1333
    },
    {
      "x": 236.0,
      "y": 139.1333
    },
    {
      "x": 280.0,
      "y": 139.1333
    },
    {
      "x": 318.0,
      "y": 124.1333
    },
    {
      "x": 320.0,
      "y": 121.1333
    },
    {
      "x": 326.0,
      "y": 121.1333
    },
    {
      "x": 347.0,
      "y": 112.1333
    }
  ],
  [
    {
      "x": 104.0,
      "y": 128.1333
    },
    {
      "x": 205.0,
      "y": 130.1333
    },
    {
      "x": 236.0,
      "y": 139.1333
    },
    {
      "x": 280.0,
      "y": 139.1333
    },
    {
      "x": 318.0,
      "y": 124.1333
    },
    {
      "x": 320.0,
      "y": 121.1333
    },
    {
      "x": 326.0,
      "y": 121.1333
    },
    {
      "x": 347.0,
      "y": 112.1333
    }
  ],
  [
    {
      "x": 104.0,
      "y": 128.1333
    },
    {
      "x": 205.0,
      "y": 130.1333
    },
    {
      "x": 236.0,
      "y": 139.1333
    },
    {
      "x": 280.0,
      "y": 139.1333
    },
    {
      "x": 318.0,
      "y": 124.1333
    },
    {
      "x": 320.0,
      "y": 121.1333
    },
    {
      "x": 326.0,
      "y": 121.1333
    },
    {
      "x": 347.0,
      "y": 112.1333
    }
  ],
  [
    {
      "x": 104.0,
      "y": 128.1333
    },
    {
      "x": 205.0,
      "y": 130.1333
    },
    {
      "x": 236.0,
      "y": 139.1333
    },
    {
      "x": 280.0,
      "y": 139.1333
    },
    {
      "x": 318.0,
      "y": 124.1333
    },
    {
      "x": 320.0,
      "y": 121.1333
    },
    {
      "x": 326.0,
      "y": 121.1333
    },
    {
      "x": 347.0,
      "y": 112.1333
    }
  ],
  [
    {
      "x": 104.0,
      "y": 128.1333
    },
    {
      "x": 205.0,
      "y": 130.1333
    },
    {
      "x": 236.0,
      "y": 139.1333
    },
    {
      "x": 280.0,
      "y": 139.1333
    },
    {
      "x": 318.0,
      "y": 124.1333
    },
    {
      "x": 320.0,
      "y": 121.1333
    },
    {
      "x": 326.0,
      "y": 121.1333
    },
    {
      "x": 347.0,
      "y": 112.1333
    }
  ],
  [
    {
      "x": 275.0,
      "y": 141.1333
    },
    {
      "x": 285.0,
      "y": 216.1333
    }
  ],
  [
    {
      "x": 275.0,
      "y": 141.1333
    },
    {
      "x": 285.0,
      "y": 216.1333
    }
  ],
  [
    {
      "x": 283.0,
      "y": 143.1333
    },
    {
      "x": 284.0,
      "y": 194.1333
    },
    {
      "x": 288.0,
      "y": 210.1333
    }
  ],
  [
    {
      "x": 283.0,
      "y": 143.1333
    },
    {
      "x": 284.0,
      "y": 194.1333
    },
    {
      "x": 288.0,
      "y": 210.1333
    }
  ],
  [
    {
      "x": 283.0,
      "y": 143.1333
    },
    {
      "x": 284.0,
      "y": 194.1333
    },
    {
      "x": 288.0,
      "y": 210.1333
    }
  ],
  [
    {
      "x": 341.0,
      "y": 119.1333
    },
    {
      "x": 347.0,
      "y": 142.1333
    },
    {
      "x": 347.0,
      "y": 185.1333
    },
    {
      "x": 351.0,
      "y": 193.1333
    }
  ],
  [
    {
      "x": 341.0,
      "y": 119.1333
    },
    {
      "x": 347.0,
      "y": 142.1333
    },
    {
      "x": 347.0,
      "y": 185.1333
    },
    {
      "x": 351.0,
      "y": 193.1333
    }
  ],
  [
    {
      "x": 341.0,
      "y": 119.1333
    },
    {
      "x": 347.0,
      "y": 142.1333
    },
    {
      "x": 347.0,
      "y": 185.1333
    },
    {
      "x": 351.0,
      "y": 193.1333
    }
  ],
  [
    {
      "x": 341.0,
      "y": 119.1333
    },
    {
      "x": 347.0,
      "y": 142.1333
    },
    {
      "x": 347.0,
      "y": 185.1333
    },
    {
      "x": 351.0,
      "y": 193.1333
    }
  ],
  [
    {
      "x": 202.0,
      "y": 132.1333
    },
    {
      "x": 204.0,
      "y": 132.1333
    },
    {
      "x": 211.0,
      "y": 157.1333
    },
    {
      "x": 214.0,
      "y": 181.1333
    },
    {
      "x": 214.0,
      "y": 185.1333
    },
    {
      "x": 212.0,
      "y": 185.1333
    }
  ],
  [
    {
      "x": 202.0,
      "y": 132.1333
    },
    {
      "x": 204.0,
      "y": 132.1333
    },
    {
      "x": 211.0,
      "y": 157.1333
    },
    {
      "x": 214.0,
      "y": 181.1333
    },
    {
      "x": 214.0,
      "y": 185.1333
    },
    {
      "x": 212.0,
      "y": 185.1333
    }
  ],
  [
    {
      "x": 202.0,
      "y": 132.1333
    },
    {
      "x": 204.0,
      "y": 132.1333
    },
    {
      "x": 211.0,
      "y": 157.1333
    },
    {
      "x": 214.0,
      "y": 181.1333
    },
    {
      "x": 214.0,
      "y": 185.1333
    },
    {
      "x": 212.0,
      "y": 185.1333
    }
  ],
  [
    {
      "x": 202.0,
      "y": 132.1333
    },
    {
      "x": 204.0,
      "y": 132.1333
    },
    {
      "x": 211.0,
      "y": 157.1333
    },
    {
      "x": 214.0,
      "y": 181.1333
    },
    {
      "x": 214.0,
      "y": 185.1333
    },
    {
      "x": 212.0,
      "y": 185.1333
    }
  ],
  [
    {
      "x": 202.0,
      "y": 132.1333
    },
    {
      "x": 204.0,
      "y": 132.1333
    },
    {
      "x": 211.0,
      "y": 157.1333
    },
    {
      "x": 214.0,
      "y": 181.1333
    },
    {
      "x": 214.0,
      "y": 185.1333
    },
    {
      "x": 212.0,
      "y": 185.1333
    }
  ],
  [
    {
      "x": 202.0,
      "y": 132.1333
    },
    {
      "x": 204.0,
      "y": 132.1333
    },
    {
      "x": 211.0,
      "y": 157.1333
    },
    {
      "x": 214.0,
      "y": 181.1333
    },
    {
      "x": 214.0,
      "y": 185.1333
    },
    {
      "x": 212.0,
      "y": 185.1333
    }
  ],
  [
    {
      "x": 199.0,
      "y": 133.1333
    },
    {
      "x": 204.0,
      "y": 139.1333
    },
    {
      "x": 204.0,
      "y": 157.1333
    },
    {
      "x": 212.0,
      "y": 181.1333
    }
  ],
  [
    {
      "x": 199.0,
      "y": 133.1333
    },
    {
      "x": 204.0,
      "y": 139.1333
    },
    {
      "x": 204.0,
      "y": 157.1333
    },
    {
      "x": 212.0,
      "y": 181.1333
    }
  ],
  [
    {
      "x": 199.0,
      "y": 133.1333
    },
    {
      "x": 204.0,
      "y": 139.1333
    },
    {
      "x": 204.0,
      "y": 157.1333
    },
    {
      "x": 212.0,
      "y": 181.1333
    }
  ],
  [
    {
      "x": 199.0,
      "y": 133.1333
    },
    {
      "x": 204.0,
      "y": 139.1333
    },
    {
      "x": 204.0,
      "y": 157.1333
    },
    {
      "x": 212.0,
      "y": 181.1333
    }
  ],
  [
    {
      "x": 105.0,
      "y": 130.1333
    },
    {
      "x": 109.0,
      "y": 132.1333
    },
    {
      "x": 115.0,
      "y": 158.1333
    },
    {
      "x": 116.0,
      "y": 178.1333
    },
    {
      "x": 120.0,
      "y": 187.1333
    },
    {
      "x": 122.0,
      "y": 203.1333
    },
    {
      "x": 122.0,
      "y": 194.1333
    }
  ],
  [
    {
      "x": 105.0,
      "y": 130.1333
    },
    {
      "x": 109.0,
      "y": 132.1333
    },
    {
      "x": 115.0,
      "y": 158.1333
    },
    {
      "x": 116.0,
      "y": 178.1333
    },
    {
      "x": 120.0,
      "y": 187.1333
    },
    {
      "x": 122.0,
      "y": 203.1333
    },
    {
      "x": 122.0,
      "y": 194.1333
    }
  ],
  [
    {
      "x": 105.0,
      "y": 130.1333
    },
    {
      "x": 109.0,
      "y": 132.1333
    },
    {
      "x": 115.0,
      "y": 158.1333
    },
    {
      "x": 116.0,
      "y": 178.1333
    },
    {
      "x": 120.0,
      "y": 187.1333
    },
    {
      "x": 122.0,
      "y": 203.1333
    },
    {
      "x": 122.0,
      "y": 194.1333
    }
  ],
  [
    {
      "x": 105.0,
      "y": 130.1333
    },
    {
      "x": 109.0,
      "y": 132.1333
    },
    {
      "x": 115.0,
      "y": 158.1333
    },
    {
      "x": 116.0,
      "y": 178.1333
    },
    {
      "x": 120.0,
      "y": 187.1333
    },
    {
      "x": 122.0,
      "y": 203.1333
    },
    {
      "x": 122.0,
      "y": 194.1333
    }
  ],
  [
    {
      "x": 105.0,
      "y": 130.1333
    },
    {
      "x": 109.0,
      "y": 132.1333
    },
    {
      "x": 115.0,
      "y": 158.1333
    },
    {
      "x": 116.0,
      "y": 178.1333
    },
    {
      "x": 120.0,
      "y": 187.1333
    },
    {
      "x": 122.0,
      "y": 203.1333
    },
    {
      "x": 122.0,
      "y": 194.1333
    }
  ],
  [
    {
      "x": 105.0,
      "y": 130.1333
    },
    {
      "x": 109.0,
      "y": 132.1333
    },
    {
      "x": 115.0,
      "y": 158.1333
    },
    {
      "x": 116.0,
      "y": 178.1333
    },
    {
      "x": 120.0,
      "y": 187.1333
    },
    {
      "x": 122.0,
      "y": 203.1333
    },
    {
      "x": 122.0,
      "y": 194.1333
    }
  ],
  [
    {
      "x": 105.0,
      "y": 130.1333
    },
    {
      "x": 109.0,
      "y": 132.1333
    },
    {
      "x": 115.0,
      "y": 158.1333
    },
    {
      "x": 116.0,
      "y": 178.1333
    },
    {
      "x": 120.0,
      "y": 187.1333
    },
    {
      "x": 122.0,
      "y": 203.1333
    },
    {
      "x": 122.0,
      "y": 194.1333
    }
  ],
  [
    {
      "x": 117.0,
      "y": 129.1333
    },
    {
      "x": 118.0,
      "y": 147.1333
    },
    {
      "x": 125.0,
      "y": 173.1333
    },
    {
      "x": 132.0,
      "y": 187.1333
    },
    {
      "x": 133.0,
      "y": 198.1333
    }
  ],
  [
    {
      "x": 117.0,
      "y": 129.1333
    },
    {
      "x": 118.0,
      "y": 147.1333
    },
    {
      "x": 125.0,
      "y": 173.1333
    },
    {
      "x": 132.0,
      "y": 187.1333
    },
    {
      "x": 133.0,
      "y": 198.1333
    }
  ],
  [
    {
      "x": 117.0,
      "y": 129.1333
    },
    {
      "x": 118.0,
      "y": 147.1333
    },
    {
      "x": 125.0,
      "y": 173.1333
    },
    {
      "x": 132.0,
      "y": 187.1333
    },
    {
      "x": 133.0,
      "y": 198.1333
    }
  ],
  [
    {
      "x": 117.0,
      "y": 129.1333
    },
    {
      "x": 118.0,
      "y": 147.1333
    },
    {
      "x": 125.0,
      "y": 173.1333
    },
    {
      "x": 132.0,
      "y": 187.1333
    },
    {
      "x": 133.0,
      "y": 198.1333
    }
  ],
  [
    {
      "x": 117.0,
      "y": 129.1333
    },
    {
      "x": 118.0,
      "y": 147.1333
    },
    {
      "x": 125.0,
      "y": 173.1333
    },
    {
      "x": 132.0,
      "y": 187.1333
    },
    {
      "x": 133.0,
      "y": 198.1333
    }
  ]
]
