[
  [
    {
      "x": 197.0,
      "y": 194.0
    },
    {
      "x": 326.0,
      "y": 194.0
    }
  ],
  [
    {
      "x": 197.0,
      "y": 194.0
    },
    {
      "x": 326.0,
      "y": 194.0
    }
  ],
  [
    {
      "x": 170.0,
      "y": 141.0
    },
    {
      "x": 286.0,
      "y": 141.0
    }
  ],
  [
    {
      "x": 170.0,
      "y": 141.0
    },
    {
      "x": 286.0,
      "y": 141.0
    }
  ],
  [
    {
      "x": 170.0,
      "y": 141.0
    },
    {
      "x": 171.0,
      "y": 146.0
    },
    {
      "x": 186.0,
      "y": 165.0
    },
    {
      "x": 191.0,
      "y": 182.0
    },
    {
      "x": 197.0,
      "y": 192.0
    }
  ],
  [
    {
      "x": 170.0,
      "y": 141.0
    },
    {
      "x": 171.0,
      "y": 146.0
    },
    {
      "x": 186.0,
      "y": 165.0
    },
    {
      "x": 191.0,
      "y": 182.0
    },
    {
      "x": 197.0,
      "y": 192.0
    }
  ],
  [
    {
      "x": 170.0,
      "y": 141.0
    },
    {
      "x": 171.0,
      "y": 146.0
    },
    {
      "x": 186.0,
      "y": 165.0
    },
    {
      "x": 191.0,
      "y": 182.0
    },
    {
      "x": 197.0,
      "y": 192.0
    }
  ],
  [
    {
      "x": 170.0,
      "y": 141.0
    },
    {
      "x": 171.0,
      "y": 146.0
    },
    {
      "x": 186.0,
      "y": 165.0
    },
    {
      "x": 191.0,
      "y": 182.0
    },
    {
      "x": 197.0,
      "y": 192.0
    }
  ],
  [
    {
      "x": 170.0,
      "y": 141.0
    },
    {
      "x": 171.0,
      "y": 146.0
    },
    {
      "x": 186.0,
      "y": 165.0
    },
    {
      "x": 191.0,
      "y": 182.0
    },
    {
      "x": 197.0,
      "y": 192.0
    }
  ],
  [
    {
      "x": 287.0,
      "y": 140.0
    },
    {
      "x": 295.0,
      "y": 157.0
    },
    {
      "x": 307.0,
      "y": 168.0
    },
    {
      "x": 321.0,
      "y": 192.0
    },
    {
      "x": 325.0,
      "y": 193.0
    }
  ],
  [
    {
      "x": 287.0,
      "y": 140.0
    },
    {
      "x": 295.0,
      "y": 157.0
    },
    {
      "x": 307.0,
      "y": 168.0
    },
    {
      "x": 321.0,
      "y": 192.0
    },
    {
      "x": 325.0,
      "y": 193.0
    }
  ],
  [
    {
      "x": 287.0,
      "y": 140.0
    },
    {
      "x": 295.0,
      "y": 157.0
    },
    {
      "x": 307.0,
      "y": 168.0
    },
    {
      "x": 321.0,
      "y": 192.0
    },
    {
      "x": 325.0,
      "y": 193.0
    }
  ],
  [
    {
      "x": 287.0,
      "y": 140.0
    },
    {
      "x": 295.0,
      "y": 157.0
    },
    {
      "x": 307.0,
      "y": 168.0
    },
    {
      "x": 321.0,
      "y": 192.0
    },
    {
      "x": 325.0,
      "y": 193.0
    }
  ],
  [
    {
      "x": 287.0,
      "y": 140.0
    },
    {
      "x": 295.0,
      "y": 157.0
    },
    {
      "x": 307.0,
      "y": 168.0
    },
    {
      "x": 321.0,
      "y": 192.0
    },
    {
      "x": 325.0,
      "y": 193.0
    }
  ],
  [
    {
      "x": 208.0,
      "y": 185.0
    },
    {
      "x": 300.0,
      "y": 185.0
    }
  ],
  [
    {
      "x": 208.0,
      "y": 185.0
    },
    {
      "x": 300.0,
      "y": 185.0
    }
  ],
  [
    {
      "x": 189.0,
      "y": 151.0
    },
    {
      "x": 275.0,
      "y": 151.0
    }
  ],
  [
    {
      "x": 189.0,
      "y": 151.0
    },
    {
      "x": 275.0,
      "y": 151.0
    }
  ],
  [
    {
      "x": 277.0,
      "y": 151.0
    },
    {
      "x": 286.0,
      "y": 170.0
    },
    {
      "x": 296.0,
      "y": 179.0
    },
    {
      "x": 298.0,
      "y": 186.0
    }
  ],
  [
    {
      "x": 277.0,
      "y": 151.0
    },
    {
      "x": 286.0,
      "y": 170.0
    },
    {
      "x": 296.0,
      "y": 179.0
    },
    {
      "x": 298.0,
      "y": 186.0
    }
  ],
  [
    {
      "x": 277.0,
      "y": 151.0
    },
    {
      "x": 286.0,
      "y": 170.0
    },
    {
      "x": 296.0,
      "y": 179.0
    },
    {
      "x": 298.0,
      "y": 186.0
    }
  ],
  [
    {
      "x": 277.0,
      "y": 151.0
    },
    {
      "x": 286.0,
      "y": 170.0
    },
    {
      "x": 296.0,
      "y": 179.0
    },
    {
      "x": 298.0,
      "y": 186.0
    }
  ],
  [
    {
      "x": 188.0,
      "y": 152.0
    },
    {
      "x": 196.0,
      "y": 164.0
    },
    {
      "x": 202.0,
      "y": 168.0
    },
    {
      "x": 208.0,
      "y": 185.0
    }
  ],
  [
    {
      "x": 188.0,
      "y": 152.0
    },
    {
      "x": 196.0,
      "y": 164.0
    },
    {
      "x": 202.0,
      "y": 168.0
    },
    {
      "x": 208.0,
      "y": 185.0
    }
  ],
  [
    {
      "x": 188.0,
      "y": 152.0
    },
    {
      "x": 196.0,
      "y": 164.0
    },
    {
      "x": 202.0,
      "y": 168.0
    },
    {
      "x": 208.0,
      "y": 185.0
    }
  ],
  [
    {
      "x": 188.0,
      "y": 152.0
    },
    {
      "x": 196.0,
      "y": 164.0
    },
    {
      "x": 202.0,
      "y": 168.0
    },
    {
      "x": 208.0,
      "y": 185.0
    }
  ],
  [
    {
      "x": 212.0,
      "y": 195.0
    },
    {
      "x": 212.0,
      "y": 275.0
    }
  ],
  [
    {
      "x": 212.0,
      "y": 195.0
    },
    {
      "x": 212.0,
      "y": 275.0
    }
  ],
  [
    {
      "x": 198.0,
      "y": 195.0
    },
    {
      "x": 199.0,
      "y": 274.0
    }
  ],
  [
    {
      "x": 198.0,
      "y": 195.0
    },
    {
      "x": 199.0,
      "y": 274.0
    }
  ],
  [
    {
      "x": 200.0,
      "y": 272.0
    },
    {
      "x": 211.0,
      "y": 272.0
    }
  ],
  [
    {
      "x": 200.0,
      "y": 272.0
    },
    {
      "x": 211.0,
      "y": 272.0
    }
  ],
  [
    {
      "x": 200.0,
      "y": 260.0
    },
    {
      "x": 211.0,
      "y": 260.0
    }
  ],
  [
    {
      "x": 200.0,
      "y": 260.0
    },
    {
      "x": 211.0,
      "y": 260.0
    }
  ],
  [
    {
      "x": 311.0,
      "y": 197.0
    },
    {
      "x": 311.0,
      "y": 279.0
    }
  ],
  [
    {
      "x": 311.0,
      "y": 197.0
    },
    {
      "x": 311.0,
      "y": 279.0
    }
  ],
  [
    {
      "x": 321.0,
      "y": 195.0
    },
    {
      "x": 322.0,
      "y": 279.0
    }
  ],
  [
    {
      "x": 321.0,
      "y": 195.0
    },
    {
      "x": 322.0,
      "y": 279.0
    }
  ],
  [
    {
      "x": 313.0,
      "y": 276.0
    },
    {
      "x": 320.0,
      "y": 276.0
    }
  ],
  [
    {
      "x": 313.0,
      "y": 276.0
    },
    {
      "x": 320.0,
      "y": 276.0
    }
  ],
  [
    {
      "x": 314.0,
      "y": 263.0
    },
    {
      "x": 321.0,
      "y": 263.0
    }
  ],
  [
    {
      "x": 314.0,
      "y": 263.0
    },
    {
      "x": 321.0,
      "y": 263.0
    }
  ],
  [
    {
      "x": 212.0,
      "y": 208.0
    },
    {
      "x": 311.0,
      "y": 208.0
    }
  ],
  [
    {
      "x": 212.0,
      "y": 208.0
    },
    {
      "x": 311.0,
      "y": 208.0
    }
  ],
  [
    {
      "x": 169.0,
      "y": 143.0
    },
    {
      "x": 169.0,
      "y": 234.0
    }
  ],
  [
    {
      "x": 169.0,
      "y": 143.0
    },
    {
      "x": 169.0,
      "y": 234.0
    }
  ],
  [
    {
      "x": 178.0,
      "y": 157.0
    },
    {
      "x": 178.0,
      "y": 234.0
    }
  ],
  [
    {
      "x": 178.0,
      "y": 157.0
    },
    {
      "x": 178.0,
      "y": 234.0
    }
  ],
  [
    {
      "x": 170.0,
      "y": 235.0
    },
    {
      "x": 178.0,
      "y": 235.0
    }
  ],
  [
    {
      "x": 170.0,
      "y": 235.0
    },
    {
      "x": 178.0,
      "y": 235.0
    }
  ],
  [
    {
      "x": 171.0,
      "y": 221.0
    },
    {
      "x": 177.0,
      "y": 221.0
    }
  ],
  [
    {
      "x": 171.0,
      "y": 221.0
    },
    {
      "x": 177.0,
      "y": 221.0
    }
  ],
  [
    {
      "x": 195.0,
      "y": 207.0
    },
    {
      "x": 192.0,
      "y": 206.0
    },
    {
      "x": 188.0,
      "y": 197.0
    },
    {
      "x": 186.0,
      "y": 184.0
    },
    {
      "x": 179.0,
      "y": 167.0
    }
  ],
  [
    {
      "x": 195.0,
      "y": 207.0
    },
    {
      "x": 192.0,
      "y": 206.0
    },
    {
      "x": 188.0,
      "y": 197.0
    },
    {
      "x": 186.0,
      "y": 184.0
    },
    {
      "x": 179.0,
      "y": 167.0
    }
  ],
  [
    {
      "x": 195.0,
      "y": 207.0
    },
    {
      "x": 192.0,
      "y": 206.0
    },
    {
      "x": 188.0,
      "y": 197.0
    },
    {
      "x": 186.0,
      "y": 184.0
    },
    {
      "x": 179.0,
      "y": 167.0
    }
  ],
  [
    {
      "x": 195.0,
      "y": 207.0
    },
    {
      "x": 192.0,
      "y": 206.0
    },
    {
      "x": 188.0,
      "y": 197.0
    },
    {
      "x": 186.0,
      "y": 184.0
    },
    {
      "x": 179.0,
      "y": 167.0
    }
  ],
  [
    {
      "x": 195.0,
      "y": 207.0
    },
    {
      "x": 192.0,
      "y": 206.0
    },
    {
      "x": 188.0,
      "y": 197.0
    },
    {
      "x": 186.0,
      "y": 184.0
    },
    {
      "x": 179.0,
      "y": 167.0
    }
  ],
  [
    {
      "x": 282.0,
      "y": 207.0
    },
    {
      "x": 282.0,
      "y": 252.0
    }
  ],
  [
    {
      "x": 282.0,
      "y": 207.0
    },
    {
      "x": 282.0,
      "y": 252.0
    }
  ],
  [
    {
      "x": 293.0,
      "y": 211.0
    },
    {
      "x": 293.0,
      "y": 250.0
    },
    {
      "x": 291.0,
      "y": 255.0
    }
  ],
  [
    {
      "x": 293.0,
      "y": 211.0
    },
    {
      "x": 293.0,
      "y": 250.0
    },
    {
      "x": 291.0,
      "y": 255.0
    }
  ],
  [
    {
      "x": 293.0,
      "y": 211.0
    },
    {
      "x": 293.0,
      "y": 250.0
    },
    {
      "x": 291.0,
      "y": 255.0
    }
  ],
  [
    {
      "x": 284.0,
      "y": 252.0
    },
    {
      "x": 291.0,
      "y": 252.0
    }
  ],
  [
    {
      "x": 284.0,
      "y": 252.0
    },
    {
      "x": 291.0,
      "y": 252.0
    }
  ],
  [
    {
      "x": 285.0,
      "y": 238.0
    },
    {
      "x": 294.0,
      "y": 238.0
    }
  ],
  [
    {
      "x": 285.0,
      "y": 238.0
    },
    {
      "x": 294.0,
      "y": 238.0
    }
  ]
]
