[
  [
    {
      "x": 239.0,
      "y": 136.0
    },
    {
      "x": 356.0,
      "y": 136.0
    },
    {
      "x": 404.0,
      "y": 129.0
    },
    {
      "x": 559.0,
      "y": 128.0
    },
    {
      "x": 549.0,
      "y": 142.0
    },
    {
      "x": 529.0,
      "y": 158.0
    },
    {
      "x": 475.0,
      "y": 198.0
    },
    {
      "x": 463.0,
      "y": 201.0
    }
  ],
  [
    {
      "x": 239.0,
      "y": 136.0
    },
    {
      "x": 356.0,
      "y": 136.0
    },
    {
      "x": 404.0,
      "y": 129.0
    },
    {
      "x": 559.0,
      "y": 128.0
    },
    {
      "x": 549.0,
      "y": 142.0
    },
    {
      "x": 529.0,
      "y": 158.0
    },
    {
      "x": 475.0,
      "y": 198.0
    },
    {
      "x": 463.0,
      "y": 201.0
    }
  ],
  [
    {
      "x": 239.0,
      "y": 136.0
    },
    {
      "x": 356.0,
      "y": 136.0
    },
    {
      "x": 404.0,
      "y": 129.0
    },
    {
      "x": 559.0,
      "y": 128.0
    },
    {
      "x": 549.0,
      "y": 142.0
    },
    {
      "x": 529.0,
      "y": 158.0
    },
    {
      "x": 475.0,
      "y": 198.0
    },
    {
      "x": 463.0,
      "y": 201.0
    }
  ],
  [
    {
      "x": 239.0,
      "y": 136.0
    },
    {
      "x": 356.0,
      "y": 136.0
    },
    {
      "x": 404.0,
      "y": 129.0
    },
    {
      "x": 559.0,
      "y": 128.0
    },
    {
      "x": 549.0,
      "y": 142.0
    },
    {
      "x": 529.0,
      "y": 158.0
    },
    {
      "x": 475.0,
      "y": 198.0
    },
    {
      "x": 463.0,
      "y": 201.0
    }
  ],
  [
    {
      "x": 239.0,
      "y": 136.0
    },
    {
      "x": 356.0,
      "y": 136.0
    },
    {
      "x": 404.0,
      "y": 129.0
    },
    {
      "x": 559.0,
      "y": 128.0
    },
    {
      "x": 549.0,
      "y": 142.0
    },
    {
      "x": 529.0,
      "y": 158.0
    },
    {
      "x": 475.0,
      "y": 198.0
    },
    {
      "x": 463.0,
      "y": 201.0
    }
  ],
  [
    {
      "x": 239.0,
      "y": 136.0
    },
    {
      "x": 356.0,
      "y": 136.0
    },
    {
      "x": 404.0,
      "y": 129.0
    },
    {
      "x": 559.0,
      "y": 128.0
    },
    {
      "x": 549.0,
      "y": 142.0
    },
    {
      "x": 529.0,
      "y": 158.0
    },
    {
      "x": 475.0,
      "y": 198.0
    },
    {
      "x": 463.0,
      "y": 201.0
    }
  ],
  [
    {
      "x": 239.0,
      "y": 136.0
    },
    {
      "x": 356.0,
      "y": 136.0
    },
    {
      "x": 404.0,
      "y": 129.0
    },
    {
      "x": 559.0,
      "y": 128.0
    },
    {
      "x": 549.0,
      "y": 142.0
    },
    {
      "x": 529.0,
      "y": 158.0
    },
    {
      "x": 475.0,
      "y": 198.0
    },
    {
      "x": 463.0,
      "y": 201.0
    }
  ],
  [
    {
      "x": 239.0,
      "y": 136.0
    },
    {
      "x": 356.0,
      "y": 136.0
    },
    {
      "x": 404.0,
      "y": 129.0
    },
    {
      "x": 559.0,
      "y": 128.0
    },
    {
      "x": 549.0,
      "y": 142.0
    },
    {
      "x": 529.0,
      "y": 158.0
    },
    {
      "x": 475.0,
      "y": 198.0
    },
    {
      "x": 463.0,
      "y": 201.0
    }
  ],
  [
    {
      "x": 245.0,
      "y": 135.0
    },
    {
      "x": 204.0,
      "y": 163.0
    },
    {
      "x": 147.0,
      "y": 186.0
    },
    {
      "x": 143.0,
      "y": 191.0
    },
    {
      "x": 151.0,
      "y": 195.0
    }
  ],
  [
    {
      "x": 245.0,
      "y": 135.0
    },
    {
      "x": 204.0,
      "y": 163.0
    },
    {
      "x": 147.0,
      "y": 186.0
    },
    {
      "x": 143.0,
      "y": 191.0
    },
    {
      "x": 151.0,
      "y": 195.0
    }
  ],
  [
    {
      "x": 245.0,
      "y": 135.0
    },
    {
      "x": 204.0,
      "y": 163.0
    },
    {
      "x": 147.0,
      "y": 186.0
    },
    {
      "x": 143.0,
      "y": 191.0
    },
    {
      "x": 151.0,
      "y": 195.0
    }
  ],
  [
    {
      "x": 245.0,
      "y": 135.0
    },
    {
      "x": 204.0,
      "y": 163.0
    },
    {
      "x": 147.0,
      "y": 186.0
    },
    {
      "x": 143.0,
      "y": 191.0
    },
    {
      "x": 151.0,
      "y": 195.0
    }
  ],
  [
    {
      "x": 245.0,
      "y": 135.0
    },
    {
      "x": 204.0,
      "y": 163.0
    },
    {
      "x": 147.0,
      "y": 186.0
    },
    {
      "x": 143.0,
      "y": 191.0
    },
    {
      "x": 151.0,
      "y": 195.0
    }
  ],
  [
    {
      "x": 130.0,
      "y": 213.0
    },
    {
      "x": 387.0,
      "y": 214.0
    },
    {
      "x": 429.0,
      "y": 208.0
    },
    {
      "x": 499.0,
      "y": 207.0
    }
  ],
  [
    {
      "x": 130.0,
      "y": 213.0
    },
    {
      "x": 387.0,
      "y": 214.0
    },
    {
      "x": 429.0,
      "y": 208.0
    },
    {
      "x": 499.0,
      "y": 207.0
    }
  ],
  [
    {
      "x": 130.0,
      "y": 213.0
    },
    {
      "x": 387.0,
      "y": 214.0
    },
    {
      "x": 429.0,
      "y": 208.0
    },
    {
      "x": 499.0,
      "y": 207.0
    }
  ],
  [
    {
      "x": 130.0,
      "y": 213.0
    },
    {
      "x": 387.0,
      "y": 214.0
    },
    {
      "x": 429.0,
      "y": 208.0
    },
    {
      "x": 499.0,
      "y": 207.0
    }
  ],
  [
    {
      "x": 161.0,
      "y": 186.0
    },
    {
      "x": 156.0,
      "y": 186.0
    },
    {
      "x": 123.0,
      "y": 212.0
    }
  ],
  [
    {
      "x": 161.0,
      "y": 186.0
    },
    {
      "x": 156.0,
      "y": 186.0
    },
    {
      "x": 123.0,
      "y": 212.0
    }
  ],
  [
    {
      "x": 161.0,
      "y": 186.0
    },
    {
      "x": 156.0,
      "y": 186.0
    },
    {
      "x": 123.0,
      "y": 212.0
    }
  ],
  [
    {
      "x": 561.0,
      "y": 136.0
    },
    {
      "x": 563.0,
      "y": 163.0
    }
  ],
  [
    {
      "x": 561.0,
      "y": 136.0
    },
    {
      "x": 563.0,
      "y": 163.0
    }
  ],
  [
    {
      "x": 124.0,
      "y": 215.0
    },
    {
      "x": 124.0,
      "y": 240.0
    },
    {
      "x": 169.0,
      "y": 244.0
    },
    {
      "x": 322.0,
      "y": 244.0
    },
    {
      "x": 360.0,
      "y": 242.0
    },
    {
      "x": 413.0,
      "y": 233.0
    },
    {
      "x": 496.0,
      "y": 233.0
    }
  ],
  [
    {
      "x": 124.0,
      "y": 215.0
    },
    {
      "x": 124.0,
      "y": 240.0
    },
    {
      "x": 169.0,
      "y": 244.0
    },
    {
      "x": 322.0,
      "y": 244.0
    },
    {
      "x": 360.0,
      "y": 242.0
    },
    {
      "x": 413.0,
      "y": 233.0
    },
    {
      "x": 496.0,
      "y": 233.0
    }
  ],
  [
    {
      "x": 124.0,
      "y": 215.0
    },
    {
      "x": 124.0,
      "y": 240.0
    },
    {
      "x": 169.0,
      "y": 244.0
    },
    {
      "x": 322.0,
      "y": 244.0
    },
    {
      "x": 360.0,
      "y": 242.0
    },
    {
      "x": 413.0,
      "y": 233.0
    },
    {
      "x": 496.0,
      "y": 233.0
    }
  ],
  [
    {
      "x": 124.0,
      "y": 215.0
    },
    {
      "x": 124.0,
      "y": 240.0
    },
    {
      "x": 169.0,
      "y": 244.0
    },
    {
      "x": 322.0,
      "y": 244.0
    },
    {
      "x": 360.0,
      "y": 242.0
    },
    {
      "x": 413.0,
      "y": 233.0
    },
    {
      "x": 496.0,
      "y": 233.0
    }
  ],
  [
    {
      "x": 124.0,
      "y": 215.0
    },
    {
      "x": 124.0,
      "y": 240.0
    },
    {
      "x": 169.0,
      "y": 244.0
    },
    {
      "x": 322.0,
      "y": 244.0
    },
    {
      "x": 360.0,
      "y": 242.0
    },
    {
      "x": 413.0,
      "y": 233.0
    },
    {
      "x": 496.0,
      "y": 233.0
    }
  ],
  [
    {
      "x": 124.0,
      "y": 215.0
    },
    {
      "x": 124.0,
      "y": 240.0
    },
    {
      "x": 169.0,
      "y": 244.0
    },
    {
      "x": 322.0,
      "y": 244.0
    },
    {
      "x": 360.0,
      "y": 242.0
    },
    {
      "x": 413.0,
      "y": 233.0
    },
    {
      "x": 496.0,
      "y": 233.0
    }
  ],
  [
    {
      "x": 124.0,
      "y": 215.0
    },
    {
      "x": 124.0,
      "y": 240.0
    },
    {
      "x": 169.0,
      "y": 244.0
    },
    {
      "x": 322.0,
      "y": 244.0
    },
    {
      "x": 360.0,
      "y": 242.0
    },
    {
      "x": 413.0,
      "y": 233.0
    },
    {
      "x": 496.0,
      "y": 233.0
    }
  ],
  [
    {
      "x": 562.0,
      "y": 162.0
    },
    {
      "x": 520.0,
      "y": 220.0
    },
    {
      "x": 494.0,
      "y": 245.0
    },
    {
      "x": 491.0,
      "y": 233.0
    }
  ],
  [
    {
      "x": 562.0,
      "y": 162.0
    },
    {
      "x": 520.0,
      "y": 220.0
    },
    {
      "x": 494.0,
      "y": 245.0
    },
    {
      "x": 491.0,
      "y": 233.0
    }
  ],
  [
    {
      "x": 562.0,
      "y": 162.0
    },
    {
      "x": 520.0,
      "y": 220.0
    },
    {
      "x": 494.0,
      "y": 245.0
    },
    {
      "x": 491.0,
      "y": 233.0
    }
  ],
  [
    {
      "x": 562.0,
      "y": 162.0
    },
    {
      "x": 520.0,
      "y": 220.0
    },
    {
      "x": 494.0,
      "y": 245.0
    },
    {
      "x": 491.0,
      "y": 233.0
    }
  ],
  [
    {
      "x": 482.0,
      "y": 195.0
    },
    {
      "x": 488.0,
      "y": 201.0
    },
    {
      "x": 495.0,
      "y": 233.0
    }
  ],
  [
    {
      "x": 482.0,
      "y": 195.0
    },
    {
      "x": 488.0,
      "y": 201.0
    },
    {
      "x": 495.0,
      "y": 233.0
    }
  ],
  [
    {
      "x": 482.0,
      "y": 195.0
    },
    {
      "x": 488.0,
      "y": 201.0
    },
    {
      "x": 495.0,
      "y": 233.0
    }
  ],
  [
    {
      "x": 164.0,
      "y": 246.0
    },
    {
      "x": 164.0,
      "y": 280.0
    },
    {
      "x": 157.0,
      "y": 360.0
    },
    {
      "x": 157.0,
      "y": 412.0
    }
  ],
  [
    {
      "x": 164.0,
      "y": 246.0
    },
    {
      "x": 164.0,
      "y": 280.0
    },
    {
      "x": 157.0,
      "y": 360.0
    },
    {
      "x": 157.0,
      "y": 412.0
    }
  ],
  [
    {
      "x": 164.0,
      "y": 246.0
    },
    {
      "x": 164.0,
      "y": 280.0
    },
    {
      "x": 157.0,
      "y": 360.0
    },
    {
      "x": 157.0,
      "y": 412.0
    }
  ],
  [
    {
      "x": 164.0,
      "y": 246.0
    },
    {
      "x": 164.0,
      "y": 280.0
    },
    {
      "x": 157.0,
      "y": 360.0
    },
    {
      "x": 157.0,
      "y": 412.0
    }
  ],
  [
    {
      "x": 199.0,
      "y": 249.0
    },
    {
      "x": 198.0,
      "y": 274.0
    },
    {
      "x": 181.0,
      "y": 364.0
    },
    {
      "x": 175.0,
      "y": 411.0
    },
    {
      "x": 174.0,
      "y": 414.0
    },
    {
      "x": 172.0,
      "y": 413.0
    }
  ],
  [
    {
      "x": 199.0,
      "y": 249.0
    },
    {
      "x": 198.0,
      "y": 274.0
    },
    {
      "x": 181.0,
      "y": 364.0
    },
    {
      "x": 175.0,
      "y": 411.0
    },
    {
      "x": 174.0,
      "y": 414.0
    },
    {
      "x": 172.0,
      "y": 413.0
    }
  ],
  [
    {
      "x": 199.0,
      "y": 249.0
    },
    {
      "x": 198.0,
      "y": 274.0
    },
    {
      "x": 181.0,
      "y": 364.0
    },
    {
      "x": 175.0,
      "y": 411.0
    },
    {
      "x": 174.0,
      "y": 414.0
    },
    {
      "x": 172.0,
      "y": 413.0
    }
  ],
  [
    {
      "x": 199.0,
      "y": 249.0
    },
    {
      "x": 198.0,
      "y": 274.0
    },
    {
      "x": 181.0,
      "y": 364.0
    },
    {
      "x": 175.0,
      "y": 411.0
    },
    {
      "x": 174.0,
      "y": 414.0
    },
    {
      "x": 172.0,
      "y": 413.0
    }
  ],
  [
    {
      "x": 199.0,
      "y": 249.0
    },
    {
      "x": 198.0,
      "y": 274.0
    },
    {
      "x": 181.0,
      "y": 364.0
    },
    {
      "x": 175.0,
      "y": 411.0
    },
    {
      "x": 174.0,
      "y": 414.0
    },
    {
      "x": 172.0,
      "y": 413.0
    }
  ],
  [
    {
      "x": 199.0,
      "y": 249.0
    },
    {
      "x": 198.0,
      "y": 274.0
    },
    {
      "x": 181.0,
      "y": 364.0
    },
    {
      "x": 175.0,
      "y": 411.0
    },
    {
      "x": 174.0,
      "y": 414.0
    },
    {
      "x": 172.0,
      "y": 413.0
    }
  ],
  [
    {
      "x": 241.0,
      "y": 247.0
    },
    {
      "x": 242.0,
      "y": 331.0
    }
  ],
  [
    {
      "x": 241.0,
      "y": 247.0
    },
    {
      "x": 242.0,
      "y": 331.0
    }
  ],
  [
    {
      "x": 270.0,
      "y": 246.0
    },
    {
      "x": 271.0,
      "y": 281.0
    },
    {
      "x": 265.0,
      "y": 355.0
    }
  ],
  [
    {
      "x": 270.0,
      "y": 246.0
    },
    {
      "x": 271.0,
      "y": 281.0
    },
    {
      "x": 265.0,
      "y": 355.0
    }
  ],
  [
    {
      "x": 270.0,
      "y": 246.0
    },
    {
      "x": 271.0,
      "y": 281.0
    },
    {
      "x": 265.0,
      "y": 355.0
    }
  ],
  [
    {
      "x": 244.0,
      "y": 320.0
    },
    {
      "x": 243.0,
      "y": 364.0
    },
    {
      "x": 262.0,
      "y": 364.0
    },
    {
      "x": 267.0,
      "y": 358.0
    },
    {
      "x": 269.0,
      "y": 347.0
    }
  ],
  [
    {
      "x": 244.0,
      "y": 320.0
    },
    {
      "x": 243.0,
      "y": 364.0
    },
    {
      "x": 262.0,
      "y": 364.0
    },
    {
      "x": 267.0,
      "y": 358.0
    },
    {
      "x": 269.0,
      "y": 347.0
    }
  ],
  [
    {
      "x": 244.0,
      "y": 320.0
    },
    {
      "x": 243.0,
      "y": 364.0
    },
    {
      "x": 262.0,
      "y": 364.0
    },
    {
      "x": 267.0,
      "y": 358.0
    },
    {
      "x": 269.0,
      "y": 347.0
    }
  ],
  [
    {
      "x": 244.0,
      "y": 320.0
    },
    {
      "x": 243.0,
      "y": 364.0
    },
    {
      "x": 262.0,
      "y": 364.0
    },
    {
      "x": 267.0,
      "y": 358.0
    },
    {
      "x": 269.0,
      "y": 347.0
    }
  ],
  [
    {
      "x": 244.0,
      "y": 320.0
    },
    {
      "x": 243.0,
      "y": 364.0
    },
    {
      "x": 262.0,
      "y": 364.0
    },
    {
      "x": 267.0,
      "y": 358.0
    },
    {
      "x": 269.0,
      "y": 347.0
    }
  ],
  [
    {
      "x": 158.0,
      "y": 405.0
    },
    {
      "x": 160.0,
      "y": 411.0
    },
    {
      "x": 178.0,
      "y": 411.0
    }
  ],
  [
    {
      "x": 158.0,
      "y": 405.0
    },
    {
      "x": 160.0,
      "y": 411.0
    },
    {
      "x": 178.0,
      "y": 411.0
    }
  ],
  [
    {
      "x": 158.0,
      "y": 405.0
    },
    {
      "x": 160.0,
      "y": 411.0
    },
    {
      "x": 178.0,
      "y": 411.0
    }
  ],
  [
    {
      "x": 433.0,
      "y": 241.0
    },
    {
      "x": 430.0,
      "y": 261.0
    },
    {
      "x": 430.0,
      "y": 405.0
    }
  ],
  [
    {
      "x": 433.0,
      "y": 241.0
    },
    {
      "x": 430.0,
      "y": 261.0
    },
    {
      "x": 430.0,
      "y": 405.0
    }
  ],
  [
    {
      "x": 433.0,
      "y": 241.0
    },
    {
      "x": 430.0,
      "y": 261.0
    },
    {
      "x": 430.0,
      "y": 405.0
    }
  ],
  [
    {
      "x": 464.0,
      "y": 244.0
    },
    {
      "x": 459.0,
      "y": 273.0
    },
    {
      "x": 459.0,
      "y": 302.0
    },
    {
      "x": 446.0,
      "y": 374.0
    },
    {
      "x": 446.0,
      "y": 408.0
    },
    {
      "x": 439.0,
      "y": 412.0
    },
    {
      "x": 435.0,
      "y": 412.0
    },
    {
      "x": 435.0,
      "y": 410.0
    }
  ],
  [
    {
      "x": 464.0,
      "y": 244.0
    },
    {
      "x": 459.0,
      "y": 273.0
    },
    {
      "x": 459.0,
      "y": 302.0
    },
    {
      "x": 446.0,
      "y": 374.0
    },
    {
      "x": 446.0,
      "y": 408.0
    },
    {
      "x": 439.0,
      "y": 412.0
    },
    {
      "x": 435.0,
      "y": 412.0
    },
    {
      "x": 435.0,
      "y": 410.0
    }
  ],
  [
    {
      "x": 464.0,
      "y": 244.0
    },
    {
      "x": 459.0,
      "y": 273.0
    },
    {
      "x": 459.0,
      "y": 302.0
    },
    {
      "x": 446.0,
      "y": 374.0
    },
    {
      "x": 446.0,
      "y": 408.0
    },
    {
      "x": 439.0,
      "y": 412.0
    },
    {
      "x": 435.0,
      "y": 412.0
    },
    {
      "x": 435.0,
      "y": 410.0
    }
  ],
  [
    {
      "x": 464.0,
      "y": 244.0
    },
    {
      "x": 459.0,
      "y": 273.0
    },
    {
      "x": 459.0,
      "y": 302.0
    },
    {
      "x": 446.0,
      "y": 374.0
    },
    {
      "x": 446.0,
      "y": 408.0
    },
    {
      "x": 439.0,
      "y": 412.0
    },
    {
      "x": 435.0,
      "y": 412.0
    },
    {
      "x": 435.0,
      "y": 410.0
    }
  ],
  [
    {
      "x": 464.0,
      "y": 244.0
    },
    {
      "x": 459.0,
      "y": 273.0
    },
    {
      "x": 459.0,
      "y": 302.0
    },
    {
      "x": 446.0,
      "y": 374.0
    },
    {
      "x": 446.0,
      "y": 408.0
    },
    {
      "x": 439.0,
      "y": 412.0
    },
    {
      "x": 435.0,
      "y": 412.0
    },
    {
      "x": 435.0,
      "y": 410.0
    }
  ],
  [
    {
      "x": 464.0,
      "y": 244.0
    },
    {
      "x": 459.0,
      "y": 273.0
    },
    {
      "x": 459.0,
      "y": 302.0
    },
    {
      "x": 446.0,
      "y": 374.0
    },
    {
      "x": 446.0,
      "y": 408.0
    },
    {
      "x": 439.0,
      "y": 412.0
    },
    {
      "x": 435.0,
      "y": 412.0
    },
    {
      "x": 435.0,
      "y": 410.0
    }
  ],
  [
    {
      "x": 464.0,
      "y": 244.0
    },
    {
      "x": 459.0,
      "y": 273.0
    },
    {
      "x": 459.0,
      "y": 302.0
    },
    {
      "x": 446.0,
      "y": 374.0
    },
    {
      "x": 446.0,
      "y": 408.0
    },
    {
      "x": 439.0,
      "y": 412.0
    },
    {
      "x": 435.0,
      "y": 412.0
    },
    {
      "x": 435.0,
      "y": 410.0
    }
  ],
  [
    {
      "x": 464.0,
      "y": 244.0
    },
    {
      "x": 459.0,
      "y": 273.0
    },
    {
      "x": 459.0,
      "y": 302.0
    },
    {
      "x": 446.0,
      "y": 374.0
    },
    {
      "x": 446.0,
      "y": 408.0
    },
    {
      "x": 439.0,
      "y": 412.0
    },
    {
      "x": 435.0,
      "y": 412.0
    },
    {
      "x": 435.0,
      "y": 410.0
    }
  ],
  [
    {
      "x": 483.0,
      "y": 239.0
    },
    {
      "x": 480.0,
      "y": 255.0
    },
    {
      "x": 479.0,
      "y": 358.0
    },
    {
      "x": 490.0,
      "y": 359.0
    },
    {
      "x": 491.0,
      "y": 349.0
    }
  ],
  [
    {
      "x": 483.0,
      "y": 239.0
    },
    {
      "x": 480.0,
      "y": 255.0
    },
    {
      "x": 479.0,
      "y": 358.0
    },
    {
      "x": 490.0,
      "y": 359.0
    },
    {
      "x": 491.0,
      "y": 349.0
    }
  ],
  [
    {
      "x": 483.0,
      "y": 239.0
    },
    {
      "x": 480.0,
      "y": 255.0
    },
    {
      "x": 479.0,
      "y": 358.0
    },
    {
      "x": 490.0,
      "y": 359.0
    },
    {
      "x": 491.0,
      "y": 349.0
    }
  ],
  [
    {
      "x": 483.0,
      "y": 239.0
    },
    {
      "x": 480.0,
      "y": 255.0
    },
    {
      "x": 479.0,
      "y": 358.0
    },
    {
      "x": 490.0,
      "y": 359.0
    },
    {
      "x": 491.0,
      "y": 349.0
    }
  ],
  [
    {
      "x": 483.0,
      "y": 239.0
    },
    {
      "x": 480.0,
      "y": 255.0
    },
    {
      "x": 479.0,
      "y": 358.0
    },
    {
      "x": 490.0,
      "y": 359.0
    },
    {
      "x": 491.0,
      "y": 349.0
    }
  ],
  [
    {
      "x": 507.0,
      "y": 243.0
    },
    {
      "x": 492.0,
      "y": 316.0
    },
    {
      "x": 492.0,
      "y": 365.0
    }
  ],
  [
    {
      "x": 507.0,
      "y": 243.0
    },
    {
      "x": 492.0,
      "y": 316.0
    },
    {
      "x": 492.0,
      "y": 365.0
    }
  ],
  [
    {
      "x": 507.0,
      "y": 243.0
    },
    {
      "x": 492.0,
      "y": 316.0
    },
    {
      "x": 492.0,
      "y": 365.0
    }
  ]
]
