[
  [
    {
      "x": 153.0,
      "y": 159.0
    },
    {
      "x": 486.0,
      "y": 159.0
    },
    {
      "x": 496.0,
      "y": 156.0
    }
  ],
  [
    {
      "x": 153.0,
      "y": 159.0
    },
    {
      "x": 486.0,
      "y": 159.0
    },
    {
      "x": 496.0,
      "y": 156.0
    }
  ],
  [
    {
      "x": 153.0,
      "y": 159.0
    },
    {
      "x": 486.0,
      "y": 159.0
    },
    {
      "x": 496.0,
      "y": 156.0
    }
  ],
  [
    {
      "x": 154.0,
      "y": 163.0
    },
    {
      "x": 154.0,
      "y": 175.0
    }
  ],
  [
    {
      "x": 154.0,
      "y": 163.0
    },
    {
      "x": 154.0,
      "y": 175.0
    }
  ],
  [
    {
      "x": 496.0,
      "y": 158.0
    },
    {
      "x": 496.0,
      "y": 170.0
    }
  ],
  [
    {
      "x": 496.0,
      "y": 158.0
    },
    {
      "x": 496.0,
      "y": 170.0
    }
  ],
  [
    {
      "x": 157.0,
      "y": 175.0
    },
    {
      "x": 498.0,
      "y": 173.0
    }
  ],
  [
    {
      "x": 157.0,
      "y": 175.0
    },
    {
      "x": 498.0,
      "y": 173.0
    }
  ],
  [
    {
      "x": 177.0,
      "y": 176.0
    },
    {
      "x": 177.0,
      "y": 261.0
    },
    {
      "x": 181.0,
      "y": 331.0
    },
    {
      "x": 193.0,
      "y": 331.0
    },
    {
      "x": 193.0,
      "y": 329.0
    }
  ],
  [
    {
      "x": 177.0,
      "y": 176.0
    },
    {
      "x": 177.0,
      "y": 261.0
    },
    {
      "x": 181.0,
      "y": 331.0
    },
    {
      "x": 193.0,
      "y": 331.0
    },
    {
      "x": 193.0,
      "y": 329.0
    }
  ],
  [
    {
      "x": 177.0,
      "y": 176.0
    },
    {
      "x": 177.0,
      "y": 261.0
    },
    {
      "x": 181.0,
      "y": 331.0
    },
    {
      "x": 193.0,
      "y": 331.0
    },
    {
      "x": 193.0,
      "y": 329.0
    }
  ],
  [
    {
      "x": 177.0,
      "y": 176.0
    },
    {
      "x": 177.0,
      "y": 261.0
    },
    {
      "x": 181.0,
      "y": 331.0
    },
    {
      "x": 193.0,
      "y": 331.0
    },
    {
      "x": 193.0,
      "y": 329.0
    }
  ],
  [
    {
      "x": 177.0,
      "y": 176.0
    },
    {
      "x": 177.0,
      "y": 261.0
    },
    {
      "x": 181.0,
      "y": 331.0
    },
    {
      "x": 193.0,
      "y": 331.0
    },
    {
      "x": 193.0,
      "y": 329.0
    }
  ],
  [
    {
      "x": 189.0,
      "y": 178.0
    },
    {
      "x": 190.0,
      "y": 332.0
    },
    {
      "x": 193.0,
      "y": 331.0
    }
  ],
  [
    {
      "x": 189.0,
      "y": 178.0
    },
    {
      "x": 190.0,
      "y": 332.0
    },
    {
      "x": 193.0,
      "y": 331.0
    }
  ],
  [
    {
      "x": 189.0,
      "y": 178.0
    },
    {
      "x": 190.0,
      "y": 332.0
    },
    {
      "x": 193.0,
      "y": 331.0
    }
  ],
  [
    {
      "x": 463.0,
      "y": 175.0
    },
    {
      "x": 466.0,
      "y": 203.0
    },
    {
      "x": 466.0,
      "y": 328.0
    },
    {
      "x": 482.0,
      "y": 328.0
    },
    {
      "x": 484.0,
      "y": 324.0
    }
  ],
  [
    {
      "x": 463.0,
      "y": 175.0
    },
    {
      "x": 466.0,
      "y": 203.0
    },
    {
      "x": 466.0,
      "y": 328.0
    },
    {
      "x": 482.0,
      "y": 328.0
    },
    {
      "x": 484.0,
      "y": 324.0
    }
  ],
  [
    {
      "x": 463.0,
      "y": 175.0
    },
    {
      "x": 466.0,
      "y": 203.0
    },
    {
      "x": 466.0,
      "y": 328.0
    },
    {
      "x": 482.0,
      "y": 328.0
    },
    {
      "x": 484.0,
      "y": 324.0
    }
  ],
  [
    {
      "x": 463.0,
      "y": 175.0
    },
    {
      "x": 466.0,
      "y": 203.0
    },
    {
      "x": 466.0,
      "y": 328.0
    },
    {
      "x": 482.0,
      "y": 328.0
    },
    {
      "x": 484.0,
      "y": 324.0
    }
  ],
  [
    {
      "x": 463.0,
      "y": 175.0
    },
    {
      "x": 466.0,
      "y": 203.0
    },
    {
      "x": 466.0,
      "y": 328.0
    },
    {
      "x": 482.0,
      "y": 328.0
    },
    {
      "x": 484.0,
      "y": 324.0
    }
  ],
  [
    {
      "x": 478.0,
      "y": 176.0
    },
    {
      "x": 477.0,
      "y": 195.0
    },
    {
      "x": 482.0,
      "y": 240.0
    },
    {
      "x": 482.0,
      "y": 323.0
    },
    {
      "x": 485.0,
      "y": 328.0
    }
  ],
  [
    {
      "x": 478.0,
      "y": 176.0
    },
    {
      "x": 477.0,
      "y": 195.0
    },
    {
      "x": 482.0,
      "y": 240.0
    },
    {
      "x": 482.0,
      "y": 323.0
    },
    {
      "x": 485.0,
      "y": 328.0
    }
  ],
  [
    {
      "x": 478.0,
      "y": 176.0
    },
    {
      "x": 477.0,
      "y": 195.0
    },
    {
      "x": 482.0,
      "y": 240.0
    },
    {
      "x": 482.0,
      "y": 323.0
    },
    {
      "x": 485.0,
      "y": 328.0
    }
  ],
  [
    {
      "x": 478.0,
      "y": 176.0
    },
    {
      "x": 477.0,
      "y": 195.0
    },
    {
      "x": 482.0,
      "y": 240.0
    },
    {
      "x": 482.0,
      "y": 323.0
    },
    {
      "x": 485.0,
      "y": 328.0
    }
  ],
  [
    {
      "x": 478.0,
      "y": 176.0
    },
    {
      "x": 477.0,
      "y": 195.0
    },
    {
      "x": 482.0,
      "y": 240.0
    },
    {
      "x": 482.0,
      "y": 323.0
    },
    {
      "x": 485.0,
      "y": 328.0
    }
  ],
  [
    {
      "x": 194.0,
      "y": 315.0
    },
    {
      "x": 202.0,
      "y": 315.0
    }
  ],
  [
    {
      "x": 194.0,
      "y": 315.0
    },
    {
      "x": 202.0,
      "y": 315.0
    }
  ],
  [
    {
      "x": 198.0,
      "y": 179.0
    },
    {
      "x": 203.0,
      "y": 315.0
    }
  ],
  [
    {
      "x": 198.0,
      "y": 179.0
    },
    {
      "x": 203.0,
      "y": 315.0
    }
  ],
  [
    {
      "x": 484.0,
      "y": 309.0
    },
    {
      "x": 491.0,
      "y": 309.0
    }
  ],
  [
    {
      "x": 484.0,
      "y": 309.0
    },
    {
      "x": 491.0,
      "y": 309.0
    }
  ],
  [
    {
      "x": 486.0,
      "y": 176.0
    },
    {
      "x": 486.0,
      "y": 229.0
    },
    {
      "x": 491.0,
      "y": 305.0
    }
  ],
  [
    {
      "x": 486.0,
      "y": 176.0
    },
    {
      "x": 486.0,
      "y": 229.0
    },
    {
      "x": 491.0,
      "y": 305.0
    }
  ],
  [
    {
      "x": 486.0,
      "y": 176.0
    },
    {
      "x": 486.0,
      "y": 229.0
    },
    {
      "x": 491.0,
      "y": 305.0
    }
  ],
  [
    {
      "x": 184.0,
      "y": 329.0
    },
    {
      "x": 190.0,
      "y": 329.0
    }
  ],
  [
    {
      "x": 184.0,
      "y": 329.0
    },
    {
      "x": 190.0,
      "y": 329.0
    }
  ],
  [
    {
      "x": 195.0,
      "y": 313.0
    },
    {
      "x": 200.0,
      "y": 313.0
    }
  ],
  [
    {
      "x": 195.0,
      "y": 313.0
    },
    {
      "x": 200.0,
      "y": 313.0
    }
  ],
  [
    {
      "x": 472.0,
      "y": 327.0
    },
    {
      "x": 471.0,
      "y": 327.0
    }
  ],
  [
    {
      "x": 472.0,
      "y": 327.0
    },
    {
      "x": 471.0,
      "y": 327.0
    }
  ],
  [
    {
      "x": 486.0,
      "y": 306.0
    },
    {
      "x": 489.0,
      "y": 307.0
    }
  ],
  [
    {
      "x": 486.0,
      "y": 306.0
    },
    {
      "x": 489.0,
      "y": 307.0
    }
  ]
]
