[
  [
    {
      "x": 198.0,
      "y": 124.0
    },
    {
      "x": 170.0,
      "y": 129.0
    },
    {
      "x": 158.0,
      "y": 144.0
    },
    {
      "x": 149.0,
      "y": 165.0
    },
    {
      "x": 142.0,
      "y": 191.0
    },
    {
      "x": 144.0,
      "y": 217.0
    },
    {
      "x": 150.0,
      "y": 228.0
    },
    {
      "x": 213.0,
      "y": 250.0
    },
    {
      "x": 219.0,
      "y": 256.0
    },
    {
      "x": 243.0,
      "y": 263.0
    },
    {
      "x": 338.0,
      "y": 261.0
    },
    {
      "x": 370.0,
      "y": 251.0
    },
    {
      "x": 374.0,
      "y": 244.0
    },
    {
      "x": 382.0,
      "y": 241.0
    },
    {
      "x": 397.0,
      "y": 228.0
    }
  ],
  [
    {
      "x": 198.0,
      "y": 124.0
    },
    {
      "x": 170.0,
      "y": 129.0
    },
    {
      "x": 158.0,
      "y": 144.0
    },
    {
      "x": 149.0,
      "y": 165.0
    },
    {
      "x": 142.0,
      "y": 191.0
    },
    {
      "x": 144.0,
      "y": 217.0
    },
    {
      "x": 150.0,
      "y": 228.0
    },
    {
      "x": 213.0,
      "y": 250.0
    },
    {
      "x": 219.0,
      "y": 256.0
    },
    {
      "x": 243.0,
      "y": 263.0
    },
    {
      "x": 338.0,
      "y": 261.0
    },
    {
      "x": 370.0,
      "y": 251.0
    },
    {
      "x": 374.0,
      "y": 244.0
    },
    {
      "x": 382.0,
      "y": 241.0
    },
    {
      "x": 397.0,
      "y": 228.0
    }
  ],
  [
    {
      "x": 198.0,
      "y": 124.0
    },
    {
      "x": 170.0,
      "y": 129.0
    },
    {
      "x": 158.0,
      "y": 144.0
    },
    {
      "x": 149.0,
      "y": 165.0
    },
    {
      "x": 142.0,
      "y": 191.0
    },
    {
      "x": 144.0,
      "y": 217.0
    },
    {
      "x": 150.0,
      "y": 228.0
    },
    {
      "x": 213.0,
      "y": 250.0
    },
    {
      "x": 219.0,
      "y": 256.0
    },
    {
      "x": 243.0,
      "y": 263.0
    },
    {
      "x": 338.0,
      "y": 261.0
    },
    {
      "x": 370.0,
      "y": 251.0
    },
    {
      "x": 374.0,
      "y": 244.0
    },
    {
      "x": 382.0,
      "y": 241.0
    },
    {
      "x": 397.0,
      "y": 228.0
    }
  ],
  [
    {
      "x": 198.0,
      "y": 124.0
    },
    {
      "x": 170.0,
      "y": 129.0
    },
    {
      "x": 158.0,
      "y": 144.0
    },
    {
      "x": 149.0,
      "y": 165.0
    },
    {
      "x": 142.0,
      "y": 191.0
    },
    {
      "x": 144.0,
      "y": 217.0
    },
    {
      "x": 150.0,
      "y": 228.0
    },
    {
      "x": 213.0,
      "y": 250.0
    },
    {
      "x": 219.0,
      "y": 256.0
    },
    {
      "x": 243.0,
      "y": 263.0
    },
    {
      "x": 338.0,
      "y": 261.0
    },
    {
      "x": 370.0,
      "y": 251.0
    },
    {
      "x": 374.0,
      "y": 244.0
    },
    {
      "x": 382.0,
      "y": 241.0
    },
    {
      "x": 397.0,
      "y": 228.0
    }
  ],
  [
    {
      "x": 198.0,
      "y": 124.0
    },
    {
      "x": 170.0,
      "y": 129.0
    },
    {
      "x": 158.0,
      "y": 144.0
    },
    {
      "x": 149.0,
      "y": 165.0
    },
    {
      "x": 142.0,
      "y": 191.0
    },
    {
      "x": 144.0,
      "y": 217.0
    },
    {
      "x": 150.0,
      "y": 228.0
    },
    {
      "x": 213.0,
      "y": 250.0
    },
    {
      "x": 219.0,
      "y": 256.0
    },
    {
      "x": 243.0,
      "y": 263.0
    },
    {
      "x": 338.0,
      "y": 261.0
    },
    {
      "x": 370.0,
      "y": 251.0
    },
    {
      "x": 374.0,
      "y": 244.0
    },
    {
      "x": 382.0,
      "y": 241.0
    },
    {
      "x": 397.0,
      "y": 228.0
    }
  ],
  [
    {
      "x": 198.0,
      "y": 124.0
    },
    {
      "x": 170.0,
      "y": 129.0
    },
    {
      "x": 158.0,
      "y": 144.0
    },
    {
      "x": 149.0,
      "y": 165.0
    },
    {
      "x": 142.0,
      "y": 191.0
    },
    {
      "x": 144.0,
      "y": 217.0
    },
    {
      "x": 150.0,
      "y": 228.0
    },
    {
      "x": 213.0,
      "y": 250.0
    },
    {
      "x": 219.0,
      "y": 256.0
    },
    {
      "x": 243.0,
      "y": 263.0
    },
    {
      "x": 338.0,
      "y": 261.0
    },
    {
      "x": 370.0,
      "y": 251.0
    },
    {
      "x": 374.0,
      "y": 244.0
    },
    {
      "x": 382.0,
      "y": 241.0
    },
    {
      "x": 397.0,
      "y": 228.0
    }
  ],
  [
    {
      "x": 198.0,
      "y": 124.0
    },
    {
      "x": 170.0,
      "y": 129.0
    },
    {
      "x": 158.0,
      "y": 144.0
    },
    {
      "x": 149.0,
      "y": 165.0
    },
    {
      "x": 142.0,
      "y": 191.0
    },
    {
      "x": 144.0,
      "y": 217.0
    },
    {
      "x": 150.0,
      "y": 228.0
    },
    {
      "x": 213.0,
      "y": 250.0
    },
    {
      "x": 219.0,
      "y": 256.0
    },
    {
      "x": 243.0,
      "y": 263.0
    },
    {
      "x": 338.0,
      "y": 261.0
    },
    {
      "x": 370.0,
      "y": 251.0
    },
    {
      "x": 374.0,
      "y": 244.0
    },
    {
      "x": 382.0,
      "y": 241.0
    },
    {
      "x": 397.0,
      "y": 228.0
    }
  ],
  [
    {
      "x": 198.0,
      "y": 124.0
    },
    {
      "x": 170.0,
      "y": 129.0
    },
    {
      "x": 158.0,
      "y": 144.0
    },
    {
      "x": 149.0,
      "y": 165.0
    },
    {
      "x": 142.0,
      "y": 191.0
    },
    {
      "x": 144.0,
      "y": 217.0
    },
    {
      "x": 150.0,
      "y": 228.0
    },
    {
      "x": 213.0,
      "y": 250.0
    },
    {
      "x": 219.0,
      "y": 256.0
    },
    {
      "x": 243.0,
      "y": 263.0
    },
    {
      "x": 338.0,
      "y": 261.0
    },
    {
      "x": 370.0,
      "y": 251.0
    },
    {
      "x": 374.0,
      "y": 244.0
    },
    {
      "x": 382.0,
      "y": 241.0
    },
    {
      "x": 397.0,
      "y": 228.0
    }
  ],
  [
    {
      "x": 198.0,
      "y": 124.0
    },
    {
      "x": 170.0,
      "y": 129.0
    },
    {
      "x": 158.0,
      "y": 144.0
    },
    {
      "x": 149.0,
      "y": 165.0
    },
    {
      "x": 142.0,
      "y": 191.0
    },
    {
      "x": 144.0,
      "y": 217.0
    },
    {
      "x": 150.0,
      "y": 228.0
    },
    {
      "x": 213.0,
      "y": 250.0
    },
    {
      "x": 219.0,
      "y": 256.0
    },
    {
      "x": 243.0,
      "y": 263.0
    },
    {
      "x": 338.0,
      "y": 261.0
    },
    {
      "x": 370.0,
      "y": 251.0
    },
    {
      "x": 374.0,
      "y": 244.0
    },
    {
      "x": 382.0,
      "y": 241.0
    },
    {
      "x": 397.0,
      "y": 228.0
    }
  ],
  [
    {
      "x": 198.0,
      "y": 124.0
    },
    {
      "x": 170.0,
      "y": 129.0
    },
    {
      "x": 158.0,
      "y": 144.0
    },
    {
      "x": 149.0,
      "y": 165.0
    },
    {
      "x": 142.0,
      "y": 191.0
    },
    {
      "x": 144.0,
      "y": 217.0
    },
    {
      "x": 150.0,
      "y": 228.0
    },
    {
      "x": 213.0,
      "y": 250.0
    },
    {
      "x": 219.0,
      "y": 256.0
    },
    {
      "x": 243.0,
      "y": 263.0
    },
    {
      "x": 338.0,
      "y": 261.0
    },
    {
      "x": 370.0,
      "y": 251.0
    },
    {
      "x": 374.0,
      "y": 244.0
    },
    {
      "x": 382.0,
      "y": 241.0
    },
    {
      "x": 397.0,
      "y": 228.0
    }
  ],
  [
    {
      "x": 198.0,
      "y": 124.0
    },
    {
      "x": 170.0,
      "y": 129.0
    },
    {
      "x": 158.0,
      "y": 144.0
    },
    {
      "x": 149.0,
      "y": 165.0
    },
    {
      "x": 142.0,
      "y": 191.0
    },
    {
      "x": 144.0,
      "y": 217.0
    },
    {
      "x": 150.0,
      "y": 228.0
    },
    {
      "x": 213.0,
      "y": 250.0
    },
    {
      "x": 219.0,
      "y": 256.0
    },
    {
      "x": 243.0,
      "y": 263.0
    },
    {
      "x": 338.0,
      "y": 261.0
    },
    {
      "x": 370.0,
      "y": 251.0
    },
    {
      "x": 374.0,
      "y": 244.0
    },
    {
      "x": 382.0,
      "y": 241.0
    },
    {
      "x": 397.0,
      "y": 228.0
    }
  ],
  [
    {
      "x": 198.0,
      "y": 124.0
    },
    {
      "x": 170.0,
      "y": 129.0
    },
    {
      "x": 158.0,
      "y": 144.0
    },
    {
      "x": 149.0,
      "y": 165.0
    },
    {
      "x": 142.0,
      "y": 191.0
    },
    {
      "x": 144.0,
      "y": 217.0
    },
    {
      "x": 150.0,
      "y": 228.0
    },
    {
      "x": 213.0,
      "y": 250.0
    },
    {
      "x": 219.0,
      "y": 256.0
    },
    {
      "x": 243.0,
      "y": 263.0
    },
    {
      "x": 338.0,
      "y": 261.0
    },
    {
      "x": 370.0,
      "y": 251.0
    },
    {
      "x": 374.0,
      "y": 244.0
    },
    {
      "x": 382.0,
      "y": 241.0
    },
    {
      "x": 397.0,
      "y": 228.0
    }
  ],
  [
    {
      "x": 198.0,
      "y": 124.0
    },
    {
      "x": 170.0,
      "y": 129.0
    },
    {
      "x": 158.0,
      "y": 144.0
    },
    {
      "x": 149.0,
      "y": 165.0
    },
    {
      "x": 142.0,
      "y": 191.0
    },
    {
      "x": 144.0,
      "y": 217.0
    },
    {
      "x": 150.0,
      "y": 228.0
    },
    {
      "x": 213.0,
      "y": 250.0
    },
    {
      "x": 219.0,
      "y": 256.0
    },
    {
      "x": 243.0,
      "y": 263.0
    },
    {
      "x": 338.0,
      "y": 261.0
    },
    {
      "x": 370.0,
      "y": 251.0
    },
    {
      "x": 374.0,
      "y": 244.0
    },
    {
      "x": 382.0,
      "y": 241.0
    },
    {
      "x": 397.0,
      "y": 228.0
    }
  ],
  [
    {
      "x": 198.0,
      "y": 124.0
    },
    {
      "x": 170.0,
      "y": 129.0
    },
    {
      "x": 158.0,
      "y": 144.0
    },
    {
      "x": 149.0,
      "y": 165.0
    },
    {
      "x": 142.0,
      "y": 191.0
    },
    {
      "x": 144.0,
      "y": 217.0
    },
    {
      "x": 150.0,
      "y": 228.0
    },
    {
      "x": 213.0,
      "y": 250.0
    },
    {
      "x": 219.0,
      "y": 256.0
    },
    {
      "x": 243.0,
      "y": 263.0
    },
    {
      "x": 338.0,
      "y": 261.0
    },
    {
      "x": 370.0,
      "y": 251.0
    },
    {
      "x": 374.0,
      "y": 244.0
    },
    {
      "x": 382.0,
      "y": 241.0
    },
    {
      "x": 397.0,
      "y": 228.0
    }
  ],
  [
    {
      "x": 198.0,
      "y": 124.0
    },
    {
      "x": 170.0,
      "y": 129.0
    },
    {
      "x": 158.0,
      "y": 144.0
    },
    {
      "x": 149.0,
      "y": 165.0
    },
    {
      "x": 142.0,
      "y": 191.0
    },
    {
      "x": 144.0,
      "y": 217.0
    },
    {
      "x": 150.0,
      "y": 228.0
    },
    {
      "x": 213.0,
      "y": 250.0
    },
    {
      "x": 219.0,
      "y": 256.0
    },
    {
      "x": 243.0,
      "y": 263.0
    },
    {
      "x": 338.0,
      "y": 261.0
    },
    {
      "x": 370.0,
      "y": 251.0
    },
    {
      "x": 374.0,
      "y": 244.0
    },
    {
      "x": 382.0,
      "y": 241.0
    },
    {
      "x": 397.0,
      "y": 228.0
    }
  ],
  [
    {
      "x": 184.0,
      "y": 126.0
    },
    {
      "x": 214.0,
      "y": 120.0
    },
    {
      "x": 236.0,
      "y": 120.0
    },
    {
      "x": 246.0,
      "y": 116.0
    },
    {
      "x": 280.0,
      "y": 116.0
    },
    {
      "x": 304.0,
      "y": 118.0
    },
    {
      "x": 317.0,
      "y": 123.0
    },
    {
      "x": 357.0,
      "y": 123.0
    },
    {
      "x": 384.0,
      "y": 128.0
    },
    {
      "x": 389.0,
      "y": 132.0
    },
    {
      "x": 390.0,
      "y": 139.0
    },
    {
      "x": 401.0,
      "y": 143.0
    },
    {
      "x": 416.0,
      "y": 159.0
    },
    {
      "x": 417.0,
      "y": 204.0
    },
    {
      "x": 414.0,
      "y": 228.0
    },
    {
      "x": 406.0,
      "y": 234.0
    },
    {
      "x": 397.0,
      "y": 233.0
    },
    {
      "x": 387.0,
      "y": 239.0
    },
    {
      "x": 381.0,
      "y": 249.0
    },
    {
      "x": 379.0,
      "y": 247.0
    }
  ],
  [
    {
      "x": 184.0,
      "y": 126.0
    },
    {
      "x": 214.0,
      "y": 120.0
    },
    {
      "x": 236.0,
      "y": 120.0
    },
    {
      "x": 246.0,
      "y": 116.0
    },
    {
      "x": 280.0,
      "y": 116.0
    },
    {
      "x": 304.0,
      "y": 118.0
    },
    {
      "x": 317.0,
      "y": 123.0
    },
    {
      "x": 357.0,
      "y": 123.0
    },
    {
      "x": 384.0,
      "y": 128.0
    },
    {
      "x": 389.0,
      "y": 132.0
    },
    {
      "x": 390.0,
      "y": 139.0
    },
    {
      "x": 401.0,
      "y": 143.0
    },
    {
      "x": 416.0,
      "y": 159.0
    },
    {
      "x": 417.0,
      "y": 204.0
    },
    {
      "x": 414.0,
      "y": 228.0
    },
    {
      "x": 406.0,
      "y": 234.0
    },
    {
      "x": 397.0,
      "y": 233.0
    },
    {
      "x": 387.0,
      "y": 239.0
    },
    {
      "x": 381.0,
      "y": 249.0
    },
    {
      "x": 379.0,
      "y": 247.0
    }
  ],
  [
    {
      "x": 184.0,
      "y": 126.0
    },
    {
      "x": 214.0,
      "y": 120.0
    },
    {
      "x": 236.0,
      "y": 120.0
    },
    {
      "x": 246.0,
      "y": 116.0
    },
    {
      "x": 280.0,
      "y": 116.0
    },
    {
      "x": 304.0,
      "y": 118.0
    },
    {
      "x": 317.0,
      "y": 123.0
    },
    {
      "x": 357.0,
      "y": 123.0
    },
    {
      "x": 384.0,
      "y": 128.0
    },
    {
      "x": 389.0,
      "y": 132.0
    },
    {
      "x": 390.0,
      "y": 139.0
    },
    {
      "x": 401.0,
      "y": 143.0
    },
    {
      "x": 416.0,
      "y": 159.0
    },
    {
      "x": 417.0,
      "y": 204.0
    },
    {
      "x": 414.0,
      "y": 228.0
    },
    {
      "x": 406.0,
      "y": 234.0
    },
    {
      "x": 397.0,
      "y": 233.0
    },
    {
      "x": 387.0,
      "y": 239.0
    },
    {
      "x": 381.0,
      "y": 249.0
    },
    {
      "x": 379.0,
      "y": 247.0
    }
  ],
  [
    {
      "x": 184.0,
      "y": 126.0
    },
    {
      "x": 214.0,
      "y": 120.0
    },
    {
      "x": 236.0,
      "y": 120.0
    },
    {
      "x": 246.0,
      "y": 116.0
    },
    {
      "x": 280.0,
      "y": 116.0
    },
    {
      "x": 304.0,
      "y": 118.0
    },
    {
      "x": 317.0,
      "y": 123.0
    },
    {
      "x": 357.0,
      "y": 123.0
    },
    {
      "x": 384.0,
      "y": 128.0
    },
    {
      "x": 389.0,
      "y": 132.0
    },
    {
      "x": 390.0,
      "y": 139.0
    },
    {
      "x": 401.0,
      "y": 143.0
    },
    {
      "x": 416.0,
      "y": 159.0
    },
    {
      "x": 417.0,
      "y": 204.0
    },
    {
      "x": 414.0,
      "y": 228.0
    },
    {
      "x": 406.0,
      "y": 234.0
    },
    {
      "x": 397.0,
      "y": 233.0
    },
    {
      "x": 387.0,
      "y": 239.0
    },
    {
      "x": 381.0,
      "y": 249.0
    },
    {
      "x": 379.0,
      "y": 247.0
    }
  ],
  [
    {
      "x": 184.0,
      "y": 126.0
    },
    {
      "x": 214.0,
      "y": 120.0
    },
    {
      "x": 236.0,
      "y": 120.0
    },
    {
      "x": 246.0,
      "y": 116.0
    },
    {
      "x": 280.0,
      "y": 116.0
    },
    {
      "x": 304.0,
      "y": 118.0
    },
    {
      "x": 317.0,
      "y": 123.0
    },
    {
      "x": 357.0,
      "y": 123.0
    },
    {
      "x": 384.0,
      "y": 128.0
    },
    {
      "x": 389.0,
      "y": 132.0
    },
    {
      "x": 390.0,
      "y": 139.0
    },
    {
      "x": 401.0,
      "y": 143.0
    },
    {
      "x": 416.0,
      "y": 159.0
    },
    {
      "x": 417.0,
      "y": 204.0
    },
    {
      "x": 414.0,
      "y": 228.0
    },
    {
      "x": 406.0,
      "y": 234.0
    },
    {
      "x": 397.0,
      "y": 233.0
    },
    {
      "x": 387.0,
      "y": 239.0
    },
    {
      "x": 381.0,
      "y": 249.0
    },
    {
      "x": 379.0,
      "y": 247.0
    }
  ],
  [
    {
      "x": 184.0,
      "y": 126.0
    },
    {
      "x": 214.0,
      "y": 120.0
    },
    {
      "x": 236.0,
      "y": 120.0
    },
    {
      "x": 246.0,
      "y": 116.0
    },
    {
      "x": 280.0,
      "y": 116.0
    },
    {
      "x": 304.0,
      "y": 118.0
    },
    {
      "x": 317.0,
      "y": 123.0
    },
    {
      "x": 357.0,
      "y": 123.0
    },
    {
      "x": 384.0,
      "y": 128.0
    },
    {
      "x": 389.0,
      "y": 132.0
    },
    {
      "x": 390.0,
      "y": 139.0
    },
    {
      "x": 401.0,
      "y": 143.0
    },
    {
      "x": 416.0,
      "y": 159.0
    },
    {
      "x": 417.0,
      "y": 204.0
    },
    {
      "x": 414.0,
      "y": 228.0
    },
    {
      "x": 406.0,
      "y": 234.0
    },
    {
      "x": 397.0,
      "y": 233.0
    },
    {
      "x": 387.0,
      "y": 239.0
    },
    {
      "x": 381.0,
      "y": 249.0
    },
    {
      "x": 379.0,
      "y": 247.0
    }
  ],
  [
    {
      "x": 184.0,
      "y": 126.0
    },
    {
      "x": 214.0,
      "y": 120.0
    },
    {
      "x": 236.0,
      "y": 120.0
    },
    {
      "x": 246.0,
      "y": 116.0
    },
    {
      "x": 280.0,
      "y": 116.0
    },
    {
      "x": 304.0,
      "y": 118.0
    },
    {
      "x": 317.0,
      "y": 123.0
    },
    {
      "x": 357.0,
      "y": 123.0
    },
    {
      "x": 384.0,
      "y": 128.0
    },
    {
      "x": 389.0,
      "y": 132.0
    },
    {
      "x": 390.0,
      "y": 139.0
    },
    {
      "x": 401.0,
      "y": 143.0
    },
    {
      "x": 416.0,
      "y": 159.0
    },
    {
      "x": 417.0,
      "y": 204.0
    },
    {
      "x": 414.0,
      "y": 228.0
    },
    {
      "x": 406.0,
      "y": 234.0
    },
    {
      "x": 397.0,
      "y": 233.0
    },
    {
      "x": 387.0,
      "y": 239.0
    },
    {
      "x": 381.0,
      "y": 249.0
    },
    {
      "x": 379.0,
      "y": 247.0
    }
  ],
  [
    {
      "x": 184.0,
      "y": 126.0
    },
    {
      "x": 214.0,
      "y": 120.0
    },
    {
      "x": 236.0,
      "y": 120.0
    },
    {
      "x": 246.0,
      "y": 116.0
    },
    {
      "x": 280.0,
      "y": 116.0
    },
    {
      "x": 304.0,
      "y": 118.0
    },
    {
      "x": 317.0,
      "y": 123.0
    },
    {
      "x": 357.0,
      "y": 123.0
    },
    {
      "x": 384.0,
      "y": 128.0
    },
    {
      "x": 389.0,
      "y": 132.0
    },
    {
      "x": 390.0,
      "y": 139.0
    },
    {
      "x": 401.0,
      "y": 143.0
    },
    {
      "x": 416.0,
      "y": 159.0
    },
    {
      "x": 417.0,
      "y": 204.0
    },
    {
      "x": 414.0,
      "y": 228.0
    },
    {
      "x": 406.0,
      "y": 234.0
    },
    {
      "x": 397.0,
      "y": 233.0
    },
    {
      "x": 387.0,
      "y": 239.0
    },
    {
      "x": 381.0,
      "y": 249.0
    },
    {
      "x": 379.0,
      "y": 247.0
    }
  ],
  [
    {
      "x": 184.0,
      "y": 126.0
    },
    {
      "x": 214.0,
      "y": 120.0
    },
    {
      "x": 236.0,
      "y": 120.0
    },
    {
      "x": 246.0,
      "y": 116.0
    },
    {
      "x": 280.0,
      "y": 116.0
    },
    {
      "x": 304.0,
      "y": 118.0
    },
    {
      "x": 317.0,
      "y": 123.0
    },
    {
      "x": 357.0,
      "y": 123.0
    },
    {
      "x": 384.0,
      "y": 128.0
    },
    {
      "x": 389.0,
      "y": 132.0
    },
    {
      "x": 390.0,
      "y": 139.0
    },
    {
      "x": 401.0,
      "y": 143.0
    },
    {
      "x": 416.0,
      "y": 159.0
    },
    {
      "x": 417.0,
      "y": 204.0
    },
    {
      "x": 414.0,
      "y": 228.0
    },
    {
      "x": 406.0,
      "y": 234.0
    },
    {
      "x": 397.0,
      "y": 233.0
    },
    {
      "x": 387.0,
      "y": 239.0
    },
    {
      "x": 381.0,
      "y": 249.0
    },
    {
      "x": 379.0,
      "y": 247.0
    }
  ],
  [
    {
      "x": 184.0,
      "y": 126.0
    },
    {
      "x": 214.0,
      "y": 120.0
    },
    {
      "x": 236.0,
      "y": 120.0
    },
    {
      "x": 246.0,
      "y": 116.0
    },
    {
      "x": 280.0,
      "y": 116.0
    },
    {
      "x": 304.0,
      "y": 118.0
    },
    {
      "x": 317.0,
      "y": 123.0
    },
    {
      "x": 357.0,
      "y": 123.0
    },
    {
      "x": 384.0,
      "y": 128.0
    },
    {
      "x": 389.0,
      "y": 132.0
    },
    {
      "x": 390.0,
      "y": 139.0
    },
    {
      "x": 401.0,
      "y": 143.0
    },
    {
      "x": 416.0,
      "y": 159.0
    },
    {
      "x": 417.0,
      "y": 204.0
    },
    {
      "x": 414.0,
      "y": 228.0
    },
    {
      "x": 406.0,
      "y": 234.0
    },
    {
      "x": 397.0,
      "y": 233.0
    },
    {
      "x": 387.0,
      "y": 239.0
    },
    {
      "x": 381.0,
      "y": 249.0
    },
    {
      "x": 379.0,
      "y": 247.0
    }
  ],
  [
    {
      "x": 184.0,
      "y": 126.0
    },
    {
      "x": 214.0,
      "y": 120.0
    },
    {
      "x": 236.0,
      "y": 120.0
    },
    {
      "x": 246.0,
      "y": 116.0
    },
    {
      "x": 280.0,
      "y": 116.0
    },
    {
      "x": 304.0,
      "y": 118.0
    },
    {
      "x": 317.0,
      "y": 123.0
    },
    {
      "x": 357.0,
      "y": 123.0
    },
    {
      "x": 384.0,
      "y": 128.0
    },
    {
      "x": 389.0,
      "y": 132.0
    },
    {
      "x": 390.0,
      "y": 139.0
    },
    {
      "x": 401.0,
      "y": 143.0
    },
    {
      "x": 416.0,
      "y": 159.0
    },
    {
      "x": 417.0,
      "y": 204.0
    },
    {
      "x": 414.0,
      "y": 228.0
    },
    {
      "x": 406.0,
      "y": 234.0
    },
    {
      "x": 397.0,
      "y": 233.0
    },
    {
      "x": 387.0,
      "y": 239.0
    },
    {
      "x": 381.0,
      "y": 249.0
    },
    {
      "x": 379.0,
      "y": 247.0
    }
  ],
  [
    {
      "x": 184.0,
      "y": 126.0
    },
    {
      "x": 214.0,
      "y": 120.0
    },
    {
      "x": 236.0,
      "y": 120.0
    },
    {
      "x": 246.0,
      "y": 116.0
    },
    {
      "x": 280.0,
      "y": 116.0
    },
    {
      "x": 304.0,
      "y": 118.0
    },
    {
      "x": 317.0,
      "y": 123.0
    },
    {
      "x": 357.0,
      "y": 123.0
    },
    {
      "x": 384.0,
      "y": 128.0
    },
    {
      "x": 389.0,
      "y": 132.0
    },
    {
      "x": 390.0,
      "y": 139.0
    },
    {
      "x": 401.0,
      "y": 143.0
    },
    {
      "x": 416.0,
      "y": 159.0
    },
    {
      "x": 417.0,
      "y": 204.0
    },
    {
      "x": 414.0,
      "y": 228.0
    },
    {
      "x": 406.0,
      "y": 234.0
    },
    {
      "x": 397.0,
      "y": 233.0
    },
    {
      "x": 387.0,
      "y": 239.0
    },
    {
      "x": 381.0,
      "y": 249.0
    },
    {
      "x": 379.0,
      "y": 247.0
    }
  ],
  [
    {
      "x": 184.0,
      "y": 126.0
    },
    {
      "x": 214.0,
      "y": 120.0
    },
    {
      "x": 236.0,
      "y": 120.0
    },
    {
      "x": 246.0,
      "y": 116.0
    },
    {
      "x": 280.0,
      "y": 116.0
    },
    {
      "x": 304.0,
      "y": 118.0
    },
    {
      "x": 317.0,
      "y": 123.0
    },
    {
      "x": 357.0,
      "y": 123.0
    },
    {
      "x": 384.0,
      "y": 128.0
    },
    {
      "x": 389.0,
      "y": 132.0
    },
    {
      "x": 390.0,
      "y": 139.0
    },
    {
      "x": 401.0,
      "y": 143.0
    },
    {
      "x": 416.0,
      "y": 159.0
    },
    {
      "x": 417.0,
      "y": 204.0
    },
    {
      "x": 414.0,
      "y": 228.0
    },
    {
      "x": 406.0,
      "y": 234.0
    },
    {
      "x": 397.0,
      "y": 233.0
    },
    {
      "x": 387.0,
      "y": 239.0
    },
    {
      "x": 381.0,
      "y": 249.0
    },
    {
      "x": 379.0,
      "y": 247.0
    }
  ],
  [
    {
      "x": 184.0,
      "y": 126.0
    },
    {
      "x": 214.0,
      "y": 120.0
    },
    {
      "x": 236.0,
      "y": 120.0
    },
    {
      "x": 246.0,
      "y": 116.0
    },
    {
      "x": 280.0,
      "y": 116.0
    },
    {
      "x": 304.0,
      "y": 118.0
    },
    {
      "x": 317.0,
      "y": 123.0
    },
    {
      "x": 357.0,
      "y": 123.0
    },
    {
      "x": 384.0,
      "y": 128.0
    },
    {
      "x": 389.0,
      "y": 132.0
    },
    {
      "x": 390.0,
      "y": 139.0
    },
    {
      "x": 401.0,
      "y": 143.0
    },
    {
      "x": 416.0,
      "y": 159.0
    },
    {
      "x": 417.0,
      "y": 204.0
    },
    {
      "x": 414.0,
      "y": 228.0
    },
    {
      "x": 406.0,
      "y": 234.0
    },
    {
      "x": 397.0,
      "y": 233.0
    },
    {
      "x": 387.0,
      "y": 239.0
    },
    {
      "x": 381.0,
      "y": 249.0
    },
    {
      "x": 379.0,
      "y": 247.0
    }
  ],
  [
    {
      "x": 184.0,
      "y": 126.0
    },
    {
      "x": 214.0,
      "y": 120.0
    },
    {
      "x": 236.0,
      "y": 120.0
    },
    {
      "x": 246.0,
      "y": 116.0
    },
    {
      "x": 280.0,
      "y": 116.0
    },
    {
      "x": 304.0,
      "y": 118.0
    },
    {
      "x": 317.0,
      "y": 123.0
    },
    {
      "x": 357.0,
      "y": 123.0
    },
    {
      "x": 384.0,
      "y": 128.0
    },
    {
      "x": 389.0,
      "y": 132.0
    },
    {
      "x": 390.0,
      "y": 139.0
    },
    {
      "x": 401.0,
      "y": 143.0
    },
    {
      "x": 416.0,
      "y": 159.0
    },
    {
      "x": 417.0,
      "y": 204.0
    },
    {
      "x": 414.0,
      "y": 228.0
    },
    {
      "x": 406.0,
      "y": 234.0
    },
    {
      "x": 397.0,
      "y": 233.0
    },
    {
      "x": 387.0,
      "y": 239.0
    },
    {
      "x": 381.0,
      "y": 249.0
    },
    {
      "x": 379.0,
      "y": 247.0
    }
  ],
  [
    {
      "x": 184.0,
      "y": 126.0
    },
    {
      "x": 214.0,
      "y": 120.0
    },
    {
      "x": 236.0,
      "y": 120.0
    },
    {
      "x": 246.0,
      "y": 116.0
    },
    {
      "x": 280.0,
      "y": 116.0
    },
    {
      "x": 304.0,
      "y": 118.0
    },
    {
      "x": 317.0,
      "y": 123.0
    },
    {
      "x": 357.0,
      "y": 123.0
    },
    {
      "x": 384.0,
      "y": 128.0
    },
    {
      "x": 389.0,
      "y": 132.0
    },
    {
      "x": 390.0,
      "y": 139.0
    },
    {
      "x": 401.0,
      "y": 143.0
    },
    {
      "x": 416.0,
      "y": 159.0
    },
    {
      "x": 417.0,
      "y": 204.0
    },
    {
      "x": 414.0,
      "y": 228.0
    },
    {
      "x": 406.0,
      "y": 234.0
    },
    {
      "x": 397.0,
      "y": 233.0
    },
    {
      "x": 387.0,
      "y": 239.0
    },
    {
      "x": 381.0,
      "y": 249.0
    },
    {
      "x": 379.0,
      "y": 247.0
    }
  ],
  [
    {
      "x": 184.0,
      "y": 126.0
    },
    {
      "x": 214.0,
      "y": 120.0
    },
    {
      "x": 236.0,
      "y": 120.0
    },
    {
      "x": 246.0,
      "y": 116.0
    },
    {
      "x": 280.0,
      "y": 116.0
    },
    {
      "x": 304.0,
      "y": 118.0
    },
    {
      "x": 317.0,
      "y": 123.0
    },
    {
      "x": 357.0,
      "y": 123.0
    },
    {
      "x": 384.0,
      "y": 128.0
    },
    {
      "x": 389.0,
      "y": 132.0
    },
    {
      "x": 390.0,
      "y": 139.0
    },
    {
      "x": 401.0,
      "y": 143.0
    },
    {
      "x": 416.0,
      "y": 159.0
    },
    {
      "x": 417.0,
      "y": 204.0
    },
    {
      "x": 414.0,
      "y": 228.0
    },
    {
      "x": 406.0,
      "y": 234.0
    },
    {
      "x": 397.0,
      "y": 233.0
    },
    {
      "x": 387.0,
      "y": 239.0
    },
    {
      "x": 381.0,
      "y": 249.0
    },
    {
      "x": 379.0,
      "y": 247.0
    }
  ],
  [
    {
      "x": 184.0,
      "y": 126.0
    },
    {
      "x": 214.0,
      "y": 120.0
    },
    {
      "x": 236.0,
      "y": 120.0
    },
    {
      "x": 246.0,
      "y": 116.0
    },
    {
      "x": 280.0,
      "y": 116.0
    },
    {
      "x": 304.0,
      "y": 118.0
    },
    {
      "x": 317.0,
      "y": 123.0
    },
    {
      "x": 357.0,
      "y": 123.0
    },
    {
      "x": 384.0,
      "y": 128.0
    },
    {
      "x": 389.0,
      "y": 132.0
    },
    {
      "x": 390.0,
      "y": 139.0
    },
    {
      "x": 401.0,
      "y": 143.0
    },
    {
      "x": 416.0,
      "y": 159.0
    },
    {
      "x": 417.0,
      "y": 204.0
    },
    {
      "x": 414.0,
      "y": 228.0
    },
    {
      "x": 406.0,
      "y": 234.0
    },
    {
      "x": 397.0,
      "y": 233.0
    },
    {
      "x": 387.0,
      "y": 239.0
    },
    {
      "x": 381.0,
      "y": 249.0
    },
    {
      "x": 379.0,
      "y": 247.0
    }
  ],
  [
    {
      "x": 184.0,
      "y": 126.0
    },
    {
      "x": 214.0,
      "y": 120.0
    },
    {
      "x": 236.0,
      "y": 120.0
    },
    {
      "x": 246.0,
      "y": 116.0
    },
    {
      "x": 280.0,
      "y": 116.0
    },
    {
      "x": 304.0,
      "y": 118.0
    },
    {
      "x": 317.0,
      "y": 123.0
    },
    {
      "x": 357.0,
      "y": 123.0
    },
    {
      "x": 384.0,
      "y": 128.0
    },
    {
      "x": 389.0,
      "y": 132.0
    },
    {
      "x": 390.0,
      "y": 139.0
    },
    {
      "x": 401.0,
      "y": 143.0
    },
    {
      "x": 416.0,
      "y": 159.0
    },
    {
      "x": 417.0,
      "y": 204.0
    },
    {
      "x": 414.0,
      "y": 228.0
    },
    {
      "x": 406.0,
      "y": 234.0
    },
    {
      "x": 397.0,
      "y": 233.0
    },
    {
      "x": 387.0,
      "y": 239.0
    },
    {
      "x": 381.0,
      "y": 249.0
    },
    {
      "x": 379.0,
      "y": 247.0
    }
  ],
  [
    {
      "x": 184.0,
      "y": 126.0
    },
    {
      "x": 214.0,
      "y": 120.0
    },
    {
      "x": 236.0,
      "y": 120.0
    },
    {
      "x": 246.0,
      "y": 116.0
    },
    {
      "x": 280.0,
      "y": 116.0
    },
    {
      "x": 304.0,
      "y": 118.0
    },
    {
      "x": 317.0,
      "y": 123.0
    },
    {
      "x": 357.0,
      "y": 123.0
    },
    {
      "x": 384.0,
      "y": 128.0
    },
    {
      "x": 389.0,
      "y": 132.0
    },
    {
      "x": 390.0,
      "y": 139.0
    },
    {
      "x": 401.0,
      "y": 143.0
    },
    {
      "x": 416.0,
      "y": 159.0
    },
    {
      "x": 417.0,
      "y": 204.0
    },
    {
      "x": 414.0,
      "y": 228.0
    },
    {
      "x": 406.0,
      "y": 234.0
    },
    {
      "x": 397.0,
      "y": 233.0
    },
    {
      "x": 387.0,
      "y": 239.0
    },
    {
      "x": 381.0,
      "y": 249.0
    },
    {
      "x": 379.0,
      "y": 247.0
    }
  ],
  [
    {
      "x": 145.0,
      "y": 227.0
    },
    {
      "x": 146.0,
      "y": 232.0
    },
    {
      "x": 154.0,
      "y": 240.0
    },
    {
      "x": 193.0,
      "y": 260.0
    },
    {
      "x": 199.0,
      "y": 262.0
    },
    {
      "x": 249.0,
      "y": 262.0
    },
    {
      "x": 282.0,
      "y": 273.0
    },
    {
      "x": 341.0,
      "y": 270.0
    },
    {
      "x": 363.0,
      "y": 264.0
    },
    {
      "x": 376.0,
      "y": 257.0
    },
    {
      "x": 395.0,
      "y": 253.0
    },
    {
      "x": 404.0,
      "y": 246.0
    },
    {
      "x": 423.0,
      "y": 211.0
    },
    {
      "x": 427.0,
      "y": 192.0
    },
    {
      "x": 427.0,
      "y": 165.0
    },
    {
      "x": 413.0,
      "y": 141.0
    },
    {
      "x": 410.0,
      "y": 142.0
    },
    {
      "x": 380.0,
      "y": 129.0
    }
  ],
  [
    {
      "x": 145.0,
      "y": 227.0
    },
    {
      "x": 146.0,
      "y": 232.0
    },
    {
      "x": 154.0,
      "y": 240.0
    },
    {
      "x": 193.0,
      "y": 260.0
    },
    {
      "x": 199.0,
      "y": 262.0
    },
    {
      "x": 249.0,
      "y": 262.0
    },
    {
      "x": 282.0,
      "y": 273.0
    },
    {
      "x": 341.0,
      "y": 270.0
    },
    {
      "x": 363.0,
      "y": 264.0
    },
    {
      "x": 376.0,
      "y": 257.0
    },
    {
      "x": 395.0,
      "y": 253.0
    },
    {
      "x": 404.0,
      "y": 246.0
    },
    {
      "x": 423.0,
      "y": 211.0
    },
    {
      "x": 427.0,
      "y": 192.0
    },
    {
      "x": 427.0,
      "y": 165.0
    },
    {
      "x": 413.0,
      "y": 141.0
    },
    {
      "x": 410.0,
      "y": 142.0
    },
    {
      "x": 380.0,
      "y": 129.0
    }
  ],
  [
    {
      "x": 145.0,
      "y": 227.0
    },
    {
      "x": 146.0,
      "y": 232.0
    },
    {
      "x": 154.0,
      "y": 240.0
    },
    {
      "x": 193.0,
      "y": 260.0
    },
    {
      "x": 199.0,
      "y": 262.0
    },
    {
      "x": 249.0,
      "y": 262.0
    },
    {
      "x": 282.0,
      "y": 273.0
    },
    {
      "x": 341.0,
      "y": 270.0
    },
    {
      "x": 363.0,
      "y": 264.0
    },
    {
      "x": 376.0,
      "y": 257.0
    },
    {
      "x": 395.0,
      "y": 253.0
    },
    {
      "x": 404.0,
      "y": 246.0
    },
    {
      "x": 423.0,
      "y": 211.0
    },
    {
      "x": 427.0,
      "y": 192.0
    },
    {
      "x": 427.0,
      "y": 165.0
    },
    {
      "x": 413.0,
      "y": 141.0
    },
    {
      "x": 410.0,
      "y": 142.0
    },
    {
      "x": 380.0,
      "y": 129.0
    }
  ],
  [
    {
      "x": 145.0,
      "y": 227.0
    },
    {
      "x": 146.0,
      "y": 232.0
    },
    {
      "x": 154.0,
      "y": 240.0
    },
    {
      "x": 193.0,
      "y": 260.0
    },
    {
      "x": 199.0,
      "y": 262.0
    },
    {
      "x": 249.0,
      "y": 262.0
    },
    {
      "x": 282.0,
      "y": 273.0
    },
    {
      "x": 341.0,
      "y": 270.0
    },
    {
      "x": 363.0,
      "y": 264.0
    },
    {
      "x": 376.0,
      "y": 257.0
    },
    {
      "x": 395.0,
      "y": 253.0
    },
    {
      "x": 404.0,
      "y": 246.0
    },
    {
      "x": 423.0,
      "y": 211.0
    },
    {
      "x": 427.0,
      "y": 192.0
    },
    {
      "x": 427.0,
      "y": 165.0
    },
    {
      "x": 413.0,
      "y": 141.0
    },
    {
      "x": 410.0,
      "y": 142.0
    },
    {
      "x": 380.0,
      "y": 129.0
    }
  ],
  [
    {
      "x": 145.0,
      "y": 227.0
    },
    {
      "x": 146.0,
      "y": 232.0
    },
    {
      "x": 154.0,
      "y": 240.0
    },
    {
      "x": 193.0,
      "y": 260.0
    },
    {
      "x": 199.0,
      "y": 262.0
    },
    {
      "x": 249.0,
      "y": 262.0
    },
    {
      "x": 282.0,
      "y": 273.0
    },
    {
      "x": 341.0,
      "y": 270.0
    },
    {
      "x": 363.0,
      "y": 264.0
    },
    {
      "x": 376.0,
      "y": 257.0
    },
    {
      "x": 395.0,
      "y": 253.0
    },
    {
      "x": 404.0,
      "y": 246.0
    },
    {
      "x": 423.0,
      "y": 211.0
    },
    {
      "x": 427.0,
      "y": 192.0
    },
    {
      "x": 427.0,
      "y": 165.0
    },
    {
      "x": 413.0,
      "y": 141.0
    },
    {
      "x": 410.0,
      "y": 142.0
    },
    {
      "x": 380.0,
      "y": 129.0
    }
  ],
  [
    {
      "x": 145.0,
      "y": 227.0
    },
    {
      "x": 146.0,
      "y": 232.0
    },
    {
      "x": 154.0,
      "y": 240.0
    },
    {
      "x": 193.0,
      "y": 260.0
    },
    {
      "x": 199.0,
      "y": 262.0
    },
    {
      "x": 249.0,
      "y": 262.0
    },
    {
      "x": 282.0,
      "y": 273.0
    },
    {
      "x": 341.0,
      "y": 270.0
    },
    {
      "x": 363.0,
      "y": 264.0
    },
    {
      "x": 376.0,
      "y": 257.0
    },
    {
      "x": 395.0,
      "y": 253.0
    },
    {
      "x": 404.0,
      "y": 246.0
    },
    {
      "x": 423.0,
      "y": 211.0
    },
    {
      "x": 427.0,
      "y": 192.0
    },
    {
      "x": 427.0,
      "y": 165.0
    },
    {
      "x": 413.0,
      "y": 141.0
    },
    {
      "x": 410.0,
      "y": 142.0
    },
    {
      "x": 380.0,
      "y": 129.0
    }
  ],
  [
    {
      "x": 145.0,
      "y": 227.0
    },
    {
      "x": 146.0,
      "y": 232.0
    },
    {
      "x": 154.0,
      "y": 240.0
    },
    {
      "x": 193.0,
      "y": 260.0
    },
    {
      "x": 199.0,
      "y": 262.0
    },
    {
      "x": 249.0,
      "y": 262.0
    },
    {
      "x": 282.0,
      "y": 273.0
    },
    {
      "x": 341.0,
      "y": 270.0
    },
    {
      "x": 363.0,
      "y": 264.0
    },
    {
      "x": 376.0,
      "y": 257.0
    },
    {
      "x": 395.0,
      "y": 253.0
    },
    {
      "x": 404.0,
      "y": 246.0
    },
    {
      "x": 423.0,
      "y": 211.0
    },
    {
      "x": 427.0,
      "y": 192.0
    },
    {
      "x": 427.0,
      "y": 165.0
    },
    {
      "x": 413.0,
      "y": 141.0
    },
    {
      "x": 410.0,
      "y": 142.0
    },
    {
      "x": 380.0,
      "y": 129.0
    }
  ],
  [
    {
      "x": 145.0,
      "y": 227.0
    },
    {
      "x": 146.0,
      "y": 232.0
    },
    {
      "x": 154.0,
      "y": 240.0
    },
    {
      "x": 193.0,
      "y": 260.0
    },
    {
      "x": 199.0,
      "y": 262.0
    },
    {
      "x": 249.0,
      "y": 262.0
    },
    {
      "x": 282.0,
      "y": 273.0
    },
    {
      "x": 341.0,
      "y": 270.0
    },
    {
      "x": 363.0,
      "y": 264.0
    },
    {
      "x": 376.0,
      "y": 257.0
    },
    {
      "x": 395.0,
      "y": 253.0
    },
    {
      "x": 404.0,
      "y": 246.0
    },
    {
      "x": 423.0,
      "y": 211.0
    },
    {
      "x": 427.0,
      "y": 192.0
    },
    {
      "x": 427.0,
      "y": 165.0
    },
    {
      "x": 413.0,
      "y": 141.0
    },
    {
      "x": 410.0,
      "y": 142.0
    },
    {
      "x": 380.0,
      "y": 129.0
    }
  ],
  [
    {
      "x": 145.0,
      "y": 227.0
    },
    {
      "x": 146.0,
      "y": 232.0
    },
    {
      "x": 154.0,
      "y": 240.0
    },
    {
      "x": 193.0,
      "y": 260.0
    },
    {
      "x": 199.0,
      "y": 262.0
    },
    {
      "x": 249.0,
      "y": 262.0
    },
    {
      "x": 282.0,
      "y": 273.0
    },
    {
      "x": 341.0,
      "y": 270.0
    },
    {
      "x": 363.0,
      "y": 264.0
    },
    {
      "x": 376.0,
      "y": 257.0
    },
    {
      "x": 395.0,
      "y": 253.0
    },
    {
      "x": 404.0,
      "y": 246.0
    },
    {
      "x": 423.0,
      "y": 211.0
    },
    {
      "x": 427.0,
      "y": 192.0
    },
    {
      "x": 427.0,
      "y": 165.0
    },
    {
      "x": 413.0,
      "y": 141.0
    },
    {
      "x": 410.0,
      "y": 142.0
    },
    {
      "x": 380.0,
      "y": 129.0
    }
  ],
  [
    {
      "x": 145.0,
      "y": 227.0
    },
    {
      "x": 146.0,
      "y": 232.0
    },
    {
      "x": 154.0,
      "y": 240.0
    },
    {
      "x": 193.0,
      "y": 260.0
    },
    {
      "x": 199.0,
      "y": 262.0
    },
    {
      "x": 249.0,
      "y": 262.0
    },
    {
      "x": 282.0,
      "y": 273.0
    },
    {
      "x": 341.0,
      "y": 270.0
    },
    {
      "x": 363.0,
      "y": 264.0
    },
    {
      "x": 376.0,
      "y": 257.0
    },
    {
      "x": 395.0,
      "y": 253.0
    },
    {
      "x": 404.0,
      "y": 246.0
    },
    {
      "x": 423.0,
      "y": 211.0
    },
    {
      "x": 427.0,
      "y": 192.0
    },
    {
      "x": 427.0,
      "y": 165.0
    },
    {
      "x": 413.0,
      "y": 141.0
    },
    {
      "x": 410.0,
      "y": 142.0
    },
    {
      "x": 380.0,
      "y": 129.0
    }
  ],
  [
    {
      "x": 145.0,
      "y": 227.0
    },
    {
      "x": 146.0,
      "y": 232.0
    },
    {
      "x": 154.0,
      "y": 240.0
    },
    {
      "x": 193.0,
      "y": 260.0
    },
    {
      "x": 199.0,
      "y": 262.0
    },
    {
      "x": 249.0,
      "y": 262.0
    },
    {
      "x": 282.0,
      "y": 273.0
    },
    {
      "x": 341.0,
      "y": 270.0
    },
    {
      "x": 363.0,
      "y": 264.0
    },
    {
      "x": 376.0,
      "y": 257.0
    },
    {
      "x": 395.0,
      "y": 253.0
    },
    {
      "x": 404.0,
      "y": 246.0
    },
    {
      "x": 423.0,
      "y": 211.0
    },
    {
      "x": 427.0,
      "y": 192.0
    },
    {
      "x": 427.0,
      "y": 165.0
    },
    {
      "x": 413.0,
      "y": 141.0
    },
    {
      "x": 410.0,
      "y": 142.0
    },
    {
      "x": 380.0,
      "y": 129.0
    }
  ],
  [
    {
      "x": 145.0,
      "y": 227.0
    },
    {
      "x": 146.0,
      "y": 232.0
    },
    {
      "x": 154.0,
      "y": 240.0
    },
    {
      "x": 193.0,
      "y": 260.0
    },
    {
      "x": 199.0,
      "y": 262.0
    },
    {
      "x": 249.0,
      "y": 262.0
    },
    {
      "x": 282.0,
      "y": 273.0
    },
    {
      "x": 341.0,
      "y": 270.0
    },
    {
      "x": 363.0,
      "y": 264.0
    },
    {
      "x": 376.0,
      "y": 257.0
    },
    {
      "x": 395.0,
      "y": 253.0
    },
    {
      "x": 404.0,
      "y": 246.0
    },
    {
      "x": 423.0,
      "y": 211.0
    },
    {
      "x": 427.0,
      "y": 192.0
    },
    {
      "x": 427.0,
      "y": 165.0
    },
    {
      "x": 413.0,
      "y": 141.0
    },
    {
      "x": 410.0,
      "y": 142.0
    },
    {
      "x": 380.0,
      "y": 129.0
    }
  ],
  [
    {
      "x": 145.0,
      "y": 227.0
    },
    {
      "x": 146.0,
      "y": 232.0
    },
    {
      "x": 154.0,
      "y": 240.0
    },
    {
      "x": 193.0,
      "y": 260.0
    },
    {
      "x": 199.0,
      "y": 262.0
    },
    {
      "x": 249.0,
      "y": 262.0
    },
    {
      "x": 282.0,
      "y": 273.0
    },
    {
      "x": 341.0,
      "y": 270.0
    },
    {
      "x": 363.0,
      "y": 264.0
    },
    {
      "x": 376.0,
      "y": 257.0
    },
    {
      "x": 395.0,
      "y": 253.0
    },
    {
      "x": 404.0,
      "y": 246.0
    },
    {
      "x": 423.0,
      "y": 211.0
    },
    {
      "x": 427.0,
      "y": 192.0
    },
    {
      "x": 427.0,
      "y": 165.0
    },
    {
      "x": 413.0,
      "y": 141.0
    },
    {
      "x": 410.0,
      "y": 142.0
    },
    {
      "x": 380.0,
      "y": 129.0
    }
  ],
  [
    {
      "x": 145.0,
      "y": 227.0
    },
    {
      "x": 146.0,
      "y": 232.0
    },
    {
      "x": 154.0,
      "y": 240.0
    },
    {
      "x": 193.0,
      "y": 260.0
    },
    {
      "x": 199.0,
      "y": 262.0
    },
    {
      "x": 249.0,
      "y": 262.0
    },
    {
      "x": 282.0,
      "y": 273.0
    },
    {
      "x": 341.0,
      "y": 270.0
    },
    {
      "x": 363.0,
      "y": 264.0
    },
    {
      "x": 376.0,
      "y": 257.0
    },
    {
      "x": 395.0,
      "y": 253.0
    },
    {
      "x": 404.0,
      "y": 246.0
    },
    {
      "x": 423.0,
      "y": 211.0
    },
    {
      "x": 427.0,
      "y": 192.0
    },
    {
      "x": 427.0,
      "y": 165.0
    },
    {
      "x": 413.0,
      "y": 141.0
    },
    {
      "x": 410.0,
      "y": 142.0
    },
    {
      "x": 380.0,
      "y": 129.0
    }
  ],
  [
    {
      "x": 145.0,
      "y": 227.0
    },
    {
      "x": 146.0,
      "y": 232.0
    },
    {
      "x": 154.0,
      "y": 240.0
    },
    {
      "x": 193.0,
      "y": 260.0
    },
    {
      "x": 199.0,
      "y": 262.0
    },
    {
      "x": 249.0,
      "y": 262.0
    },
    {
      "x": 282.0,
      "y": 273.0
    },
    {
      "x": 341.0,
      "y": 270.0
    },
    {
      "x": 363.0,
      "y": 264.0
    },
    {
      "x": 376.0,
      "y": 257.0
    },
    {
      "x": 395.0,
      "y": 253.0
    },
    {
      "x": 404.0,
      "y": 246.0
    },
    {
      "x": 423.0,
      "y": 211.0
    },
    {
      "x": 427.0,
      "y": 192.0
    },
    {
      "x": 427.0,
      "y": 165.0
    },
    {
      "x": 413.0,
      "y": 141.0
    },
    {
      "x": 410.0,
      "y": 142.0
    },
    {
      "x": 380.0,
      "y": 129.0
    }
  ],
  [
    {
      "x": 145.0,
      "y": 227.0
    },
    {
      "x": 146.0,
      "y": 232.0
    },
    {
      "x": 154.0,
      "y": 240.0
    },
    {
      "x": 193.0,
      "y": 260.0
    },
    {
      "x": 199.0,
      "y": 262.0
    },
    {
      "x": 249.0,
      "y": 262.0
    },
    {
      "x": 282.0,
      "y": 273.0
    },
    {
      "x": 341.0,
      "y": 270.0
    },
    {
      "x": 363.0,
      "y": 264.0
    },
    {
      "x": 376.0,
      "y": 257.0
    },
    {
      "x": 395.0,
      "y": 253.0
    },
    {
      "x": 404.0,
      "y": 246.0
    },
    {
      "x": 423.0,
      "y": 211.0
    },
    {
      "x": 427.0,
      "y": 192.0
    },
    {
      "x": 427.0,
      "y": 165.0
    },
    {
      "x": 413.0,
      "y": 141.0
    },
    {
      "x": 410.0,
      "y": 142.0
    },
    {
      "x": 380.0,
      "y": 129.0
    }
  ],
  [
    {
      "x": 145.0,
      "y": 227.0
    },
    {
      "x": 146.0,
      "y": 232.0
    },
    {
      "x": 154.0,
      "y": 240.0
    },
    {
      "x": 193.0,
      "y": 260.0
    },
    {
      "x": 199.0,
      "y": 262.0
    },
    {
      "x": 249.0,
      "y": 262.0
    },
    {
      "x": 282.0,
      "y": 273.0
    },
    {
      "x": 341.0,
      "y": 270.0
    },
    {
      "x": 363.0,
      "y": 264.0
    },
    {
      "x": 376.0,
      "y": 257.0
    },
    {
      "x": 395.0,
      "y": 253.0
    },
    {
      "x": 404.0,
      "y": 246.0
    },
    {
      "x": 423.0,
      "y": 211.0
    },
    {
      "x": 427.0,
      "y": 192.0
    },
    {
      "x": 427.0,
      "y": 165.0
    },
    {
      "x": 413.0,
      "y": 141.0
    },
    {
      "x": 410.0,
      "y": 142.0
    },
    {
      "x": 380.0,
      "y": 129.0
    }
  ],
  [
    {
      "x": 145.0,
      "y": 227.0
    },
    {
      "x": 146.0,
      "y": 232.0
    },
    {
      "x": 154.0,
      "y": 240.0
    },
    {
      "x": 193.0,
      "y": 260.0
    },
    {
      "x": 199.0,
      "y": 262.0
    },
    {
      "x": 249.0,
      "y": 262.0
    },
    {
      "x": 282.0,
      "y": 273.0
    },
    {
      "x": 341.0,
      "y": 270.0
    },
    {
      "x": 363.0,
      "y": 264.0
    },
    {
      "x": 376.0,
      "y": 257.0
    },
    {
      "x": 395.0,
      "y": 253.0
    },
    {
      "x": 404.0,
      "y": 246.0
    },
    {
      "x": 423.0,
      "y": 211.0
    },
    {
      "x": 427.0,
      "y": 192.0
    },
    {
      "x": 427.0,
      "y": 165.0
    },
    {
      "x": 413.0,
      "y": 141.0
    },
    {
      "x": 410.0,
      "y": 142.0
    },
    {
      "x": 380.0,
      "y": 129.0
    }
  ],
  [
    {
      "x": 238.0,
      "y": 260.0
    },
    {
      "x": 236.0,
      "y": 265.0
    },
    {
      "x": 235.0,
      "y": 369.0
    }
  ],
  [
    {
      "x": 238.0,
      "y": 260.0
    },
    {
      "x": 236.0,
      "y": 265.0
    },
    {
      "x": 235.0,
      "y": 369.0
    }
  ],
  [
    {
      "x": 238.0,
      "y": 260.0
    },
    {
      "x": 236.0,
      "y": 265.0
    },
    {
      "x": 235.0,
      "y": 369.0
    }
  ],
  [
    {
      "x": 252.0,
      "y": 262.0
    },
    {
      "x": 251.0,
      "y": 304.0
    },
    {
      "x": 253.0,
      "y": 304.0
    },
    {
      "x": 254.0,
      "y": 311.0
    },
    {
      "x": 254.0,
      "y": 374.0
    }
  ],
  [
    {
      "x": 252.0,
      "y": 262.0
    },
    {
      "x": 251.0,
      "y": 304.0
    },
    {
      "x": 253.0,
      "y": 304.0
    },
    {
      "x": 254.0,
      "y": 311.0
    },
    {
      "x": 254.0,
      "y": 374.0
    }
  ],
  [
    {
      "x": 252.0,
      "y": 262.0
    },
    {
      "x": 251.0,
      "y": 304.0
    },
    {
      "x": 253.0,
      "y": 304.0
    },
    {
      "x": 254.0,
      "y": 311.0
    },
    {
      "x": 254.0,
      "y": 374.0
    }
  ],
  [
    {
      "x": 252.0,
      "y": 262.0
    },
    {
      "x": 251.0,
      "y": 304.0
    },
    {
      "x": 253.0,
      "y": 304.0
    },
    {
      "x": 254.0,
      "y": 311.0
    },
    {
      "x": 254.0,
      "y": 374.0
    }
  ],
  [
    {
      "x": 252.0,
      "y": 262.0
    },
    {
      "x": 251.0,
      "y": 304.0
    },
    {
      "x": 253.0,
      "y": 304.0
    },
    {
      "x": 254.0,
      "y": 311.0
    },
    {
      "x": 254.0,
      "y": 374.0
    }
  ],
  [
    {
      "x": 231.0,
      "y": 367.0
    },
    {
      "x": 246.0,
      "y": 371.0
    },
    {
      "x": 258.0,
      "y": 371.0
    }
  ],
  [
    {
      "x": 231.0,
      "y": 367.0
    },
    {
      "x": 246.0,
      "y": 371.0
    },
    {
      "x": 258.0,
      "y": 371.0
    }
  ],
  [
    {
      "x": 231.0,
      "y": 367.0
    },
    {
      "x": 246.0,
      "y": 371.0
    },
    {
      "x": 258.0,
      "y": 371.0
    }
  ],
  [
    {
      "x": 401.0,
      "y": 239.0
    },
    {
      "x": 399.0,
      "y": 297.0
    },
    {
      "x": 393.0,
      "y": 322.0
    },
    {
      "x": 393.0,
      "y": 349.0
    }
  ],
  [
    {
      "x": 401.0,
      "y": 239.0
    },
    {
      "x": 399.0,
      "y": 297.0
    },
    {
      "x": 393.0,
      "y": 322.0
    },
    {
      "x": 393.0,
      "y": 349.0
    }
  ],
  [
    {
      "x": 401.0,
      "y": 239.0
    },
    {
      "x": 399.0,
      "y": 297.0
    },
    {
      "x": 393.0,
      "y": 322.0
    },
    {
      "x": 393.0,
      "y": 349.0
    }
  ],
  [
    {
      "x": 401.0,
      "y": 239.0
    },
    {
      "x": 399.0,
      "y": 297.0
    },
    {
      "x": 393.0,
      "y": 322.0
    },
    {
      "x": 393.0,
      "y": 349.0
    }
  ],
  [
    {
      "x": 374.0,
      "y": 246.0
    },
    {
      "x": 374.0,
      "y": 270.0
    },
    {
      "x": 377.0,
      "y": 286.0
    },
    {
      "x": 377.0,
      "y": 359.0
    },
    {
      "x": 393.0,
      "y": 351.0
    }
  ],
  [
    {
      "x": 374.0,
      "y": 246.0
    },
    {
      "x": 374.0,
      "y": 270.0
    },
    {
      "x": 377.0,
      "y": 286.0
    },
    {
      "x": 377.0,
      "y": 359.0
    },
    {
      "x": 393.0,
      "y": 351.0
    }
  ],
  [
    {
      "x": 374.0,
      "y": 246.0
    },
    {
      "x": 374.0,
      "y": 270.0
    },
    {
      "x": 377.0,
      "y": 286.0
    },
    {
      "x": 377.0,
      "y": 359.0
    },
    {
      "x": 393.0,
      "y": 351.0
    }
  ],
  [
    {
      "x": 374.0,
      "y": 246.0
    },
    {
      "x": 374.0,
      "y": 270.0
    },
    {
      "x": 377.0,
      "y": 286.0
    },
    {
      "x": 377.0,
      "y": 359.0
    },
    {
      "x": 393.0,
      "y": 351.0
    }
  ],
  [
    {
      "x": 374.0,
      "y": 246.0
    },
    {
      "x": 374.0,
      "y": 270.0
    },
    {
      "x": 377.0,
      "y": 286.0
    },
    {
      "x": 377.0,
      "y": 359.0
    },
    {
      "x": 393.0,
      "y": 351.0
    }
  ],
  [
    {
      "x": 153.0,
      "y": 230.0
    },
    {
      "x": 159.0,
      "y": 241.0
    },
    {
      "x": 161.0,
      "y": 254.0
    },
    {
      "x": 161.0,
      "y": 337.0
    }
  ],
  [
    {
      "x": 153.0,
      "y": 230.0
    },
    {
      "x": 159.0,
      "y": 241.0
    },
    {
      "x": 161.0,
      "y": 254.0
    },
    {
      "x": 161.0,
      "y": 337.0
    }
  ],
  [
    {
      "x": 153.0,
      "y": 230.0
    },
    {
      "x": 159.0,
      "y": 241.0
    },
    {
      "x": 161.0,
      "y": 254.0
    },
    {
      "x": 161.0,
      "y": 337.0
    }
  ],
  [
    {
      "x": 153.0,
      "y": 230.0
    },
    {
      "x": 159.0,
      "y": 241.0
    },
    {
      "x": 161.0,
      "y": 254.0
    },
    {
      "x": 161.0,
      "y": 337.0
    }
  ],
  [
    {
      "x": 177.0,
      "y": 239.0
    },
    {
      "x": 177.0,
      "y": 303.0
    },
    {
      "x": 173.0,
      "y": 316.0
    },
    {
      "x": 173.0,
      "y": 331.0
    }
  ],
  [
    {
      "x": 177.0,
      "y": 239.0
    },
    {
      "x": 177.0,
      "y": 303.0
    },
    {
      "x": 173.0,
      "y": 316.0
    },
    {
      "x": 173.0,
      "y": 331.0
    }
  ],
  [
    {
      "x": 177.0,
      "y": 239.0
    },
    {
      "x": 177.0,
      "y": 303.0
    },
    {
      "x": 173.0,
      "y": 316.0
    },
    {
      "x": 173.0,
      "y": 331.0
    }
  ],
  [
    {
      "x": 177.0,
      "y": 239.0
    },
    {
      "x": 177.0,
      "y": 303.0
    },
    {
      "x": 173.0,
      "y": 316.0
    },
    {
      "x": 173.0,
      "y": 331.0
    }
  ],
  [
    {
      "x": 161.0,
      "y": 335.0
    },
    {
      "x": 168.0,
      "y": 335.0
    },
    {
      "x": 174.0,
      "y": 331.0
    }
  ],
  [
    {
      "x": 161.0,
      "y": 335.0
    },
    {
      "x": 168.0,
      "y": 335.0
    },
    {
      "x": 174.0,
      "y": 331.0
    }
  ],
  [
    {
      "x": 161.0,
      "y": 335.0
    },
    {
      "x": 168.0,
      "y": 335.0
    },
    {
      "x": 174.0,
      "y": 331.0
    }
  ],
  [
    {
      "x": 327.0,
      "y": 263.0
    },
    {
      "x": 332.0,
      "y": 298.0
    },
    {
      "x": 332.0,
      "y": 339.0
    }
  ],
  [
    {
      "x": 327.0,
      "y": 263.0
    },
    {
      "x": 332.0,
      "y": 298.0
    },
    {
      "x": 332.0,
      "y": 339.0
    }
  ],
  [
    {
      "x": 327.0,
      "y": 263.0
    },
    {
      "x": 332.0,
      "y": 298.0
    },
    {
      "x": 332.0,
      "y": 339.0
    }
  ],
  [
    {
      "x": 320.0,
      "y": 265.0
    },
    {
      "x": 320.0,
      "y": 291.0
    },
    {
      "x": 325.0,
      "y": 302.0
    },
    {
      "x": 325.0,
      "y": 336.0
    },
    {
      "x": 323.0,
      "y": 335.0
    },
    {
      "x": 321.0,
      "y": 340.0
    },
    {
      "x": 328.0,
      "y": 341.0
    }
  ],
  [
    {
      "x": 320.0,
      "y": 265.0
    },
    {
      "x": 320.0,
      "y": 291.0
    },
    {
      "x": 325.0,
      "y": 302.0
    },
    {
      "x": 325.0,
      "y": 336.0
    },
    {
      "x": 323.0,
      "y": 335.0
    },
    {
      "x": 321.0,
      "y": 340.0
    },
    {
      "x": 328.0,
      "y": 341.0
    }
  ],
  [
    {
      "x": 320.0,
      "y": 265.0
    },
    {
      "x": 320.0,
      "y": 291.0
    },
    {
      "x": 325.0,
      "y": 302.0
    },
    {
      "x": 325.0,
      "y": 336.0
    },
    {
      "x": 323.0,
      "y": 335.0
    },
    {
      "x": 321.0,
      "y": 340.0
    },
    {
      "x": 328.0,
      "y": 341.0
    }
  ],
  [
    {
      "x": 320.0,
      "y": 265.0
    },
    {
      "x": 320.0,
      "y": 291.0
    },
    {
      "x": 325.0,
      "y": 302.0
    },
    {
      "x": 325.0,
      "y": 336.0
    },
    {
      "x": 323.0,
      "y": 335.0
    },
    {
      "x": 321.0,
      "y": 340.0
    },
    {
      "x": 328.0,
      "y": 341.0
    }
  ],
  [
    {
      "x": 320.0,
      "y": 265.0
    },
    {
      "x": 320.0,
      "y": 291.0
    },
    {
      "x": 325.0,
      "y": 302.0
    },
    {
      "x": 325.0,
      "y": 336.0
    },
    {
      "x": 323.0,
      "y": 335.0
    },
    {
      "x": 321.0,
      "y": 340.0
    },
    {
      "x": 328.0,
      "y": 341.0
    }
  ],
  [
    {
      "x": 320.0,
      "y": 265.0
    },
    {
      "x": 320.0,
      "y": 291.0
    },
    {
      "x": 325.0,
      "y": 302.0
    },
    {
      "x": 325.0,
      "y": 336.0
    },
    {
      "x": 323.0,
      "y": 335.0
    },
    {
      "x": 321.0,
      "y": 340.0
    },
    {
      "x": 328.0,
      "y": 341.0
    }
  ],
  [
    {
      "x": 320.0,
      "y": 265.0
    },
    {
      "x": 320.0,
      "y": 291.0
    },
    {
      "x": 325.0,
      "y": 302.0
    },
    {
      "x": 325.0,
      "y": 336.0
    },
    {
      "x": 323.0,
      "y": 335.0
    },
    {
      "x": 321.0,
      "y": 340.0
    },
    {
      "x": 328.0,
      "y": 341.0
    }
  ]
]
