[
  [
    {
      "x": 111.0,
      "y": 298.0
    },
    {
      "x": 106.0,
      "y": 284.0
    },
    {
      "x": 107.0,
      "y": 276.0
    },
    {
      "x": 136.0,
      "y": 206.0
    },
    {
      "x": 142.0,
      "y": 170.0
    },
    {
      "x": 227.0,
      "y": 169.0
    },
    {
      "x": 364.0,
      "y": 183.0
    },
    {
      "x": 410.0,
      "y": 183.0
    }
  ],
  [
    {
      "x": 111.0,
      "y": 298.0
    },
    {
      "x": 106.0,
      "y": 284.0
    },
    {
      "x": 107.0,
      "y": 276.0
    },
    {
      "x": 136.0,
      "y": 206.0
    },
    {
      "x": 142.0,
      "y": 170.0
    },
    {
      "x": 227.0,
      "y": 169.0
    },
    {
      "x": 364.0,
      "y": 183.0
    },
    {
      "x": 410.0,
      "y": 183.0
    }
  ],
  [
    {
      "x": 111.0,
      "y": 298.0
    },
    {
      "x": 106.0,
      "y": 284.0
    },
    {
      "x": 107.0,
      "y": 276.0
    },
    {
      "x": 136.0,
      "y": 206.0
    },
    {
      "x": 142.0,
      "y": 170.0
    },
    {
      "x": 227.0,
      "y": 169.0
    },
    {
      "x": 364.0,
      "y": 183.0
    },
    {
      "x": 410.0,
      "y": 183.0
    }
  ],
  [
    {
      "x": 111.0,
      "y": 298.0
    },
    {
      "x": 106.0,
      "y": 284.0
    },
    {
      "x": 107.0,
      "y": 276.0
    },
    {
      "x": 136.0,
      "y": 206.0
    },
    {
      "x": 142.0,
      "y": 170.0
    },
    {
      "x": 227.0,
      "y": 169.0
    },
    {
      "x": 364.0,
      "y": 183.0
    },
    {
      "x": 410.0,
      "y": 183.0
    }
  ],
  [
    {
      "x": 111.0,
      "y": 298.0
    },
    {
      "x": 106.0,
      "y": 284.0
    },
    {
      "x": 107.0,
      "y": 276.0
    },
    {
      "x": 136.0,
      "y": 206.0
    },
    {
      "x": 142.0,
      "y": 170.0
    },
    {
      "x": 227.0,
      "y": 169.0
    },
    {
      "x": 364.0,
      "y": 183.0
    },
    {
      "x": 410.0,
      "y": 183.0
    }
  ],
  [
    {
      "x": 111.0,
      "y": 298.0
    },
    {
      "x": 106.0,
      "y": 284.0
    },
    {
      "x": 107.0,
      "y": 276.0
    },
    {
      "x": 136.0,
      "y": 206.0
    },
    {
      "x": 142.0,
      "y": 170.0
    },
    {
      "x": 227.0,
      "y": 169.0
    },
    {
      "x": 364.0,
      "y": 183.0
    },
    {
      "x": 410.0,
      "y": 183.0
    }
  ],
  [
    {
      "x": 111.0,
      "y": 298.0
    },
    {
      "x": 106.0,
      "y": 284.0
    },
    {
      "x": 107.0,
      "y": 276.0
    },
    {
      "x": 136.0,
      "y": 206.0
    },
    {
      "x": 142.0,
      "y": 170.0
    },
    {
      "x": 227.0,
      "y": 169.0
    },
    {
      "x": 364.0,
      "y": 183.0
    },
    {
      "x": 410.0,
      "y": 183.0
    }
  ],
  [
    {
      "x": 111.0,
      "y": 298.0
    },
    {
      "x": 106.0,
      "y": 284.0
    },
    {
      "x": 107.0,
      "y": 276.0
    },
    {
      "x": 136.0,
      "y": 206.0
    },
    {
      "x": 142.0,
      "y": 170.0
    },
    {
      "x": 227.0,
      "y": 169.0
    },
    {
      "x": 364.0,
      "y": 183.0
    },
    {
      "x": 410.0,
      "y": 183.0
    }
  ],
  [
    {
      "x": 145.0,
      "y": 170.0
    },
    {
      "x": 149.0,
      "y": 166.0
    },
    {
      "x": 186.0,
      "y": 151.0
    },
    {
      "x": 227.0,
      "y": 130.0
    },
    {
      "x": 245.0,
      "y": 117.0
    },
    {
      "x": 265.0,
      "y": 107.0
    },
    {
      "x": 280.0,
      "y": 95.0
    },
    {
      "x": 380.0,
      "y": 115.0
    },
    {
      "x": 535.0,
      "y": 116.0
    },
    {
      "x": 519.0,
      "y": 137.0
    },
    {
      "x": 486.0,
      "y": 153.0
    },
    {
      "x": 437.0,
      "y": 162.0
    },
    {
      "x": 431.0,
      "y": 165.0
    },
    {
      "x": 413.0,
      "y": 184.0
    },
    {
      "x": 419.0,
      "y": 257.0
    },
    {
      "x": 416.0,
      "y": 282.0
    },
    {
      "x": 414.0,
      "y": 282.0
    },
    {
      "x": 419.0,
      "y": 276.0
    }
  ],
  [
    {
      "x": 145.0,
      "y": 170.0
    },
    {
      "x": 149.0,
      "y": 166.0
    },
    {
      "x": 186.0,
      "y": 151.0
    },
    {
      "x": 227.0,
      "y": 130.0
    },
    {
      "x": 245.0,
      "y": 117.0
    },
    {
      "x": 265.0,
      "y": 107.0
    },
    {
      "x": 280.0,
      "y": 95.0
    },
    {
      "x": 380.0,
      "y": 115.0
    },
    {
      "x": 535.0,
      "y": 116.0
    },
    {
      "x": 519.0,
      "y": 137.0
    },
    {
      "x": 486.0,
      "y": 153.0
    },
    {
      "x": 437.0,
      "y": 162.0
    },
    {
      "x": 431.0,
      "y": 165.0
    },
    {
      "x": 413.0,
      "y": 184.0
    },
    {
      "x": 419.0,
      "y": 257.0
    },
    {
      "x": 416.0,
      "y": 282.0
    },
    {
      "x": 414.0,
      "y": 282.0
    },
    {
      "x": 419.0,
      "y": 276.0
    }
  ],
  [
    {
      "x": 145.0,
      "y": 170.0
    },
    {
      "x": 149.0,
      "y": 166.0
    },
    {
      "x": 186.0,
      "y": 151.0
    },
    {
      "x": 227.0,
      "y": 130.0
    },
    {
      "x": 245.0,
      "y": 117.0
    },
    {
      "x": 265.0,
      "y": 107.0
    },
    {
      "x": 280.0,
      "y": 95.0
    },
    {
      "x": 380.0,
      "y": 115.0
    },
    {
      "x": 535.0,
      "y": 116.0
    },
    {
      "x": 519.0,
      "y": 137.0
    },
    {
      "x": 486.0,
      "y": 153.0
    },
    {
      "x": 437.0,
      "y": 162.0
    },
    {
      "x": 431.0,
      "y": 165.0
    },
    {
      "x": 413.0,
      "y": 184.0
    },
    {
      "x": 419.0,
      "y": 257.0
    },
    {
      "x": 416.0,
      "y": 282.0
    },
    {
      "x": 414.0,
      "y": 282.0
    },
    {
      "x": 419.0,
      "y": 276.0
    }
  ],
  [
    {
      "x": 145.0,
      "y": 170.0
    },
    {
      "x": 149.0,
      "y": 166.0
    },
    {
      "x": 186.0,
      "y": 151.0
    },
    {
      "x": 227.0,
      "y": 130.0
    },
    {
      "x": 245.0,
      "y": 117.0
    },
    {
      "x": 265.0,
      "y": 107.0
    },
    {
      "x": 280.0,
      "y": 95.0
    },
    {
      "x": 380.0,
      "y": 115.0
    },
    {
      "x": 535.0,
      "y": 116.0
    },
    {
      "x": 519.0,
      "y": 137.0
    },
    {
      "x": 486.0,
      "y": 153.0
    },
    {
      "x": 437.0,
      "y": 162.0
    },
    {
      "x": 431.0,
      "y": 165.0
    },
    {
      "x": 413.0,
      "y": 184.0
    },
    {
      "x": 419.0,
      "y": 257.0
    },
    {
      "x": 416.0,
      "y": 282.0
    },
    {
      "x": 414.0,
      "y": 282.0
    },
    {
      "x": 419.0,
      "y": 276.0
    }
  ],
  [
    {
      "x": 145.0,
      "y": 170.0
    },
    {
      "x": 149.0,
      "y": 166.0
    },
    {
      "x": 186.0,
      "y": 151.0
    },
    {
      "x": 227.0,
      "y": 130.0
    },
    {
      "x": 245.0,
      "y": 117.0
    },
    {
      "x": 265.0,
      "y": 107.0
    },
    {
      "x": 280.0,
      "y": 95.0
    },
    {
      "x": 380.0,
      "y": 115.0
    },
    {
      "x": 535.0,
      "y": 116.0
    },
    {
      "x": 519.0,
      "y": 137.0
    },
    {
      "x": 486.0,
      "y": 153.0
    },
    {
      "x": 437.0,
      "y": 162.0
    },
    {
      "x": 431.0,
      "y": 165.0
    },
    {
      "x": 413.0,
      "y": 184.0
    },
    {
      "x": 419.0,
      "y": 257.0
    },
    {
      "x": 416.0,
      "y": 282.0
    },
    {
      "x": 414.0,
      "y": 282.0
    },
    {
      "x": 419.0,
      "y": 276.0
    }
  ],
  [
    {
      "x": 145.0,
      "y": 170.0
    },
    {
      "x": 149.0,
      "y": 166.0
    },
    {
      "x": 186.0,
      "y": 151.0
    },
    {
      "x": 227.0,
      "y": 130.0
    },
    {
      "x": 245.0,
      "y": 117.0
    },
    {
      "x": 265.0,
      "y": 107.0
    },
    {
      "x": 280.0,
      "y": 95.0
    },
    {
      "x": 380.0,
      "y": 115.0
    },
    {
      "x": 535.0,
      "y": 116.0
    },
    {
      "x": 519.0,
      "y": 137.0
    },
    {
      "x": 486.0,
      "y": 153.0
    },
    {
      "x": 437.0,
      "y": 162.0
    },
    {
      "x": 431.0,
      "y": 165.0
    },
    {
      "x": 413.0,
      "y": 184.0
    },
    {
      "x": 419.0,
      "y": 257.0
    },
    {
      "x": 416.0,
      "y": 282.0
    },
    {
      "x": 414.0,
      "y": 282.0
    },
    {
      "x": 419.0,
      "y": 276.0
    }
  ],
  [
    {
      "x": 145.0,
      "y": 170.0
    },
    {
      "x": 149.0,
      "y": 166.0
    },
    {
      "x": 186.0,
      "y": 151.0
    },
    {
      "x": 227.0,
      "y": 130.0
    },
    {
      "x": 245.0,
      "y": 117.0
    },
    {
      "x": 265.0,
      "y": 107.0
    },
    {
      "x": 280.0,
      "y": 95.0
    },
    {
      "x": 380.0,
      "y": 115.0
    },
    {
      "x": 535.0,
      "y": 116.0
    },
    {
      "x": 519.0,
      "y": 137.0
    },
    {
      "x": 486.0,
      "y": 153.0
    },
    {
      "x": 437.0,
      "y": 162.0
    },
    {
      "x": 431.0,
      "y": 165.0
    },
    {
      "x": 413.0,
      "y": 184.0
    },
    {
      "x": 419.0,
      "y": 257.0
    },
    {
      "x": 416.0,
      "y": 282.0
    },
    {
      "x": 414.0,
      "y": 282.0
    },
    {
      "x": 419.0,
      "y": 276.0
    }
  ],
  [
    {
      "x": 145.0,
      "y": 170.0
    },
    {
      "x": 149.0,
      "y": 166.0
    },
    {
      "x": 186.0,
      "y": 151.0
    },
    {
      "x": 227.0,
      "y": 130.0
    },
    {
      "x": 245.0,
      "y": 117.0
    },
    {
      "x": 265.0,
      "y": 107.0
    },
    {
      "x": 280.0,
      "y": 95.0
    },
    {
      "x": 380.0,
      "y": 115.0
    },
    {
      "x": 535.0,
      "y": 116.0
    },
    {
      "x": 519.0,
      "y": 137.0
    },
    {
      "x": 486.0,
      "y": 153.0
    },
    {
      "x": 437.0,
      "y": 162.0
    },
    {
      "x": 431.0,
      "y": 165.0
    },
    {
      "x": 413.0,
      "y": 184.0
    },
    {
      "x": 419.0,
      "y": 257.0
    },
    {
      "x": 416.0,
      "y": 282.0
    },
    {
      "x": 414.0,
      "y": 282.0
    },
    {
      "x": 419.0,
      "y": 276.0
    }
  ],
  [
    {
      "x": 145.0,
      "y": 170.0
    },
    {
      "x": 149.0,
      "y": 166.0
    },
    {
      "x": 186.0,
      "y": 151.0
    },
    {
      "x": 227.0,
      "y": 130.0
    },
    {
      "x": 245.0,
      "y": 117.0
    },
    {
      "x": 265.0,
      "y": 107.0
    },
    {
      "x": 280.0,
      "y": 95.0
    },
    {
      "x": 380.0,
      "y": 115.0
    },
    {
      "x": 535.0,
      "y": 116.0
    },
    {
      "x": 519.0,
      "y": 137.0
    },
    {
      "x": 486.0,
      "y": 153.0
    },
    {
      "x": 437.0,
      "y": 162.0
    },
    {
      "x": 431.0,
      "y": 165.0
    },
    {
      "x": 413.0,
      "y": 184.0
    },
    {
      "x": 419.0,
      "y": 257.0
    },
    {
      "x": 416.0,
      "y": 282.0
    },
    {
      "x": 414.0,
      "y": 282.0
    },
    {
      "x": 419.0,
      "y": 276.0
    }
  ],
  [
    {
      "x": 145.0,
      "y": 170.0
    },
    {
      "x": 149.0,
      "y": 166.0
    },
    {
      "x": 186.0,
      "y": 151.0
    },
    {
      "x": 227.0,
      "y": 130.0
    },
    {
      "x": 245.0,
      "y": 117.0
    },
    {
      "x": 265.0,
      "y": 107.0
    },
    {
      "x": 280.0,
      "y": 95.0
    },
    {
      "x": 380.0,
      "y": 115.0
    },
    {
      "x": 535.0,
      "y": 116.0
    },
    {
      "x": 519.0,
      "y": 137.0
    },
    {
      "x": 486.0,
      "y": 153.0
    },
    {
      "x": 437.0,
      "y": 162.0
    },
    {
      "x": 431.0,
      "y": 165.0
    },
    {
      "x": 413.0,
      "y": 184.0
    },
    {
      "x": 419.0,
      "y": 257.0
    },
    {
      "x": 416.0,
      "y": 282.0
    },
    {
      "x": 414.0,
      "y": 282.0
    },
    {
      "x": 419.0,
      "y": 276.0
    }
  ],
  [
    {
      "x": 145.0,
      "y": 170.0
    },
    {
      "x": 149.0,
      "y": 166.0
    },
    {
      "x": 186.0,
      "y": 151.0
    },
    {
      "x": 227.0,
      "y": 130.0
    },
    {
      "x": 245.0,
      "y": 117.0
    },
    {
      "x": 265.0,
      "y": 107.0
    },
    {
      "x": 280.0,
      "y": 95.0
    },
    {
      "x": 380.0,
      "y": 115.0
    },
    {
      "x": 535.0,
      "y": 116.0
    },
    {
      "x": 519.0,
      "y": 137.0
    },
    {
      "x": 486.0,
      "y": 153.0
    },
    {
      "x": 437.0,
      "y": 162.0
    },
    {
      "x": 431.0,
      "y": 165.0
    },
    {
      "x": 413.0,
      "y": 184.0
    },
    {
      "x": 419.0,
      "y": 257.0
    },
    {
      "x": 416.0,
      "y": 282.0
    },
    {
      "x": 414.0,
      "y": 282.0
    },
    {
      "x": 419.0,
      "y": 276.0
    }
  ],
  [
    {
      "x": 145.0,
      "y": 170.0
    },
    {
      "x": 149.0,
      "y": 166.0
    },
    {
      "x": 186.0,
      "y": 151.0
    },
    {
      "x": 227.0,
      "y": 130.0
    },
    {
      "x": 245.0,
      "y": 117.0
    },
    {
      "x": 265.0,
      "y": 107.0
    },
    {
      "x": 280.0,
      "y": 95.0
    },
    {
      "x": 380.0,
      "y": 115.0
    },
    {
      "x": 535.0,
      "y": 116.0
    },
    {
      "x": 519.0,
      "y": 137.0
    },
    {
      "x": 486.0,
      "y": 153.0
    },
    {
      "x": 437.0,
      "y": 162.0
    },
    {
      "x": 431.0,
      "y": 165.0
    },
    {
      "x": 413.0,
      "y": 184.0
    },
    {
      "x": 419.0,
      "y": 257.0
    },
    {
      "x": 416.0,
      "y": 282.0
    },
    {
      "x": 414.0,
      "y": 282.0
    },
    {
      "x": 419.0,
      "y": 276.0
    }
  ],
  [
    {
      "x": 145.0,
      "y": 170.0
    },
    {
      "x": 149.0,
      "y": 166.0
    },
    {
      "x": 186.0,
      "y": 151.0
    },
    {
      "x": 227.0,
      "y": 130.0
    },
    {
      "x": 245.0,
      "y": 117.0
    },
    {
      "x": 265.0,
      "y": 107.0
    },
    {
      "x": 280.0,
      "y": 95.0
    },
    {
      "x": 380.0,
      "y": 115.0
    },
    {
      "x": 535.0,
      "y": 116.0
    },
    {
      "x": 519.0,
      "y": 137.0
    },
    {
      "x": 486.0,
      "y": 153.0
    },
    {
      "x": 437.0,
      "y": 162.0
    },
    {
      "x": 431.0,
      "y": 165.0
    },
    {
      "x": 413.0,
      "y": 184.0
    },
    {
      "x": 419.0,
      "y": 257.0
    },
    {
      "x": 416.0,
      "y": 282.0
    },
    {
      "x": 414.0,
      "y": 282.0
    },
    {
      "x": 419.0,
      "y": 276.0
    }
  ],
  [
    {
      "x": 145.0,
      "y": 170.0
    },
    {
      "x": 149.0,
      "y": 166.0
    },
    {
      "x": 186.0,
      "y": 151.0
    },
    {
      "x": 227.0,
      "y": 130.0
    },
    {
      "x": 245.0,
      "y": 117.0
    },
    {
      "x": 265.0,
      "y": 107.0
    },
    {
      "x": 280.0,
      "y": 95.0
    },
    {
      "x": 380.0,
      "y": 115.0
    },
    {
      "x": 535.0,
      "y": 116.0
    },
    {
      "x": 519.0,
      "y": 137.0
    },
    {
      "x": 486.0,
      "y": 153.0
    },
    {
      "x": 437.0,
      "y": 162.0
    },
    {
      "x": 431.0,
      "y": 165.0
    },
    {
      "x": 413.0,
      "y": 184.0
    },
    {
      "x": 419.0,
      "y": 257.0
    },
    {
      "x": 416.0,
      "y": 282.0
    },
    {
      "x": 414.0,
      "y": 282.0
    },
    {
      "x": 419.0,
      "y": 276.0
    }
  ],
  [
    {
      "x": 145.0,
      "y": 170.0
    },
    {
      "x": 149.0,
      "y": 166.0
    },
    {
      "x": 186.0,
      "y": 151.0
    },
    {
      "x": 227.0,
      "y": 130.0
    },
    {
      "x": 245.0,
      "y": 117.0
    },
    {
      "x": 265.0,
      "y": 107.0
    },
    {
      "x": 280.0,
      "y": 95.0
    },
    {
      "x": 380.0,
      "y": 115.0
    },
    {
      "x": 535.0,
      "y": 116.0
    },
    {
      "x": 519.0,
      "y": 137.0
    },
    {
      "x": 486.0,
      "y": 153.0
    },
    {
      "x": 437.0,
      "y": 162.0
    },
    {
      "x": 431.0,
      "y": 165.0
    },
    {
      "x": 413.0,
      "y": 184.0
    },
    {
      "x": 419.0,
      "y": 257.0
    },
    {
      "x": 416.0,
      "y": 282.0
    },
    {
      "x": 414.0,
      "y": 282.0
    },
    {
      "x": 419.0,
      "y": 276.0
    }
  ],
  [
    {
      "x": 145.0,
      "y": 170.0
    },
    {
      "x": 149.0,
      "y": 166.0
    },
    {
      "x": 186.0,
      "y": 151.0
    },
    {
      "x": 227.0,
      "y": 130.0
    },
    {
      "x": 245.0,
      "y": 117.0
    },
    {
      "x": 265.0,
      "y": 107.0
    },
    {
      "x": 280.0,
      "y": 95.0
    },
    {
      "x": 380.0,
      "y": 115.0
    },
    {
      "x": 535.0,
      "y": 116.0
    },
    {
      "x": 519.0,
      "y": 137.0
    },
    {
      "x": 486.0,
      "y": 153.0
    },
    {
      "x": 437.0,
      "y": 162.0
    },
    {
      "x": 431.0,
      "y": 165.0
    },
    {
      "x": 413.0,
      "y": 184.0
    },
    {
      "x": 419.0,
      "y": 257.0
    },
    {
      "x": 416.0,
      "y": 282.0
    },
    {
      "x": 414.0,
      "y": 282.0
    },
    {
      "x": 419.0,
      "y": 276.0
    }
  ],
  [
    {
      "x": 145.0,
      "y": 170.0
    },
    {
      "x": 149.0,
      "y": 166.0
    },
    {
      "x": 186.0,
      "y": 151.0
    },
    {
      "x": 227.0,
      "y": 130.0
    },
    {
      "x": 245.0,
      "y": 117.0
    },
    {
      "x": 265.0,
      "y": 107.0
    },
    {
      "x": 280.0,
      "y": 95.0
    },
    {
      "x": 380.0,
      "y": 115.0
    },
    {
      "x": 535.0,
      "y": 116.0
    },
    {
      "x": 519.0,
      "y": 137.0
    },
    {
      "x": 486.0,
      "y": 153.0
    },
    {
      "x": 437.0,
      "y": 162.0
    },
    {
      "x": 431.0,
      "y": 165.0
    },
    {
      "x": 413.0,
      "y": 184.0
    },
    {
      "x": 419.0,
      "y": 257.0
    },
    {
      "x": 416.0,
      "y": 282.0
    },
    {
      "x": 414.0,
      "y": 282.0
    },
    {
      "x": 419.0,
      "y": 276.0
    }
  ],
  [
    {
      "x": 145.0,
      "y": 170.0
    },
    {
      "x": 149.0,
      "y": 166.0
    },
    {
      "x": 186.0,
      "y": 151.0
    },
    {
      "x": 227.0,
      "y": 130.0
    },
    {
      "x": 245.0,
      "y": 117.0
    },
    {
      "x": 265.0,
      "y": 107.0
    },
    {
      "x": 280.0,
      "y": 95.0
    },
    {
      "x": 380.0,
      "y": 115.0
    },
    {
      "x": 535.0,
      "y": 116.0
    },
    {
      "x": 519.0,
      "y": 137.0
    },
    {
      "x": 486.0,
      "y": 153.0
    },
    {
      "x": 437.0,
      "y": 162.0
    },
    {
      "x": 431.0,
      "y": 165.0
    },
    {
      "x": 413.0,
      "y": 184.0
    },
    {
      "x": 419.0,
      "y": 257.0
    },
    {
      "x": 416.0,
      "y": 282.0
    },
    {
      "x": 414.0,
      "y": 282.0
    },
    {
      "x": 419.0,
      "y": 276.0
    }
  ],
  [
    {
      "x": 539.0,
      "y": 121.0
    },
    {
      "x": 536.0,
      "y": 178.0
    },
    {
      "x": 544.0,
      "y": 195.0
    },
    {
      "x": 544.0,
      "y": 202.0
    },
    {
      "x": 543.0,
      "y": 205.0
    },
    {
      "x": 538.0,
      "y": 206.0
    }
  ],
  [
    {
      "x": 539.0,
      "y": 121.0
    },
    {
      "x": 536.0,
      "y": 178.0
    },
    {
      "x": 544.0,
      "y": 195.0
    },
    {
      "x": 544.0,
      "y": 202.0
    },
    {
      "x": 543.0,
      "y": 205.0
    },
    {
      "x": 538.0,
      "y": 206.0
    }
  ],
  [
    {
      "x": 539.0,
      "y": 121.0
    },
    {
      "x": 536.0,
      "y": 178.0
    },
    {
      "x": 544.0,
      "y": 195.0
    },
    {
      "x": 544.0,
      "y": 202.0
    },
    {
      "x": 543.0,
      "y": 205.0
    },
    {
      "x": 538.0,
      "y": 206.0
    }
  ],
  [
    {
      "x": 539.0,
      "y": 121.0
    },
    {
      "x": 536.0,
      "y": 178.0
    },
    {
      "x": 544.0,
      "y": 195.0
    },
    {
      "x": 544.0,
      "y": 202.0
    },
    {
      "x": 543.0,
      "y": 205.0
    },
    {
      "x": 538.0,
      "y": 206.0
    }
  ],
  [
    {
      "x": 539.0,
      "y": 121.0
    },
    {
      "x": 536.0,
      "y": 178.0
    },
    {
      "x": 544.0,
      "y": 195.0
    },
    {
      "x": 544.0,
      "y": 202.0
    },
    {
      "x": 543.0,
      "y": 205.0
    },
    {
      "x": 538.0,
      "y": 206.0
    }
  ],
  [
    {
      "x": 539.0,
      "y": 121.0
    },
    {
      "x": 536.0,
      "y": 178.0
    },
    {
      "x": 544.0,
      "y": 195.0
    },
    {
      "x": 544.0,
      "y": 202.0
    },
    {
      "x": 543.0,
      "y": 205.0
    },
    {
      "x": 538.0,
      "y": 206.0
    }
  ],
  [
    {
      "x": 251.0,
      "y": 171.0
    },
    {
      "x": 250.0,
      "y": 221.0
    },
    {
      "x": 247.0,
      "y": 226.0
    },
    {
      "x": 246.0,
      "y": 241.0
    },
    {
      "x": 251.0,
      "y": 257.0
    },
    {
      "x": 231.0,
      "y": 257.0
    },
    {
      "x": 233.0,
      "y": 244.0
    },
    {
      "x": 229.0,
      "y": 218.0
    },
    {
      "x": 232.0,
      "y": 198.0
    },
    {
      "x": 240.0,
      "y": 176.0
    }
  ],
  [
    {
      "x": 251.0,
      "y": 171.0
    },
    {
      "x": 250.0,
      "y": 221.0
    },
    {
      "x": 247.0,
      "y": 226.0
    },
    {
      "x": 246.0,
      "y": 241.0
    },
    {
      "x": 251.0,
      "y": 257.0
    },
    {
      "x": 231.0,
      "y": 257.0
    },
    {
      "x": 233.0,
      "y": 244.0
    },
    {
      "x": 229.0,
      "y": 218.0
    },
    {
      "x": 232.0,
      "y": 198.0
    },
    {
      "x": 240.0,
      "y": 176.0
    }
  ],
  [
    {
      "x": 251.0,
      "y": 171.0
    },
    {
      "x": 250.0,
      "y": 221.0
    },
    {
      "x": 247.0,
      "y": 226.0
    },
    {
      "x": 246.0,
      "y": 241.0
    },
    {
      "x": 251.0,
      "y": 257.0
    },
    {
      "x": 231.0,
      "y": 257.0
    },
    {
      "x": 233.0,
      "y": 244.0
    },
    {
      "x": 229.0,
      "y": 218.0
    },
    {
      "x": 232.0,
      "y": 198.0
    },
    {
      "x": 240.0,
      "y": 176.0
    }
  ],
  [
    {
      "x": 251.0,
      "y": 171.0
    },
    {
      "x": 250.0,
      "y": 221.0
    },
    {
      "x": 247.0,
      "y": 226.0
    },
    {
      "x": 246.0,
      "y": 241.0
    },
    {
      "x": 251.0,
      "y": 257.0
    },
    {
      "x": 231.0,
      "y": 257.0
    },
    {
      "x": 233.0,
      "y": 244.0
    },
    {
      "x": 229.0,
      "y": 218.0
    },
    {
      "x": 232.0,
      "y": 198.0
    },
    {
      "x": 240.0,
      "y": 176.0
    }
  ],
  [
    {
      "x": 251.0,
      "y": 171.0
    },
    {
      "x": 250.0,
      "y": 221.0
    },
    {
      "x": 247.0,
      "y": 226.0
    },
    {
      "x": 246.0,
      "y": 241.0
    },
    {
      "x": 251.0,
      "y": 257.0
    },
    {
      "x": 231.0,
      "y": 257.0
    },
    {
      "x": 233.0,
      "y": 244.0
    },
    {
      "x": 229.0,
      "y": 218.0
    },
    {
      "x": 232.0,
      "y": 198.0
    },
    {
      "x": 240.0,
      "y": 176.0
    }
  ],
  [
    {
      "x": 251.0,
      "y": 171.0
    },
    {
      "x": 250.0,
      "y": 221.0
    },
    {
      "x": 247.0,
      "y": 226.0
    },
    {
      "x": 246.0,
      "y": 241.0
    },
    {
      "x": 251.0,
      "y": 257.0
    },
    {
      "x": 231.0,
      "y": 257.0
    },
    {
      "x": 233.0,
      "y": 244.0
    },
    {
      "x": 229.0,
      "y": 218.0
    },
    {
      "x": 232.0,
      "y": 198.0
    },
    {
      "x": 240.0,
      "y": 176.0
    }
  ],
  [
    {
      "x": 251.0,
      "y": 171.0
    },
    {
      "x": 250.0,
      "y": 221.0
    },
    {
      "x": 247.0,
      "y": 226.0
    },
    {
      "x": 246.0,
      "y": 241.0
    },
    {
      "x": 251.0,
      "y": 257.0
    },
    {
      "x": 231.0,
      "y": 257.0
    },
    {
      "x": 233.0,
      "y": 244.0
    },
    {
      "x": 229.0,
      "y": 218.0
    },
    {
      "x": 232.0,
      "y": 198.0
    },
    {
      "x": 240.0,
      "y": 176.0
    }
  ],
  [
    {
      "x": 251.0,
      "y": 171.0
    },
    {
      "x": 250.0,
      "y": 221.0
    },
    {
      "x": 247.0,
      "y": 226.0
    },
    {
      "x": 246.0,
      "y": 241.0
    },
    {
      "x": 251.0,
      "y": 257.0
    },
    {
      "x": 231.0,
      "y": 257.0
    },
    {
      "x": 233.0,
      "y": 244.0
    },
    {
      "x": 229.0,
      "y": 218.0
    },
    {
      "x": 232.0,
      "y": 198.0
    },
    {
      "x": 240.0,
      "y": 176.0
    }
  ],
  [
    {
      "x": 251.0,
      "y": 171.0
    },
    {
      "x": 250.0,
      "y": 221.0
    },
    {
      "x": 247.0,
      "y": 226.0
    },
    {
      "x": 246.0,
      "y": 241.0
    },
    {
      "x": 251.0,
      "y": 257.0
    },
    {
      "x": 231.0,
      "y": 257.0
    },
    {
      "x": 233.0,
      "y": 244.0
    },
    {
      "x": 229.0,
      "y": 218.0
    },
    {
      "x": 232.0,
      "y": 198.0
    },
    {
      "x": 240.0,
      "y": 176.0
    }
  ],
  [
    {
      "x": 251.0,
      "y": 171.0
    },
    {
      "x": 250.0,
      "y": 221.0
    },
    {
      "x": 247.0,
      "y": 226.0
    },
    {
      "x": 246.0,
      "y": 241.0
    },
    {
      "x": 251.0,
      "y": 257.0
    },
    {
      "x": 231.0,
      "y": 257.0
    },
    {
      "x": 233.0,
      "y": 244.0
    },
    {
      "x": 229.0,
      "y": 218.0
    },
    {
      "x": 232.0,
      "y": 198.0
    },
    {
      "x": 240.0,
      "y": 176.0
    }
  ],
  [
    {
      "x": 110.0,
      "y": 296.0
    },
    {
      "x": 134.0,
      "y": 289.0
    },
    {
      "x": 135.0,
      "y": 268.0
    },
    {
      "x": 141.0,
      "y": 243.0
    },
    {
      "x": 149.0,
      "y": 227.0
    },
    {
      "x": 157.0,
      "y": 193.0
    },
    {
      "x": 168.0,
      "y": 168.0
    }
  ],
  [
    {
      "x": 110.0,
      "y": 296.0
    },
    {
      "x": 134.0,
      "y": 289.0
    },
    {
      "x": 135.0,
      "y": 268.0
    },
    {
      "x": 141.0,
      "y": 243.0
    },
    {
      "x": 149.0,
      "y": 227.0
    },
    {
      "x": 157.0,
      "y": 193.0
    },
    {
      "x": 168.0,
      "y": 168.0
    }
  ],
  [
    {
      "x": 110.0,
      "y": 296.0
    },
    {
      "x": 134.0,
      "y": 289.0
    },
    {
      "x": 135.0,
      "y": 268.0
    },
    {
      "x": 141.0,
      "y": 243.0
    },
    {
      "x": 149.0,
      "y": 227.0
    },
    {
      "x": 157.0,
      "y": 193.0
    },
    {
      "x": 168.0,
      "y": 168.0
    }
  ],
  [
    {
      "x": 110.0,
      "y": 296.0
    },
    {
      "x": 134.0,
      "y": 289.0
    },
    {
      "x": 135.0,
      "y": 268.0
    },
    {
      "x": 141.0,
      "y": 243.0
    },
    {
      "x": 149.0,
      "y": 227.0
    },
    {
      "x": 157.0,
      "y": 193.0
    },
    {
      "x": 168.0,
      "y": 168.0
    }
  ],
  [
    {
      "x": 110.0,
      "y": 296.0
    },
    {
      "x": 134.0,
      "y": 289.0
    },
    {
      "x": 135.0,
      "y": 268.0
    },
    {
      "x": 141.0,
      "y": 243.0
    },
    {
      "x": 149.0,
      "y": 227.0
    },
    {
      "x": 157.0,
      "y": 193.0
    },
    {
      "x": 168.0,
      "y": 168.0
    }
  ],
  [
    {
      "x": 110.0,
      "y": 296.0
    },
    {
      "x": 134.0,
      "y": 289.0
    },
    {
      "x": 135.0,
      "y": 268.0
    },
    {
      "x": 141.0,
      "y": 243.0
    },
    {
      "x": 149.0,
      "y": 227.0
    },
    {
      "x": 157.0,
      "y": 193.0
    },
    {
      "x": 168.0,
      "y": 168.0
    }
  ],
  [
    {
      "x": 110.0,
      "y": 296.0
    },
    {
      "x": 134.0,
      "y": 289.0
    },
    {
      "x": 135.0,
      "y": 268.0
    },
    {
      "x": 141.0,
      "y": 243.0
    },
    {
      "x": 149.0,
      "y": 227.0
    },
    {
      "x": 157.0,
      "y": 193.0
    },
    {
      "x": 168.0,
      "y": 168.0
    }
  ],
  [
    {
      "x": 394.0,
      "y": 186.0
    },
    {
      "x": 398.0,
      "y": 202.0
    },
    {
      "x": 398.0,
      "y": 224.0
    },
    {
      "x": 395.0,
      "y": 230.0
    },
    {
      "x": 394.0,
      "y": 300.0
    },
    {
      "x": 398.0,
      "y": 295.0
    },
    {
      "x": 410.0,
      "y": 291.0
    },
    {
      "x": 420.0,
      "y": 281.0
    }
  ],
  [
    {
      "x": 394.0,
      "y": 186.0
    },
    {
      "x": 398.0,
      "y": 202.0
    },
    {
      "x": 398.0,
      "y": 224.0
    },
    {
      "x": 395.0,
      "y": 230.0
    },
    {
      "x": 394.0,
      "y": 300.0
    },
    {
      "x": 398.0,
      "y": 295.0
    },
    {
      "x": 410.0,
      "y": 291.0
    },
    {
      "x": 420.0,
      "y": 281.0
    }
  ],
  [
    {
      "x": 394.0,
      "y": 186.0
    },
    {
      "x": 398.0,
      "y": 202.0
    },
    {
      "x": 398.0,
      "y": 224.0
    },
    {
      "x": 395.0,
      "y": 230.0
    },
    {
      "x": 394.0,
      "y": 300.0
    },
    {
      "x": 398.0,
      "y": 295.0
    },
    {
      "x": 410.0,
      "y": 291.0
    },
    {
      "x": 420.0,
      "y": 281.0
    }
  ],
  [
    {
      "x": 394.0,
      "y": 186.0
    },
    {
      "x": 398.0,
      "y": 202.0
    },
    {
      "x": 398.0,
      "y": 224.0
    },
    {
      "x": 395.0,
      "y": 230.0
    },
    {
      "x": 394.0,
      "y": 300.0
    },
    {
      "x": 398.0,
      "y": 295.0
    },
    {
      "x": 410.0,
      "y": 291.0
    },
    {
      "x": 420.0,
      "y": 281.0
    }
  ],
  [
    {
      "x": 394.0,
      "y": 186.0
    },
    {
      "x": 398.0,
      "y": 202.0
    },
    {
      "x": 398.0,
      "y": 224.0
    },
    {
      "x": 395.0,
      "y": 230.0
    },
    {
      "x": 394.0,
      "y": 300.0
    },
    {
      "x": 398.0,
      "y": 295.0
    },
    {
      "x": 410.0,
      "y": 291.0
    },
    {
      "x": 420.0,
      "y": 281.0
    }
  ],
  [
    {
      "x": 394.0,
      "y": 186.0
    },
    {
      "x": 398.0,
      "y": 202.0
    },
    {
      "x": 398.0,
      "y": 224.0
    },
    {
      "x": 395.0,
      "y": 230.0
    },
    {
      "x": 394.0,
      "y": 300.0
    },
    {
      "x": 398.0,
      "y": 295.0
    },
    {
      "x": 410.0,
      "y": 291.0
    },
    {
      "x": 420.0,
      "y": 281.0
    }
  ],
  [
    {
      "x": 394.0,
      "y": 186.0
    },
    {
      "x": 398.0,
      "y": 202.0
    },
    {
      "x": 398.0,
      "y": 224.0
    },
    {
      "x": 395.0,
      "y": 230.0
    },
    {
      "x": 394.0,
      "y": 300.0
    },
    {
      "x": 398.0,
      "y": 295.0
    },
    {
      "x": 410.0,
      "y": 291.0
    },
    {
      "x": 420.0,
      "y": 281.0
    }
  ],
  [
    {
      "x": 394.0,
      "y": 186.0
    },
    {
      "x": 398.0,
      "y": 202.0
    },
    {
      "x": 398.0,
      "y": 224.0
    },
    {
      "x": 395.0,
      "y": 230.0
    },
    {
      "x": 394.0,
      "y": 300.0
    },
    {
      "x": 398.0,
      "y": 295.0
    },
    {
      "x": 410.0,
      "y": 291.0
    },
    {
      "x": 420.0,
      "y": 281.0
    }
  ],
  [
    {
      "x": 515.0,
      "y": 140.0
    },
    {
      "x": 519.0,
      "y": 140.0
    },
    {
      "x": 530.0,
      "y": 172.0
    },
    {
      "x": 536.0,
      "y": 182.0
    },
    {
      "x": 537.0,
      "y": 205.0
    },
    {
      "x": 540.0,
      "y": 204.0
    }
  ],
  [
    {
      "x": 515.0,
      "y": 140.0
    },
    {
      "x": 519.0,
      "y": 140.0
    },
    {
      "x": 530.0,
      "y": 172.0
    },
    {
      "x": 536.0,
      "y": 182.0
    },
    {
      "x": 537.0,
      "y": 205.0
    },
    {
      "x": 540.0,
      "y": 204.0
    }
  ],
  [
    {
      "x": 515.0,
      "y": 140.0
    },
    {
      "x": 519.0,
      "y": 140.0
    },
    {
      "x": 530.0,
      "y": 172.0
    },
    {
      "x": 536.0,
      "y": 182.0
    },
    {
      "x": 537.0,
      "y": 205.0
    },
    {
      "x": 540.0,
      "y": 204.0
    }
  ],
  [
    {
      "x": 515.0,
      "y": 140.0
    },
    {
      "x": 519.0,
      "y": 140.0
    },
    {
      "x": 530.0,
      "y": 172.0
    },
    {
      "x": 536.0,
      "y": 182.0
    },
    {
      "x": 537.0,
      "y": 205.0
    },
    {
      "x": 540.0,
      "y": 204.0
    }
  ],
  [
    {
      "x": 515.0,
      "y": 140.0
    },
    {
      "x": 519.0,
      "y": 140.0
    },
    {
      "x": 530.0,
      "y": 172.0
    },
    {
      "x": 536.0,
      "y": 182.0
    },
    {
      "x": 537.0,
      "y": 205.0
    },
    {
      "x": 540.0,
      "y": 204.0
    }
  ],
  [
    {
      "x": 515.0,
      "y": 140.0
    },
    {
      "x": 519.0,
      "y": 140.0
    },
    {
      "x": 530.0,
      "y": 172.0
    },
    {
      "x": 536.0,
      "y": 182.0
    },
    {
      "x": 537.0,
      "y": 205.0
    },
    {
      "x": 540.0,
      "y": 204.0
    }
  ]
]
