[
  [
    {
      "x": 128.0,
      "y": 121.0
    },
    {
      "x": 116.0,
      "y": 200.0
    },
    {
      "x": 95.0,
      "y": 259.0
    },
    {
      "x": 81.0,
      "y": 290.0
    }
  ],
  [
    {
      "x": 128.0,
      "y": 121.0
    },
    {
      "x": 116.0,
      "y": 200.0
    },
    {
      "x": 95.0,
      "y": 259.0
    },
    {
      "x": 81.0,
      "y": 290.0
    }
  ],
  [
    {
      "x": 128.0,
      "y": 121.0
    },
    {
      "x": 116.0,
      "y": 200.0
    },
    {
      "x": 95.0,
      "y": 259.0
    },
    {
      "x": 81.0,
      "y": 290.0
    }
  ],
  [
    {
      "x": 128.0,
      "y": 121.0
    },
    {
      "x": 116.0,
      "y": 200.0
    },
    {
      "x": 95.0,
      "y": 259.0
    },
    {
      "x": 81.0,
      "y": 290.0
    }
  ],
  [
    {
      "x": 129.0,
      "y": 121.0
    },
    {
      "x": 258.0,
      "y": 144.0
    },
    {
      "x": 276.0,
      "y": 144.0
    },
    {
      "x": 425.0,
      "y": 168.0
    },
    {
      "x": 424.0,
      "y": 183.0
    },
    {
      "x": 380.0,
      "y": 297.0
    },
    {
      "x": 360.0,
      "y": 325.0
    },
    {
      "x": 350.0,
      "y": 347.0
    }
  ],
  [
    {
      "x": 129.0,
      "y": 121.0
    },
    {
      "x": 258.0,
      "y": 144.0
    },
    {
      "x": 276.0,
      "y": 144.0
    },
    {
      "x": 425.0,
      "y": 168.0
    },
    {
      "x": 424.0,
      "y": 183.0
    },
    {
      "x": 380.0,
      "y": 297.0
    },
    {
      "x": 360.0,
      "y": 325.0
    },
    {
      "x": 350.0,
      "y": 347.0
    }
  ],
  [
    {
      "x": 129.0,
      "y": 121.0
    },
    {
      "x": 258.0,
      "y": 144.0
    },
    {
      "x": 276.0,
      "y": 144.0
    },
    {
      "x": 425.0,
      "y": 168.0
    },
    {
      "x": 424.0,
      "y": 183.0
    },
    {
      "x": 380.0,
      "y": 297.0
    },
    {
      "x": 360.0,
      "y": 325.0
    },
    {
      "x": 350.0,
      "y": 347.0
    }
  ],
  [
    {
      "x": 129.0,
      "y": 121.0
    },
    {
      "x": 258.0,
      "y": 144.0
    },
    {
      "x": 276.0,
      "y": 144.0
    },
    {
      "x": 425.0,
      "y": 168.0
    },
    {
      "x": 424.0,
      "y": 183.0
    },
    {
      "x": 380.0,
      "y": 297.0
    },
    {
      "x": 360.0,
      "y": 325.0
    },
    {
      "x": 350.0,
      "y": 347.0
    }
  ],
  [
    {
      "x": 129.0,
      "y": 121.0
    },
    {
      "x": 258.0,
      "y": 144.0
    },
    {
      "x": 276.0,
      "y": 144.0
    },
    {
      "x": 425.0,
      "y": 168.0
    },
    {
      "x": 424.0,
      "y": 183.0
    },
    {
      "x": 380.0,
      "y": 297.0
    },
    {
      "x": 360.0,
      "y": 325.0
    },
    {
      "x": 350.0,
      "y": 347.0
    }
  ],
  [
    {
      "x": 129.0,
      "y": 121.0
    },
    {
      "x": 258.0,
      "y": 144.0
    },
    {
      "x": 276.0,
      "y": 144.0
    },
    {
      "x": 425.0,
      "y": 168.0
    },
    {
      "x": 424.0,
      "y": 183.0
    },
    {
      "x": 380.0,
      "y": 297.0
    },
    {
      "x": 360.0,
      "y": 325.0
    },
    {
      "x": 350.0,
      "y": 347.0
    }
  ],
  [
    {
      "x": 129.0,
      "y": 121.0
    },
    {
      "x": 258.0,
      "y": 144.0
    },
    {
      "x": 276.0,
      "y": 144.0
    },
    {
      "x": 425.0,
      "y": 168.0
    },
    {
      "x": 424.0,
      "y": 183.0
    },
    {
      "x": 380.0,
      "y": 297.0
    },
    {
      "x": 360.0,
      "y": 325.0
    },
    {
      "x": 350.0,
      "y": 347.0
    }
  ],
  [
    {
      "x": 129.0,
      "y": 121.0
    },
    {
      "x": 258.0,
      "y": 144.0
    },
    {
      "x": 276.0,
      "y": 144.0
    },
    {
      "x": 425.0,
      "y": 168.0
    },
    {
      "x": 424.0,
      "y": 183.0
    },
    {
      "x": 380.0,
      "y": 297.0
    },
    {
      "x": 360.0,
      "y": 325.0
    },
    {
      "x": 350.0,
      "y": 347.0
    }
  ],
  [
    {
      "x": 81.0,
      "y": 290.0
    },
    {
      "x": 137.0,
      "y": 309.0
    },
    {
      "x": 215.0,
      "y": 321.0
    },
    {
      "x": 243.0,
      "y": 330.0
    },
    {
      "x": 355.0,
      "y": 350.0
    }
  ],
  [
    {
      "x": 81.0,
      "y": 290.0
    },
    {
      "x": 137.0,
      "y": 309.0
    },
    {
      "x": 215.0,
      "y": 321.0
    },
    {
      "x": 243.0,
      "y": 330.0
    },
    {
      "x": 355.0,
      "y": 350.0
    }
  ],
  [
    {
      "x": 81.0,
      "y": 290.0
    },
    {
      "x": 137.0,
      "y": 309.0
    },
    {
      "x": 215.0,
      "y": 321.0
    },
    {
      "x": 243.0,
      "y": 330.0
    },
    {
      "x": 355.0,
      "y": 350.0
    }
  ],
  [
    {
      "x": 81.0,
      "y": 290.0
    },
    {
      "x": 137.0,
      "y": 309.0
    },
    {
      "x": 215.0,
      "y": 321.0
    },
    {
      "x": 243.0,
      "y": 330.0
    },
    {
      "x": 355.0,
      "y": 350.0
    }
  ],
  [
    {
      "x": 81.0,
      "y": 290.0
    },
    {
      "x": 137.0,
      "y": 309.0
    },
    {
      "x": 215.0,
      "y": 321.0
    },
    {
      "x": 243.0,
      "y": 330.0
    },
    {
      "x": 355.0,
      "y": 350.0
    }
  ],
  [
    {
      "x": 426.0,
      "y": 174.0
    },
    {
      "x": 429.0,
      "y": 174.0
    },
    {
      "x": 437.0,
      "y": 184.0
    },
    {
      "x": 449.0,
      "y": 213.0
    },
    {
      "x": 471.0,
      "y": 336.0
    }
  ],
  [
    {
      "x": 426.0,
      "y": 174.0
    },
    {
      "x": 429.0,
      "y": 174.0
    },
    {
      "x": 437.0,
      "y": 184.0
    },
    {
      "x": 449.0,
      "y": 213.0
    },
    {
      "x": 471.0,
      "y": 336.0
    }
  ],
  [
    {
      "x": 426.0,
      "y": 174.0
    },
    {
      "x": 429.0,
      "y": 174.0
    },
    {
      "x": 437.0,
      "y": 184.0
    },
    {
      "x": 449.0,
      "y": 213.0
    },
    {
      "x": 471.0,
      "y": 336.0
    }
  ],
  [
    {
      "x": 426.0,
      "y": 174.0
    },
    {
      "x": 429.0,
      "y": 174.0
    },
    {
      "x": 437.0,
      "y": 184.0
    },
    {
      "x": 449.0,
      "y": 213.0
    },
    {
      "x": 471.0,
      "y": 336.0
    }
  ],
  [
    {
      "x": 426.0,
      "y": 174.0
    },
    {
      "x": 429.0,
      "y": 174.0
    },
    {
      "x": 437.0,
      "y": 184.0
    },
    {
      "x": 449.0,
      "y": 213.0
    },
    {
      "x": 471.0,
      "y": 336.0
    }
  ],
  [
    {
      "x": 353.0,
      "y": 349.0
    },
    {
      "x": 351.0,
      "y": 349.0
    },
    {
      "x": 351.0,
      "y": 365.0
    },
    {
      "x": 364.0,
      "y": 404.0
    },
    {
      "x": 371.0,
      "y": 438.0
    }
  ],
  [
    {
      "x": 353.0,
      "y": 349.0
    },
    {
      "x": 351.0,
      "y": 349.0
    },
    {
      "x": 351.0,
      "y": 365.0
    },
    {
      "x": 364.0,
      "y": 404.0
    },
    {
      "x": 371.0,
      "y": 438.0
    }
  ],
  [
    {
      "x": 353.0,
      "y": 349.0
    },
    {
      "x": 351.0,
      "y": 349.0
    },
    {
      "x": 351.0,
      "y": 365.0
    },
    {
      "x": 364.0,
      "y": 404.0
    },
    {
      "x": 371.0,
      "y": 438.0
    }
  ],
  [
    {
      "x": 353.0,
      "y": 349.0
    },
    {
      "x": 351.0,
      "y": 349.0
    },
    {
      "x": 351.0,
      "y": 365.0
    },
    {
      "x": 364.0,
      "y": 404.0
    },
    {
      "x": 371.0,
      "y": 438.0
    }
  ],
  [
    {
      "x": 353.0,
      "y": 349.0
    },
    {
      "x": 351.0,
      "y": 349.0
    },
    {
      "x": 351.0,
      "y": 365.0
    },
    {
      "x": 364.0,
      "y": 404.0
    },
    {
      "x": 371.0,
      "y": 438.0
    }
  ],
  [
    {
      "x": 85.0,
      "y": 289.0
    },
    {
      "x": 83.0,
      "y": 314.0
    },
    {
      "x": 87.0,
      "y": 297.0
    },
    {
      "x": 87.0,
      "y": 291.0
    },
    {
      "x": 85.0,
      "y": 291.0
    },
    {
      "x": 84.0,
      "y": 308.0
    },
    {
      "x": 84.0,
      "y": 395.0
    }
  ],
  [
    {
      "x": 85.0,
      "y": 289.0
    },
    {
      "x": 83.0,
      "y": 314.0
    },
    {
      "x": 87.0,
      "y": 297.0
    },
    {
      "x": 87.0,
      "y": 291.0
    },
    {
      "x": 85.0,
      "y": 291.0
    },
    {
      "x": 84.0,
      "y": 308.0
    },
    {
      "x": 84.0,
      "y": 395.0
    }
  ],
  [
    {
      "x": 85.0,
      "y": 289.0
    },
    {
      "x": 83.0,
      "y": 314.0
    },
    {
      "x": 87.0,
      "y": 297.0
    },
    {
      "x": 87.0,
      "y": 291.0
    },
    {
      "x": 85.0,
      "y": 291.0
    },
    {
      "x": 84.0,
      "y": 308.0
    },
    {
      "x": 84.0,
      "y": 395.0
    }
  ],
  [
    {
      "x": 85.0,
      "y": 289.0
    },
    {
      "x": 83.0,
      "y": 314.0
    },
    {
      "x": 87.0,
      "y": 297.0
    },
    {
      "x": 87.0,
      "y": 291.0
    },
    {
      "x": 85.0,
      "y": 291.0
    },
    {
      "x": 84.0,
      "y": 308.0
    },
    {
      "x": 84.0,
      "y": 395.0
    }
  ],
  [
    {
      "x": 85.0,
      "y": 289.0
    },
    {
      "x": 83.0,
      "y": 314.0
    },
    {
      "x": 87.0,
      "y": 297.0
    },
    {
      "x": 87.0,
      "y": 291.0
    },
    {
      "x": 85.0,
      "y": 291.0
    },
    {
      "x": 84.0,
      "y": 308.0
    },
    {
      "x": 84.0,
      "y": 395.0
    }
  ],
  [
    {
      "x": 85.0,
      "y": 289.0
    },
    {
      "x": 83.0,
      "y": 314.0
    },
    {
      "x": 87.0,
      "y": 297.0
    },
    {
      "x": 87.0,
      "y": 291.0
    },
    {
      "x": 85.0,
      "y": 291.0
    },
    {
      "x": 84.0,
      "y": 308.0
    },
    {
      "x": 84.0,
      "y": 395.0
    }
  ],
  [
    {
      "x": 85.0,
      "y": 289.0
    },
    {
      "x": 83.0,
      "y": 314.0
    },
    {
      "x": 87.0,
      "y": 297.0
    },
    {
      "x": 87.0,
      "y": 291.0
    },
    {
      "x": 85.0,
      "y": 291.0
    },
    {
      "x": 84.0,
      "y": 308.0
    },
    {
      "x": 84.0,
      "y": 395.0
    }
  ],
  [
    {
      "x": 147.0,
      "y": 141.0
    },
    {
      "x": 155.0,
      "y": 146.0
    },
    {
      "x": 228.0,
      "y": 171.0
    },
    {
      "x": 263.0,
      "y": 177.0
    },
    {
      "x": 280.0,
      "y": 177.0
    },
    {
      "x": 329.0,
      "y": 190.0
    },
    {
      "x": 392.0,
      "y": 199.0
    },
    {
      "x": 392.0,
      "y": 203.0
    },
    {
      "x": 372.0,
      "y": 227.0
    },
    {
      "x": 362.0,
      "y": 244.0
    },
    {
      "x": 347.0,
      "y": 275.0
    },
    {
      "x": 332.0,
      "y": 317.0
    },
    {
      "x": 326.0,
      "y": 318.0
    },
    {
      "x": 301.0,
      "y": 312.0
    },
    {
      "x": 273.0,
      "y": 301.0
    },
    {
      "x": 245.0,
      "y": 297.0
    },
    {
      "x": 198.0,
      "y": 277.0
    },
    {
      "x": 119.0,
      "y": 263.0
    },
    {
      "x": 120.0,
      "y": 252.0
    },
    {
      "x": 143.0,
      "y": 220.0
    },
    {
      "x": 154.0,
      "y": 193.0
    },
    {
      "x": 164.0,
      "y": 162.0
    },
    {
      "x": 166.0,
      "y": 145.0
    }
  ],
  [
    {
      "x": 147.0,
      "y": 141.0
    },
    {
      "x": 155.0,
      "y": 146.0
    },
    {
      "x": 228.0,
      "y": 171.0
    },
    {
      "x": 263.0,
      "y": 177.0
    },
    {
      "x": 280.0,
      "y": 177.0
    },
    {
      "x": 329.0,
      "y": 190.0
    },
    {
      "x": 392.0,
      "y": 199.0
    },
    {
      "x": 392.0,
      "y": 203.0
    },
    {
      "x": 372.0,
      "y": 227.0
    },
    {
      "x": 362.0,
      "y": 244.0
    },
    {
      "x": 347.0,
      "y": 275.0
    },
    {
      "x": 332.0,
      "y": 317.0
    },
    {
      "x": 326.0,
      "y": 318.0
    },
    {
      "x": 301.0,
      "y": 312.0
    },
    {
      "x": 273.0,
      "y": 301.0
    },
    {
      "x": 245.0,
      "y": 297.0
    },
    {
      "x": 198.0,
      "y": 277.0
    },
    {
      "x": 119.0,
      "y": 263.0
    },
    {
      "x": 120.0,
      "y": 252.0
    },
    {
      "x": 143.0,
      "y": 220.0
    },
    {
      "x": 154.0,
      "y": 193.0
    },
    {
      "x": 164.0,
      "y": 162.0
    },
    {
      "x": 166.0,
      "y": 145.0
    }
  ],
  [
    {
      "x": 147.0,
      "y": 141.0
    },
    {
      "x": 155.0,
      "y": 146.0
    },
    {
      "x": 228.0,
      "y": 171.0
    },
    {
      "x": 263.0,
      "y": 177.0
    },
    {
      "x": 280.0,
      "y": 177.0
    },
    {
      "x": 329.0,
      "y": 190.0
    },
    {
      "x": 392.0,
      "y": 199.0
    },
    {
      "x": 392.0,
      "y": 203.0
    },
    {
      "x": 372.0,
      "y": 227.0
    },
    {
      "x": 362.0,
      "y": 244.0
    },
    {
      "x": 347.0,
      "y": 275.0
    },
    {
      "x": 332.0,
      "y": 317.0
    },
    {
      "x": 326.0,
      "y": 318.0
    },
    {
      "x": 301.0,
      "y": 312.0
    },
    {
      "x": 273.0,
      "y": 301.0
    },
    {
      "x": 245.0,
      "y": 297.0
    },
    {
      "x": 198.0,
      "y": 277.0
    },
    {
      "x": 119.0,
      "y": 263.0
    },
    {
      "x": 120.0,
      "y": 252.0
    },
    {
      "x": 143.0,
      "y": 220.0
    },
    {
      "x": 154.0,
      "y": 193.0
    },
    {
      "x": 164.0,
      "y": 162.0
    },
    {
      "x": 166.0,
      "y": 145.0
    }
  ],
  [
    {
      "x": 147.0,
      "y": 141.0
    },
    {
      "x": 155.0,
      "y": 146.0
    },
    {
      "x": 228.0,
      "y": 171.0
    },
    {
      "x": 263.0,
      "y": 177.0
    },
    {
      "x": 280.0,
      "y": 177.0
    },
    {
      "x": 329.0,
      "y": 190.0
    },
    {
      "x": 392.0,
      "y": 199.0
    },
    {
      "x": 392.0,
      "y": 203.0
    },
    {
      "x": 372.0,
      "y": 227.0
    },
    {
      "x": 362.0,
      "y": 244.0
    },
    {
      "x": 347.0,
      "y": 275.0
    },
    {
      "x": 332.0,
      "y": 317.0
    },
    {
      "x": 326.0,
      "y": 318.0
    },
    {
      "x": 301.0,
      "y": 312.0
    },
    {
      "x": 273.0,
      "y": 301.0
    },
    {
      "x": 245.0,
      "y": 297.0
    },
    {
      "x": 198.0,
      "y": 277.0
    },
    {
      "x": 119.0,
      "y": 263.0
    },
    {
      "x": 120.0,
      "y": 252.0
    },
    {
      "x": 143.0,
      "y": 220.0
    },
    {
      "x": 154.0,
      "y": 193.0
    },
    {
      "x": 164.0,
      "y": 162.0
    },
    {
      "x": 166.0,
      "y": 145.0
    }
  ],
  [
    {
      "x": 147.0,
      "y": 141.0
    },
    {
      "x": 155.0,
      "y": 146.0
    },
    {
      "x": 228.0,
      "y": 171.0
    },
    {
      "x": 263.0,
      "y": 177.0
    },
    {
      "x": 280.0,
      "y": 177.0
    },
    {
      "x": 329.0,
      "y": 190.0
    },
    {
      "x": 392.0,
      "y": 199.0
    },
    {
      "x": 392.0,
      "y": 203.0
    },
    {
      "x": 372.0,
      "y": 227.0
    },
    {
      "x": 362.0,
      "y": 244.0
    },
    {
      "x": 347.0,
      "y": 275.0
    },
    {
      "x": 332.0,
      "y": 317.0
    },
    {
      "x": 326.0,
      "y": 318.0
    },
    {
      "x": 301.0,
      "y": 312.0
    },
    {
      "x": 273.0,
      "y": 301.0
    },
    {
      "x": 245.0,
      "y": 297.0
    },
    {
      "x": 198.0,
      "y": 277.0
    },
    {
      "x": 119.0,
      "y": 263.0
    },
    {
      "x": 120.0,
      "y": 252.0
    },
    {
      "x": 143.0,
      "y": 220.0
    },
    {
      "x": 154.0,
      "y": 193.0
    },
    {
      "x": 164.0,
      "y": 162.0
    },
    {
      "x": 166.0,
      "y": 145.0
    }
  ],
  [
    {
      "x": 147.0,
      "y": 141.0
    },
    {
      "x": 155.0,
      "y": 146.0
    },
    {
      "x": 228.0,
      "y": 171.0
    },
    {
      "x": 263.0,
      "y": 177.0
    },
    {
      "x": 280.0,
      "y": 177.0
    },
    {
      "x": 329.0,
      "y": 190.0
    },
    {
      "x": 392.0,
      "y": 199.0
    },
    {
      "x": 392.0,
      "y": 203.0
    },
    {
      "x": 372.0,
      "y": 227.0
    },
    {
      "x": 362.0,
      "y": 244.0
    },
    {
      "x": 347.0,
      "y": 275.0
    },
    {
      "x": 332.0,
      "y": 317.0
    },
    {
      "x": 326.0,
      "y": 318.0
    },
    {
      "x": 301.0,
      "y": 312.0
    },
    {
      "x": 273.0,
      "y": 301.0
    },
    {
      "x": 245.0,
      "y": 297.0
    },
    {
      "x": 198.0,
      "y": 277.0
    },
    {
      "x": 119.0,
      "y": 263.0
    },
    {
      "x": 120.0,
      "y": 252.0
    },
    {
      "x": 143.0,
      "y": 220.0
    },
    {
      "x": 154.0,
      "y": 193.0
    },
    {
      "x": 164.0,
      "y": 162.0
    },
    {
      "x": 166.0,
      "y": 145.0
    }
  ],
  [
    {
      "x": 147.0,
      "y": 141.0
    },
    {
      "x": 155.0,
      "y": 146.0
    },
    {
      "x": 228.0,
      "y": 171.0
    },
    {
      "x": 263.0,
      "y": 177.0
    },
    {
      "x": 280.0,
      "y": 177.0
    },
    {
      "x": 329.0,
      "y": 190.0
    },
    {
      "x": 392.0,
      "y": 199.0
    },
    {
      "x": 392.0,
      "y": 203.0
    },
    {
      "x": 372.0,
      "y": 227.0
    },
    {
      "x": 362.0,
      "y": 244.0
    },
    {
      "x": 347.0,
      "y": 275.0
    },
    {
      "x": 332.0,
      "y": 317.0
    },
    {
      "x": 326.0,
      "y": 318.0
    },
    {
      "x": 301.0,
      "y": 312.0
    },
    {
      "x": 273.0,
      "y": 301.0
    },
    {
      "x": 245.0,
      "y": 297.0
    },
    {
      "x": 198.0,
      "y": 277.0
    },
    {
      "x": 119.0,
      "y": 263.0
    },
    {
      "x": 120.0,
      "y": 252.0
    },
    {
      "x": 143.0,
      "y": 220.0
    },
    {
      "x": 154.0,
      "y": 193.0
    },
    {
      "x": 164.0,
      "y": 162.0
    },
    {
      "x": 166.0,
      "y": 145.0
    }
  ],
  [
    {
      "x": 147.0,
      "y": 141.0
    },
    {
      "x": 155.0,
      "y": 146.0
    },
    {
      "x": 228.0,
      "y": 171.0
    },
    {
      "x": 263.0,
      "y": 177.0
    },
    {
      "x": 280.0,
      "y": 177.0
    },
    {
      "x": 329.0,
      "y": 190.0
    },
    {
      "x": 392.0,
      "y": 199.0
    },
    {
      "x": 392.0,
      "y": 203.0
    },
    {
      "x": 372.0,
      "y": 227.0
    },
    {
      "x": 362.0,
      "y": 244.0
    },
    {
      "x": 347.0,
      "y": 275.0
    },
    {
      "x": 332.0,
      "y": 317.0
    },
    {
      "x": 326.0,
      "y": 318.0
    },
    {
      "x": 301.0,
      "y": 312.0
    },
    {
      "x": 273.0,
      "y": 301.0
    },
    {
      "x": 245.0,
      "y": 297.0
    },
    {
      "x": 198.0,
      "y": 277.0
    },
    {
      "x": 119.0,
      "y": 263.0
    },
    {
      "x": 120.0,
      "y": 252.0
    },
    {
      "x": 143.0,
      "y": 220.0
    },
    {
      "x": 154.0,
      "y": 193.0
    },
    {
      "x": 164.0,
      "y": 162.0
    },
    {
      "x": 166.0,
      "y": 145.0
    }
  ],
  [
    {
      "x": 147.0,
      "y": 141.0
    },
    {
      "x": 155.0,
      "y": 146.0
    },
    {
      "x": 228.0,
      "y": 171.0
    },
    {
      "x": 263.0,
      "y": 177.0
    },
    {
      "x": 280.0,
      "y": 177.0
    },
    {
      "x": 329.0,
      "y": 190.0
    },
    {
      "x": 392.0,
      "y": 199.0
    },
    {
      "x": 392.0,
      "y": 203.0
    },
    {
      "x": 372.0,
      "y": 227.0
    },
    {
      "x": 362.0,
      "y": 244.0
    },
    {
      "x": 347.0,
      "y": 275.0
    },
    {
      "x": 332.0,
      "y": 317.0
    },
    {
      "x": 326.0,
      "y": 318.0
    },
    {
      "x": 301.0,
      "y": 312.0
    },
    {
      "x": 273.0,
      "y": 301.0
    },
    {
      "x": 245.0,
      "y": 297.0
    },
    {
      "x": 198.0,
      "y": 277.0
    },
    {
      "x": 119.0,
      "y": 263.0
    },
    {
      "x": 120.0,
      "y": 252.0
    },
    {
      "x": 143.0,
      "y": 220.0
    },
    {
      "x": 154.0,
      "y": 193.0
    },
    {
      "x": 164.0,
      "y": 162.0
    },
    {
      "x": 166.0,
      "y": 145.0
    }
  ],
  [
    {
      "x": 147.0,
      "y": 141.0
    },
    {
      "x": 155.0,
      "y": 146.0
    },
    {
      "x": 228.0,
      "y": 171.0
    },
    {
      "x": 263.0,
      "y": 177.0
    },
    {
      "x": 280.0,
      "y": 177.0
    },
    {
      "x": 329.0,
      "y": 190.0
    },
    {
      "x": 392.0,
      "y": 199.0
    },
    {
      "x": 392.0,
      "y": 203.0
    },
    {
      "x": 372.0,
      "y": 227.0
    },
    {
      "x": 362.0,
      "y": 244.0
    },
    {
      "x": 347.0,
      "y": 275.0
    },
    {
      "x": 332.0,
      "y": 317.0
    },
    {
      "x": 326.0,
      "y": 318.0
    },
    {
      "x": 301.0,
      "y": 312.0
    },
    {
      "x": 273.0,
      "y": 301.0
    },
    {
      "x": 245.0,
      "y": 297.0
    },
    {
      "x": 198.0,
      "y": 277.0
    },
    {
      "x": 119.0,
      "y": 263.0
    },
    {
      "x": 120.0,
      "y": 252.0
    },
    {
      "x": 143.0,
      "y": 220.0
    },
    {
      "x": 154.0,
      "y": 193.0
    },
    {
      "x": 164.0,
      "y": 162.0
    },
    {
      "x": 166.0,
      "y": 145.0
    }
  ],
  [
    {
      "x": 147.0,
      "y": 141.0
    },
    {
      "x": 155.0,
      "y": 146.0
    },
    {
      "x": 228.0,
      "y": 171.0
    },
    {
      "x": 263.0,
      "y": 177.0
    },
    {
      "x": 280.0,
      "y": 177.0
    },
    {
      "x": 329.0,
      "y": 190.0
    },
    {
      "x": 392.0,
      "y": 199.0
    },
    {
      "x": 392.0,
      "y": 203.0
    },
    {
      "x": 372.0,
      "y": 227.0
    },
    {
      "x": 362.0,
      "y": 244.0
    },
    {
      "x": 347.0,
      "y": 275.0
    },
    {
      "x": 332.0,
      "y": 317.0
    },
    {
      "x": 326.0,
      "y": 318.0
    },
    {
      "x": 301.0,
      "y": 312.0
    },
    {
      "x": 273.0,
      "y": 301.0
    },
    {
      "x": 245.0,
      "y": 297.0
    },
    {
      "x": 198.0,
      "y": 277.0
    },
    {
      "x": 119.0,
      "y": 263.0
    },
    {
      "x": 120.0,
      "y": 252.0
    },
    {
      "x": 143.0,
      "y": 220.0
    },
    {
      "x": 154.0,
      "y": 193.0
    },
    {
      "x": 164.0,
      "y": 162.0
    },
    {
      "x": 166.0,
      "y": 145.0
    }
  ],
  [
    {
      "x": 147.0,
      "y": 141.0
    },
    {
      "x": 155.0,
      "y": 146.0
    },
    {
      "x": 228.0,
      "y": 171.0
    },
    {
      "x": 263.0,
      "y": 177.0
    },
    {
      "x": 280.0,
      "y": 177.0
    },
    {
      "x": 329.0,
      "y": 190.0
    },
    {
      "x": 392.0,
      "y": 199.0
    },
    {
      "x": 392.0,
      "y": 203.0
    },
    {
      "x": 372.0,
      "y": 227.0
    },
    {
      "x": 362.0,
      "y": 244.0
    },
    {
      "x": 347.0,
      "y": 275.0
    },
    {
      "x": 332.0,
      "y": 317.0
    },
    {
      "x": 326.0,
      "y": 318.0
    },
    {
      "x": 301.0,
      "y": 312.0
    },
    {
      "x": 273.0,
      "y": 301.0
    },
    {
      "x": 245.0,
      "y": 297.0
    },
    {
      "x": 198.0,
      "y": 277.0
    },
    {
      "x": 119.0,
      "y": 263.0
    },
    {
      "x": 120.0,
      "y": 252.0
    },
    {
      "x": 143.0,
      "y": 220.0
    },
    {
      "x": 154.0,
      "y": 193.0
    },
    {
      "x": 164.0,
      "y": 162.0
    },
    {
      "x": 166.0,
      "y": 145.0
    }
  ],
  [
    {
      "x": 147.0,
      "y": 141.0
    },
    {
      "x": 155.0,
      "y": 146.0
    },
    {
      "x": 228.0,
      "y": 171.0
    },
    {
      "x": 263.0,
      "y": 177.0
    },
    {
      "x": 280.0,
      "y": 177.0
    },
    {
      "x": 329.0,
      "y": 190.0
    },
    {
      "x": 392.0,
      "y": 199.0
    },
    {
      "x": 392.0,
      "y": 203.0
    },
    {
      "x": 372.0,
      "y": 227.0
    },
    {
      "x": 362.0,
      "y": 244.0
    },
    {
      "x": 347.0,
      "y": 275.0
    },
    {
      "x": 332.0,
      "y": 317.0
    },
    {
      "x": 326.0,
      "y": 318.0
    },
    {
      "x": 301.0,
      "y": 312.0
    },
    {
      "x": 273.0,
      "y": 301.0
    },
    {
      "x": 245.0,
      "y": 297.0
    },
    {
      "x": 198.0,
      "y": 277.0
    },
    {
      "x": 119.0,
      "y": 263.0
    },
    {
      "x": 120.0,
      "y": 252.0
    },
    {
      "x": 143.0,
      "y": 220.0
    },
    {
      "x": 154.0,
      "y": 193.0
    },
    {
      "x": 164.0,
      "y": 162.0
    },
    {
      "x": 166.0,
      "y": 145.0
    }
  ],
  [
    {
      "x": 147.0,
      "y": 141.0
    },
    {
      "x": 155.0,
      "y": 146.0
    },
    {
      "x": 228.0,
      "y": 171.0
    },
    {
      "x": 263.0,
      "y": 177.0
    },
    {
      "x": 280.0,
      "y": 177.0
    },
    {
      "x": 329.0,
      "y": 190.0
    },
    {
      "x": 392.0,
      "y": 199.0
    },
    {
      "x": 392.0,
      "y": 203.0
    },
    {
      "x": 372.0,
      "y": 227.0
    },
    {
      "x": 362.0,
      "y": 244.0
    },
    {
      "x": 347.0,
      "y": 275.0
    },
    {
      "x": 332.0,
      "y": 317.0
    },
    {
      "x": 326.0,
      "y": 318.0
    },
    {
      "x": 301.0,
      "y": 312.0
    },
    {
      "x": 273.0,
      "y": 301.0
    },
    {
      "x": 245.0,
      "y": 297.0
    },
    {
      "x": 198.0,
      "y": 277.0
    },
    {
      "x": 119.0,
      "y": 263.0
    },
    {
      "x": 120.0,
      "y": 252.0
    },
    {
      "x": 143.0,
      "y": 220.0
    },
    {
      "x": 154.0,
      "y": 193.0
    },
    {
      "x": 164.0,
      "y": 162.0
    },
    {
      "x": 166.0,
      "y": 145.0
    }
  ],
  [
    {
      "x": 147.0,
      "y": 141.0
    },
    {
      "x": 155.0,
      "y": 146.0
    },
    {
      "x": 228.0,
      "y": 171.0
    },
    {
      "x": 263.0,
      "y": 177.0
    },
    {
      "x": 280.0,
      "y": 177.0
    },
    {
      "x": 329.0,
      "y": 190.0
    },
    {
      "x": 392.0,
      "y": 199.0
    },
    {
      "x": 392.0,
      "y": 203.0
    },
    {
      "x": 372.0,
      "y": 227.0
    },
    {
      "x": 362.0,
      "y": 244.0
    },
    {
      "x": 347.0,
      "y": 275.0
    },
    {
      "x": 332.0,
      "y": 317.0
    },
    {
      "x": 326.0,
      "y": 318.0
    },
    {
      "x": 301.0,
      "y": 312.0
    },
    {
      "x": 273.0,
      "y": 301.0
    },
    {
      "x": 245.0,
      "y": 297.0
    },
    {
      "x": 198.0,
      "y": 277.0
    },
    {
      "x": 119.0,
      "y": 263.0
    },
    {
      "x": 120.0,
      "y": 252.0
    },
    {
      "x": 143.0,
      "y": 220.0
    },
    {
      "x": 154.0,
      "y": 193.0
    },
    {
      "x": 164.0,
      "y": 162.0
    },
    {
      "x": 166.0,
      "y": 145.0
    }
  ],
  [
    {
      "x": 147.0,
      "y": 141.0
    },
    {
      "x": 155.0,
      "y": 146.0
    },
    {
      "x": 228.0,
      "y": 171.0
    },
    {
      "x": 263.0,
      "y": 177.0
    },
    {
      "x": 280.0,
      "y": 177.0
    },
    {
      "x": 329.0,
      "y": 190.0
    },
    {
      "x": 392.0,
      "y": 199.0
    },
    {
      "x": 392.0,
      "y": 203.0
    },
    {
      "x": 372.0,
      "y": 227.0
    },
    {
      "x": 362.0,
      "y": 244.0
    },
    {
      "x": 347.0,
      "y": 275.0
    },
    {
      "x": 332.0,
      "y": 317.0
    },
    {
      "x": 326.0,
      "y": 318.0
    },
    {
      "x": 301.0,
      "y": 312.0
    },
    {
      "x": 273.0,
      "y": 301.0
    },
    {
      "x": 245.0,
      "y": 297.0
    },
    {
      "x": 198.0,
      "y": 277.0
    },
    {
      "x": 119.0,
      "y": 263.0
    },
    {
      "x": 120.0,
      "y": 252.0
    },
    {
      "x": 143.0,
      "y": 220.0
    },
    {
      "x": 154.0,
      "y": 193.0
    },
    {
      "x": 164.0,
      "y": 162.0
    },
    {
      "x": 166.0,
      "y": 145.0
    }
  ],
  [
    {
      "x": 147.0,
      "y": 141.0
    },
    {
      "x": 155.0,
      "y": 146.0
    },
    {
      "x": 228.0,
      "y": 171.0
    },
    {
      "x": 263.0,
      "y": 177.0
    },
    {
      "x": 280.0,
      "y": 177.0
    },
    {
      "x": 329.0,
      "y": 190.0
    },
    {
      "x": 392.0,
      "y": 199.0
    },
    {
      "x": 392.0,
      "y": 203.0
    },
    {
      "x": 372.0,
      "y": 227.0
    },
    {
      "x": 362.0,
      "y": 244.0
    },
    {
      "x": 347.0,
      "y": 275.0
    },
    {
      "x": 332.0,
      "y": 317.0
    },
    {
      "x": 326.0,
      "y": 318.0
    },
    {
      "x": 301.0,
      "y": 312.0
    },
    {
      "x": 273.0,
      "y": 301.0
    },
    {
      "x": 245.0,
      "y": 297.0
    },
    {
      "x": 198.0,
      "y": 277.0
    },
    {
      "x": 119.0,
      "y": 263.0
    },
    {
      "x": 120.0,
      "y": 252.0
    },
    {
      "x": 143.0,
      "y": 220.0
    },
    {
      "x": 154.0,
      "y": 193.0
    },
    {
      "x": 164.0,
      "y": 162.0
    },
    {
      "x": 166.0,
      "y": 145.0
    }
  ],
  [
    {
      "x": 147.0,
      "y": 141.0
    },
    {
      "x": 155.0,
      "y": 146.0
    },
    {
      "x": 228.0,
      "y": 171.0
    },
    {
      "x": 263.0,
      "y": 177.0
    },
    {
      "x": 280.0,
      "y": 177.0
    },
    {
      "x": 329.0,
      "y": 190.0
    },
    {
      "x": 392.0,
      "y": 199.0
    },
    {
      "x": 392.0,
      "y": 203.0
    },
    {
      "x": 372.0,
      "y": 227.0
    },
    {
      "x": 362.0,
      "y": 244.0
    },
    {
      "x": 347.0,
      "y": 275.0
    },
    {
      "x": 332.0,
      "y": 317.0
    },
    {
      "x": 326.0,
      "y": 318.0
    },
    {
      "x": 301.0,
      "y": 312.0
    },
    {
      "x": 273.0,
      "y": 301.0
    },
    {
      "x": 245.0,
      "y": 297.0
    },
    {
      "x": 198.0,
      "y": 277.0
    },
    {
      "x": 119.0,
      "y": 263.0
    },
    {
      "x": 120.0,
      "y": 252.0
    },
    {
      "x": 143.0,
      "y": 220.0
    },
    {
      "x": 154.0,
      "y": 193.0
    },
    {
      "x": 164.0,
      "y": 162.0
    },
    {
      "x": 166.0,
      "y": 145.0
    }
  ],
  [
    {
      "x": 147.0,
      "y": 141.0
    },
    {
      "x": 155.0,
      "y": 146.0
    },
    {
      "x": 228.0,
      "y": 171.0
    },
    {
      "x": 263.0,
      "y": 177.0
    },
    {
      "x": 280.0,
      "y": 177.0
    },
    {
      "x": 329.0,
      "y": 190.0
    },
    {
      "x": 392.0,
      "y": 199.0
    },
    {
      "x": 392.0,
      "y": 203.0
    },
    {
      "x": 372.0,
      "y": 227.0
    },
    {
      "x": 362.0,
      "y": 244.0
    },
    {
      "x": 347.0,
      "y": 275.0
    },
    {
      "x": 332.0,
      "y": 317.0
    },
    {
      "x": 326.0,
      "y": 318.0
    },
    {
      "x": 301.0,
      "y": 312.0
    },
    {
      "x": 273.0,
      "y": 301.0
    },
    {
      "x": 245.0,
      "y": 297.0
    },
    {
      "x": 198.0,
      "y": 277.0
    },
    {
      "x": 119.0,
      "y": 263.0
    },
    {
      "x": 120.0,
      "y": 252.0
    },
    {
      "x": 143.0,
      "y": 220.0
    },
    {
      "x": 154.0,
      "y": 193.0
    },
    {
      "x": 164.0,
      "y": 162.0
    },
    {
      "x": 166.0,
      "y": 145.0
    }
  ],
  [
    {
      "x": 147.0,
      "y": 141.0
    },
    {
      "x": 155.0,
      "y": 146.0
    },
    {
      "x": 228.0,
      "y": 171.0
    },
    {
      "x": 263.0,
      "y": 177.0
    },
    {
      "x": 280.0,
      "y": 177.0
    },
    {
      "x": 329.0,
      "y": 190.0
    },
    {
      "x": 392.0,
      "y": 199.0
    },
    {
      "x": 392.0,
      "y": 203.0
    },
    {
      "x": 372.0,
      "y": 227.0
    },
    {
      "x": 362.0,
      "y": 244.0
    },
    {
      "x": 347.0,
      "y": 275.0
    },
    {
      "x": 332.0,
      "y": 317.0
    },
    {
      "x": 326.0,
      "y": 318.0
    },
    {
      "x": 301.0,
      "y": 312.0
    },
    {
      "x": 273.0,
      "y": 301.0
    },
    {
      "x": 245.0,
      "y": 297.0
    },
    {
      "x": 198.0,
      "y": 277.0
    },
    {
      "x": 119.0,
      "y": 263.0
    },
    {
      "x": 120.0,
      "y": 252.0
    },
    {
      "x": 143.0,
      "y": 220.0
    },
    {
      "x": 154.0,
      "y": 193.0
    },
    {
      "x": 164.0,
      "y": 162.0
    },
    {
      "x": 166.0,
      "y": 145.0
    }
  ],
  [
    {
      "x": 147.0,
      "y": 141.0
    },
    {
      "x": 155.0,
      "y": 146.0
    },
    {
      "x": 228.0,
      "y": 171.0
    },
    {
      "x": 263.0,
      "y": 177.0
    },
    {
      "x": 280.0,
      "y": 177.0
    },
    {
      "x": 329.0,
      "y": 190.0
    },
    {
      "x": 392.0,
      "y": 199.0
    },
    {
      "x": 392.0,
      "y": 203.0
    },
    {
      "x": 372.0,
      "y": 227.0
    },
    {
      "x": 362.0,
      "y": 244.0
    },
    {
      "x": 347.0,
      "y": 275.0
    },
    {
      "x": 332.0,
      "y": 317.0
    },
    {
      "x": 326.0,
      "y": 318.0
    },
    {
      "x": 301.0,
      "y": 312.0
    },
    {
      "x": 273.0,
      "y": 301.0
    },
    {
      "x": 245.0,
      "y": 297.0
    },
    {
      "x": 198.0,
      "y": 277.0
    },
    {
      "x": 119.0,
      "y": 263.0
    },
    {
      "x": 120.0,
      "y": 252.0
    },
    {
      "x": 143.0,
      "y": 220.0
    },
    {
      "x": 154.0,
      "y": 193.0
    },
    {
      "x": 164.0,
      "y": 162.0
    },
    {
      "x": 166.0,
      "y": 145.0
    }
  ],
  [
    {
      "x": 147.0,
      "y": 141.0
    },
    {
      "x": 155.0,
      "y": 146.0
    },
    {
      "x": 228.0,
      "y": 171.0
    },
    {
      "x": 263.0,
      "y": 177.0
    },
    {
      "x": 280.0,
      "y": 177.0
    },
    {
      "x": 329.0,
      "y": 190.0
    },
    {
      "x": 392.0,
      "y": 199.0
    },
    {
      "x": 392.0,
      "y": 203.0
    },
    {
      "x": 372.0,
      "y": 227.0
    },
    {
      "x": 362.0,
      "y": 244.0
    },
    {
      "x": 347.0,
      "y": 275.0
    },
    {
      "x": 332.0,
      "y": 317.0
    },
    {
      "x": 326.0,
      "y": 318.0
    },
    {
      "x": 301.0,
      "y": 312.0
    },
    {
      "x": 273.0,
      "y": 301.0
    },
    {
      "x": 245.0,
      "y": 297.0
    },
    {
      "x": 198.0,
      "y": 277.0
    },
    {
      "x": 119.0,
      "y": 263.0
    },
    {
      "x": 120.0,
      "y": 252.0
    },
    {
      "x": 143.0,
      "y": 220.0
    },
    {
      "x": 154.0,
      "y": 193.0
    },
    {
      "x": 164.0,
      "y": 162.0
    },
    {
      "x": 166.0,
      "y": 145.0
    }
  ],
  [
    {
      "x": 147.0,
      "y": 141.0
    },
    {
      "x": 155.0,
      "y": 146.0
    },
    {
      "x": 228.0,
      "y": 171.0
    },
    {
      "x": 263.0,
      "y": 177.0
    },
    {
      "x": 280.0,
      "y": 177.0
    },
    {
      "x": 329.0,
      "y": 190.0
    },
    {
      "x": 392.0,
      "y": 199.0
    },
    {
      "x": 392.0,
      "y": 203.0
    },
    {
      "x": 372.0,
      "y": 227.0
    },
    {
      "x": 362.0,
      "y": 244.0
    },
    {
      "x": 347.0,
      "y": 275.0
    },
    {
      "x": 332.0,
      "y": 317.0
    },
    {
      "x": 326.0,
      "y": 318.0
    },
    {
      "x": 301.0,
      "y": 312.0
    },
    {
      "x": 273.0,
      "y": 301.0
    },
    {
      "x": 245.0,
      "y": 297.0
    },
    {
      "x": 198.0,
      "y": 277.0
    },
    {
      "x": 119.0,
      "y": 263.0
    },
    {
      "x": 120.0,
      "y": 252.0
    },
    {
      "x": 143.0,
      "y": 220.0
    },
    {
      "x": 154.0,
      "y": 193.0
    },
    {
      "x": 164.0,
      "y": 162.0
    },
    {
      "x": 166.0,
      "y": 145.0
    }
  ],
  [
    {
      "x": 150.0,
      "y": 139.0
    },
    {
      "x": 117.0,
      "y": 220.0
    },
    {
      "x": 109.0,
      "y": 251.0
    },
    {
      "x": 100.0,
      "y": 265.0
    },
    {
      "x": 100.0,
      "y": 268.0
    },
    {
      "x": 122.0,
      "y": 269.0
    }
  ],
  [
    {
      "x": 150.0,
      "y": 139.0
    },
    {
      "x": 117.0,
      "y": 220.0
    },
    {
      "x": 109.0,
      "y": 251.0
    },
    {
      "x": 100.0,
      "y": 265.0
    },
    {
      "x": 100.0,
      "y": 268.0
    },
    {
      "x": 122.0,
      "y": 269.0
    }
  ],
  [
    {
      "x": 150.0,
      "y": 139.0
    },
    {
      "x": 117.0,
      "y": 220.0
    },
    {
      "x": 109.0,
      "y": 251.0
    },
    {
      "x": 100.0,
      "y": 265.0
    },
    {
      "x": 100.0,
      "y": 268.0
    },
    {
      "x": 122.0,
      "y": 269.0
    }
  ],
  [
    {
      "x": 150.0,
      "y": 139.0
    },
    {
      "x": 117.0,
      "y": 220.0
    },
    {
      "x": 109.0,
      "y": 251.0
    },
    {
      "x": 100.0,
      "y": 265.0
    },
    {
      "x": 100.0,
      "y": 268.0
    },
    {
      "x": 122.0,
      "y": 269.0
    }
  ],
  [
    {
      "x": 150.0,
      "y": 139.0
    },
    {
      "x": 117.0,
      "y": 220.0
    },
    {
      "x": 109.0,
      "y": 251.0
    },
    {
      "x": 100.0,
      "y": 265.0
    },
    {
      "x": 100.0,
      "y": 268.0
    },
    {
      "x": 122.0,
      "y": 269.0
    }
  ],
  [
    {
      "x": 150.0,
      "y": 139.0
    },
    {
      "x": 117.0,
      "y": 220.0
    },
    {
      "x": 109.0,
      "y": 251.0
    },
    {
      "x": 100.0,
      "y": 265.0
    },
    {
      "x": 100.0,
      "y": 268.0
    },
    {
      "x": 122.0,
      "y": 269.0
    }
  ],
  [
    {
      "x": 118.0,
      "y": 261.0
    },
    {
      "x": 110.0,
      "y": 286.0
    },
    {
      "x": 182.0,
      "y": 301.0
    },
    {
      "x": 213.0,
      "y": 313.0
    },
    {
      "x": 263.0,
      "y": 320.0
    },
    {
      "x": 310.0,
      "y": 333.0
    },
    {
      "x": 328.0,
      "y": 335.0
    },
    {
      "x": 331.0,
      "y": 333.0
    },
    {
      "x": 335.0,
      "y": 316.0
    }
  ],
  [
    {
      "x": 118.0,
      "y": 261.0
    },
    {
      "x": 110.0,
      "y": 286.0
    },
    {
      "x": 182.0,
      "y": 301.0
    },
    {
      "x": 213.0,
      "y": 313.0
    },
    {
      "x": 263.0,
      "y": 320.0
    },
    {
      "x": 310.0,
      "y": 333.0
    },
    {
      "x": 328.0,
      "y": 335.0
    },
    {
      "x": 331.0,
      "y": 333.0
    },
    {
      "x": 335.0,
      "y": 316.0
    }
  ],
  [
    {
      "x": 118.0,
      "y": 261.0
    },
    {
      "x": 110.0,
      "y": 286.0
    },
    {
      "x": 182.0,
      "y": 301.0
    },
    {
      "x": 213.0,
      "y": 313.0
    },
    {
      "x": 263.0,
      "y": 320.0
    },
    {
      "x": 310.0,
      "y": 333.0
    },
    {
      "x": 328.0,
      "y": 335.0
    },
    {
      "x": 331.0,
      "y": 333.0
    },
    {
      "x": 335.0,
      "y": 316.0
    }
  ],
  [
    {
      "x": 118.0,
      "y": 261.0
    },
    {
      "x": 110.0,
      "y": 286.0
    },
    {
      "x": 182.0,
      "y": 301.0
    },
    {
      "x": 213.0,
      "y": 313.0
    },
    {
      "x": 263.0,
      "y": 320.0
    },
    {
      "x": 310.0,
      "y": 333.0
    },
    {
      "x": 328.0,
      "y": 335.0
    },
    {
      "x": 331.0,
      "y": 333.0
    },
    {
      "x": 335.0,
      "y": 316.0
    }
  ],
  [
    {
      "x": 118.0,
      "y": 261.0
    },
    {
      "x": 110.0,
      "y": 286.0
    },
    {
      "x": 182.0,
      "y": 301.0
    },
    {
      "x": 213.0,
      "y": 313.0
    },
    {
      "x": 263.0,
      "y": 320.0
    },
    {
      "x": 310.0,
      "y": 333.0
    },
    {
      "x": 328.0,
      "y": 335.0
    },
    {
      "x": 331.0,
      "y": 333.0
    },
    {
      "x": 335.0,
      "y": 316.0
    }
  ],
  [
    {
      "x": 118.0,
      "y": 261.0
    },
    {
      "x": 110.0,
      "y": 286.0
    },
    {
      "x": 182.0,
      "y": 301.0
    },
    {
      "x": 213.0,
      "y": 313.0
    },
    {
      "x": 263.0,
      "y": 320.0
    },
    {
      "x": 310.0,
      "y": 333.0
    },
    {
      "x": 328.0,
      "y": 335.0
    },
    {
      "x": 331.0,
      "y": 333.0
    },
    {
      "x": 335.0,
      "y": 316.0
    }
  ],
  [
    {
      "x": 118.0,
      "y": 261.0
    },
    {
      "x": 110.0,
      "y": 286.0
    },
    {
      "x": 182.0,
      "y": 301.0
    },
    {
      "x": 213.0,
      "y": 313.0
    },
    {
      "x": 263.0,
      "y": 320.0
    },
    {
      "x": 310.0,
      "y": 333.0
    },
    {
      "x": 328.0,
      "y": 335.0
    },
    {
      "x": 331.0,
      "y": 333.0
    },
    {
      "x": 335.0,
      "y": 316.0
    }
  ],
  [
    {
      "x": 118.0,
      "y": 261.0
    },
    {
      "x": 110.0,
      "y": 286.0
    },
    {
      "x": 182.0,
      "y": 301.0
    },
    {
      "x": 213.0,
      "y": 313.0
    },
    {
      "x": 263.0,
      "y": 320.0
    },
    {
      "x": 310.0,
      "y": 333.0
    },
    {
      "x": 328.0,
      "y": 335.0
    },
    {
      "x": 331.0,
      "y": 333.0
    },
    {
      "x": 335.0,
      "y": 316.0
    }
  ],
  [
    {
      "x": 118.0,
      "y": 261.0
    },
    {
      "x": 110.0,
      "y": 286.0
    },
    {
      "x": 182.0,
      "y": 301.0
    },
    {
      "x": 213.0,
      "y": 313.0
    },
    {
      "x": 263.0,
      "y": 320.0
    },
    {
      "x": 310.0,
      "y": 333.0
    },
    {
      "x": 328.0,
      "y": 335.0
    },
    {
      "x": 331.0,
      "y": 333.0
    },
    {
      "x": 335.0,
      "y": 316.0
    }
  ],
  [
    {
      "x": 392.0,
      "y": 197.0
    },
    {
      "x": 403.0,
      "y": 204.0
    },
    {
      "x": 403.0,
      "y": 211.0
    },
    {
      "x": 391.0,
      "y": 241.0
    },
    {
      "x": 380.0,
      "y": 260.0
    },
    {
      "x": 344.0,
      "y": 305.0
    },
    {
      "x": 340.0,
      "y": 316.0
    },
    {
      "x": 335.0,
      "y": 317.0
    },
    {
      "x": 335.0,
      "y": 313.0
    }
  ],
  [
    {
      "x": 392.0,
      "y": 197.0
    },
    {
      "x": 403.0,
      "y": 204.0
    },
    {
      "x": 403.0,
      "y": 211.0
    },
    {
      "x": 391.0,
      "y": 241.0
    },
    {
      "x": 380.0,
      "y": 260.0
    },
    {
      "x": 344.0,
      "y": 305.0
    },
    {
      "x": 340.0,
      "y": 316.0
    },
    {
      "x": 335.0,
      "y": 317.0
    },
    {
      "x": 335.0,
      "y": 313.0
    }
  ],
  [
    {
      "x": 392.0,
      "y": 197.0
    },
    {
      "x": 403.0,
      "y": 204.0
    },
    {
      "x": 403.0,
      "y": 211.0
    },
    {
      "x": 391.0,
      "y": 241.0
    },
    {
      "x": 380.0,
      "y": 260.0
    },
    {
      "x": 344.0,
      "y": 305.0
    },
    {
      "x": 340.0,
      "y": 316.0
    },
    {
      "x": 335.0,
      "y": 317.0
    },
    {
      "x": 335.0,
      "y": 313.0
    }
  ],
  [
    {
      "x": 392.0,
      "y": 197.0
    },
    {
      "x": 403.0,
      "y": 204.0
    },
    {
      "x": 403.0,
      "y": 211.0
    },
    {
      "x": 391.0,
      "y": 241.0
    },
    {
      "x": 380.0,
      "y": 260.0
    },
    {
      "x": 344.0,
      "y": 305.0
    },
    {
      "x": 340.0,
      "y": 316.0
    },
    {
      "x": 335.0,
      "y": 317.0
    },
    {
      "x": 335.0,
      "y": 313.0
    }
  ],
  [
    {
      "x": 392.0,
      "y": 197.0
    },
    {
      "x": 403.0,
      "y": 204.0
    },
    {
      "x": 403.0,
      "y": 211.0
    },
    {
      "x": 391.0,
      "y": 241.0
    },
    {
      "x": 380.0,
      "y": 260.0
    },
    {
      "x": 344.0,
      "y": 305.0
    },
    {
      "x": 340.0,
      "y": 316.0
    },
    {
      "x": 335.0,
      "y": 317.0
    },
    {
      "x": 335.0,
      "y": 313.0
    }
  ],
  [
    {
      "x": 392.0,
      "y": 197.0
    },
    {
      "x": 403.0,
      "y": 204.0
    },
    {
      "x": 403.0,
      "y": 211.0
    },
    {
      "x": 391.0,
      "y": 241.0
    },
    {
      "x": 380.0,
      "y": 260.0
    },
    {
      "x": 344.0,
      "y": 305.0
    },
    {
      "x": 340.0,
      "y": 316.0
    },
    {
      "x": 335.0,
      "y": 317.0
    },
    {
      "x": 335.0,
      "y": 313.0
    }
  ],
  [
    {
      "x": 392.0,
      "y": 197.0
    },
    {
      "x": 403.0,
      "y": 204.0
    },
    {
      "x": 403.0,
      "y": 211.0
    },
    {
      "x": 391.0,
      "y": 241.0
    },
    {
      "x": 380.0,
      "y": 260.0
    },
    {
      "x": 344.0,
      "y": 305.0
    },
    {
      "x": 340.0,
      "y": 316.0
    },
    {
      "x": 335.0,
      "y": 317.0
    },
    {
      "x": 335.0,
      "y": 313.0
    }
  ],
  [
    {
      "x": 392.0,
      "y": 197.0
    },
    {
      "x": 403.0,
      "y": 204.0
    },
    {
      "x": 403.0,
      "y": 211.0
    },
    {
      "x": 391.0,
      "y": 241.0
    },
    {
      "x": 380.0,
      "y": 260.0
    },
    {
      "x": 344.0,
      "y": 305.0
    },
    {
      "x": 340.0,
      "y": 316.0
    },
    {
      "x": 335.0,
      "y": 317.0
    },
    {
      "x": 335.0,
      "y": 313.0
    }
  ],
  [
    {
      "x": 392.0,
      "y": 197.0
    },
    {
      "x": 403.0,
      "y": 204.0
    },
    {
      "x": 403.0,
      "y": 211.0
    },
    {
      "x": 391.0,
      "y": 241.0
    },
    {
      "x": 380.0,
      "y": 260.0
    },
    {
      "x": 344.0,
      "y": 305.0
    },
    {
      "x": 340.0,
      "y": 316.0
    },
    {
      "x": 335.0,
      "y": 317.0
    },
    {
      "x": 335.0,
      "y": 313.0
    }
  ],
  [
    {
      "x": 166.0,
      "y": 152.0
    },
    {
      "x": 172.0,
      "y": 146.0
    },
    {
      "x": 176.0,
      "y": 135.0
    },
    {
      "x": 188.0,
      "y": 135.0
    },
    {
      "x": 233.0,
      "y": 155.0
    },
    {
      "x": 278.0,
      "y": 165.0
    },
    {
      "x": 299.0,
      "y": 174.0
    },
    {
      "x": 349.0,
      "y": 182.0
    },
    {
      "x": 373.0,
      "y": 189.0
    },
    {
      "x": 383.0,
      "y": 193.0
    },
    {
      "x": 384.0,
      "y": 206.0
    }
  ],
  [
    {
      "x": 166.0,
      "y": 152.0
    },
    {
      "x": 172.0,
      "y": 146.0
    },
    {
      "x": 176.0,
      "y": 135.0
    },
    {
      "x": 188.0,
      "y": 135.0
    },
    {
      "x": 233.0,
      "y": 155.0
    },
    {
      "x": 278.0,
      "y": 165.0
    },
    {
      "x": 299.0,
      "y": 174.0
    },
    {
      "x": 349.0,
      "y": 182.0
    },
    {
      "x": 373.0,
      "y": 189.0
    },
    {
      "x": 383.0,
      "y": 193.0
    },
    {
      "x": 384.0,
      "y": 206.0
    }
  ],
  [
    {
      "x": 166.0,
      "y": 152.0
    },
    {
      "x": 172.0,
      "y": 146.0
    },
    {
      "x": 176.0,
      "y": 135.0
    },
    {
      "x": 188.0,
      "y": 135.0
    },
    {
      "x": 233.0,
      "y": 155.0
    },
    {
      "x": 278.0,
      "y": 165.0
    },
    {
      "x": 299.0,
      "y": 174.0
    },
    {
      "x": 349.0,
      "y": 182.0
    },
    {
      "x": 373.0,
      "y": 189.0
    },
    {
      "x": 383.0,
      "y": 193.0
    },
    {
      "x": 384.0,
      "y": 206.0
    }
  ],
  [
    {
      "x": 166.0,
      "y": 152.0
    },
    {
      "x": 172.0,
      "y": 146.0
    },
    {
      "x": 176.0,
      "y": 135.0
    },
    {
      "x": 188.0,
      "y": 135.0
    },
    {
      "x": 233.0,
      "y": 155.0
    },
    {
      "x": 278.0,
      "y": 165.0
    },
    {
      "x": 299.0,
      "y": 174.0
    },
    {
      "x": 349.0,
      "y": 182.0
    },
    {
      "x": 373.0,
      "y": 189.0
    },
    {
      "x": 383.0,
      "y": 193.0
    },
    {
      "x": 384.0,
      "y": 206.0
    }
  ],
  [
    {
      "x": 166.0,
      "y": 152.0
    },
    {
      "x": 172.0,
      "y": 146.0
    },
    {
      "x": 176.0,
      "y": 135.0
    },
    {
      "x": 188.0,
      "y": 135.0
    },
    {
      "x": 233.0,
      "y": 155.0
    },
    {
      "x": 278.0,
      "y": 165.0
    },
    {
      "x": 299.0,
      "y": 174.0
    },
    {
      "x": 349.0,
      "y": 182.0
    },
    {
      "x": 373.0,
      "y": 189.0
    },
    {
      "x": 383.0,
      "y": 193.0
    },
    {
      "x": 384.0,
      "y": 206.0
    }
  ],
  [
    {
      "x": 166.0,
      "y": 152.0
    },
    {
      "x": 172.0,
      "y": 146.0
    },
    {
      "x": 176.0,
      "y": 135.0
    },
    {
      "x": 188.0,
      "y": 135.0
    },
    {
      "x": 233.0,
      "y": 155.0
    },
    {
      "x": 278.0,
      "y": 165.0
    },
    {
      "x": 299.0,
      "y": 174.0
    },
    {
      "x": 349.0,
      "y": 182.0
    },
    {
      "x": 373.0,
      "y": 189.0
    },
    {
      "x": 383.0,
      "y": 193.0
    },
    {
      "x": 384.0,
      "y": 206.0
    }
  ],
  [
    {
      "x": 166.0,
      "y": 152.0
    },
    {
      "x": 172.0,
      "y": 146.0
    },
    {
      "x": 176.0,
      "y": 135.0
    },
    {
      "x": 188.0,
      "y": 135.0
    },
    {
      "x": 233.0,
      "y": 155.0
    },
    {
      "x": 278.0,
      "y": 165.0
    },
    {
      "x": 299.0,
      "y": 174.0
    },
    {
      "x": 349.0,
      "y": 182.0
    },
    {
      "x": 373.0,
      "y": 189.0
    },
    {
      "x": 383.0,
      "y": 193.0
    },
    {
      "x": 384.0,
      "y": 206.0
    }
  ],
  [
    {
      "x": 166.0,
      "y": 152.0
    },
    {
      "x": 172.0,
      "y": 146.0
    },
    {
      "x": 176.0,
      "y": 135.0
    },
    {
      "x": 188.0,
      "y": 135.0
    },
    {
      "x": 233.0,
      "y": 155.0
    },
    {
      "x": 278.0,
      "y": 165.0
    },
    {
      "x": 299.0,
      "y": 174.0
    },
    {
      "x": 349.0,
      "y": 182.0
    },
    {
      "x": 373.0,
      "y": 189.0
    },
    {
      "x": 383.0,
      "y": 193.0
    },
    {
      "x": 384.0,
      "y": 206.0
    }
  ],
  [
    {
      "x": 166.0,
      "y": 152.0
    },
    {
      "x": 172.0,
      "y": 146.0
    },
    {
      "x": 176.0,
      "y": 135.0
    },
    {
      "x": 188.0,
      "y": 135.0
    },
    {
      "x": 233.0,
      "y": 155.0
    },
    {
      "x": 278.0,
      "y": 165.0
    },
    {
      "x": 299.0,
      "y": 174.0
    },
    {
      "x": 349.0,
      "y": 182.0
    },
    {
      "x": 373.0,
      "y": 189.0
    },
    {
      "x": 383.0,
      "y": 193.0
    },
    {
      "x": 384.0,
      "y": 206.0
    }
  ],
  [
    {
      "x": 166.0,
      "y": 152.0
    },
    {
      "x": 172.0,
      "y": 146.0
    },
    {
      "x": 176.0,
      "y": 135.0
    },
    {
      "x": 188.0,
      "y": 135.0
    },
    {
      "x": 233.0,
      "y": 155.0
    },
    {
      "x": 278.0,
      "y": 165.0
    },
    {
      "x": 299.0,
      "y": 174.0
    },
    {
      "x": 349.0,
      "y": 182.0
    },
    {
      "x": 373.0,
      "y": 189.0
    },
    {
      "x": 383.0,
      "y": 193.0
    },
    {
      "x": 384.0,
      "y": 206.0
    }
  ],
  [
    {
      "x": 166.0,
      "y": 152.0
    },
    {
      "x": 172.0,
      "y": 146.0
    },
    {
      "x": 176.0,
      "y": 135.0
    },
    {
      "x": 188.0,
      "y": 135.0
    },
    {
      "x": 233.0,
      "y": 155.0
    },
    {
      "x": 278.0,
      "y": 165.0
    },
    {
      "x": 299.0,
      "y": 174.0
    },
    {
      "x": 349.0,
      "y": 182.0
    },
    {
      "x": 373.0,
      "y": 189.0
    },
    {
      "x": 383.0,
      "y": 193.0
    },
    {
      "x": 384.0,
      "y": 206.0
    }
  ],
  [
    {
      "x": 82.0,
      "y": 292.0
    },
    {
      "x": 79.0,
      "y": 294.0
    },
    {
      "x": 71.0,
      "y": 316.0
    },
    {
      "x": 68.0,
      "y": 364.0
    },
    {
      "x": 63.0,
      "y": 378.0
    },
    {
      "x": 62.0,
      "y": 392.0
    },
    {
      "x": 74.0,
      "y": 399.0
    },
    {
      "x": 85.0,
      "y": 398.0
    }
  ],
  [
    {
      "x": 82.0,
      "y": 292.0
    },
    {
      "x": 79.0,
      "y": 294.0
    },
    {
      "x": 71.0,
      "y": 316.0
    },
    {
      "x": 68.0,
      "y": 364.0
    },
    {
      "x": 63.0,
      "y": 378.0
    },
    {
      "x": 62.0,
      "y": 392.0
    },
    {
      "x": 74.0,
      "y": 399.0
    },
    {
      "x": 85.0,
      "y": 398.0
    }
  ],
  [
    {
      "x": 82.0,
      "y": 292.0
    },
    {
      "x": 79.0,
      "y": 294.0
    },
    {
      "x": 71.0,
      "y": 316.0
    },
    {
      "x": 68.0,
      "y": 364.0
    },
    {
      "x": 63.0,
      "y": 378.0
    },
    {
      "x": 62.0,
      "y": 392.0
    },
    {
      "x": 74.0,
      "y": 399.0
    },
    {
      "x": 85.0,
      "y": 398.0
    }
  ],
  [
    {
      "x": 82.0,
      "y": 292.0
    },
    {
      "x": 79.0,
      "y": 294.0
    },
    {
      "x": 71.0,
      "y": 316.0
    },
    {
      "x": 68.0,
      "y": 364.0
    },
    {
      "x": 63.0,
      "y": 378.0
    },
    {
      "x": 62.0,
      "y": 392.0
    },
    {
      "x": 74.0,
      "y": 399.0
    },
    {
      "x": 85.0,
      "y": 398.0
    }
  ],
  [
    {
      "x": 82.0,
      "y": 292.0
    },
    {
      "x": 79.0,
      "y": 294.0
    },
    {
      "x": 71.0,
      "y": 316.0
    },
    {
      "x": 68.0,
      "y": 364.0
    },
    {
      "x": 63.0,
      "y": 378.0
    },
    {
      "x": 62.0,
      "y": 392.0
    },
    {
      "x": 74.0,
      "y": 399.0
    },
    {
      "x": 85.0,
      "y": 398.0
    }
  ],
  [
    {
      "x": 82.0,
      "y": 292.0
    },
    {
      "x": 79.0,
      "y": 294.0
    },
    {
      "x": 71.0,
      "y": 316.0
    },
    {
      "x": 68.0,
      "y": 364.0
    },
    {
      "x": 63.0,
      "y": 378.0
    },
    {
      "x": 62.0,
      "y": 392.0
    },
    {
      "x": 74.0,
      "y": 399.0
    },
    {
      "x": 85.0,
      "y": 398.0
    }
  ],
  [
    {
      "x": 82.0,
      "y": 292.0
    },
    {
      "x": 79.0,
      "y": 294.0
    },
    {
      "x": 71.0,
      "y": 316.0
    },
    {
      "x": 68.0,
      "y": 364.0
    },
    {
      "x": 63.0,
      "y": 378.0
    },
    {
      "x": 62.0,
      "y": 392.0
    },
    {
      "x": 74.0,
      "y": 399.0
    },
    {
      "x": 85.0,
      "y": 398.0
    }
  ],
  [
    {
      "x": 82.0,
      "y": 292.0
    },
    {
      "x": 79.0,
      "y": 294.0
    },
    {
      "x": 71.0,
      "y": 316.0
    },
    {
      "x": 68.0,
      "y": 364.0
    },
    {
      "x": 63.0,
      "y": 378.0
    },
    {
      "x": 62.0,
      "y": 392.0
    },
    {
      "x": 74.0,
      "y": 399.0
    },
    {
      "x": 85.0,
      "y": 398.0
    }
  ],
  [
    {
      "x": 351.0,
      "y": 349.0
    },
    {
      "x": 363.0,
      "y": 372.0
    },
    {
      "x": 388.0,
      "y": 434.0
    },
    {
      "x": 371.0,
      "y": 445.0
    },
    {
      "x": 370.0,
      "y": 442.0
    }
  ],
  [
    {
      "x": 351.0,
      "y": 349.0
    },
    {
      "x": 363.0,
      "y": 372.0
    },
    {
      "x": 388.0,
      "y": 434.0
    },
    {
      "x": 371.0,
      "y": 445.0
    },
    {
      "x": 370.0,
      "y": 442.0
    }
  ],
  [
    {
      "x": 351.0,
      "y": 349.0
    },
    {
      "x": 363.0,
      "y": 372.0
    },
    {
      "x": 388.0,
      "y": 434.0
    },
    {
      "x": 371.0,
      "y": 445.0
    },
    {
      "x": 370.0,
      "y": 442.0
    }
  ],
  [
    {
      "x": 351.0,
      "y": 349.0
    },
    {
      "x": 363.0,
      "y": 372.0
    },
    {
      "x": 388.0,
      "y": 434.0
    },
    {
      "x": 371.0,
      "y": 445.0
    },
    {
      "x": 370.0,
      "y": 442.0
    }
  ],
  [
    {
      "x": 351.0,
      "y": 349.0
    },
    {
      "x": 363.0,
      "y": 372.0
    },
    {
      "x": 388.0,
      "y": 434.0
    },
    {
      "x": 371.0,
      "y": 445.0
    },
    {
      "x": 370.0,
      "y": 442.0
    }
  ],
  [
    {
      "x": 429.0,
      "y": 176.0
    },
    {
      "x": 437.0,
      "y": 223.0
    },
    {
      "x": 437.0,
      "y": 260.0
    },
    {
      "x": 442.0,
      "y": 283.0
    },
    {
      "x": 451.0,
      "y": 307.0
    },
    {
      "x": 454.0,
      "y": 330.0
    },
    {
      "x": 458.0,
      "y": 333.0
    },
    {
      "x": 471.0,
      "y": 331.0
    }
  ],
  [
    {
      "x": 429.0,
      "y": 176.0
    },
    {
      "x": 437.0,
      "y": 223.0
    },
    {
      "x": 437.0,
      "y": 260.0
    },
    {
      "x": 442.0,
      "y": 283.0
    },
    {
      "x": 451.0,
      "y": 307.0
    },
    {
      "x": 454.0,
      "y": 330.0
    },
    {
      "x": 458.0,
      "y": 333.0
    },
    {
      "x": 471.0,
      "y": 331.0
    }
  ],
  [
    {
      "x": 429.0,
      "y": 176.0
    },
    {
      "x": 437.0,
      "y": 223.0
    },
    {
      "x": 437.0,
      "y": 260.0
    },
    {
      "x": 442.0,
      "y": 283.0
    },
    {
      "x": 451.0,
      "y": 307.0
    },
    {
      "x": 454.0,
      "y": 330.0
    },
    {
      "x": 458.0,
      "y": 333.0
    },
    {
      "x": 471.0,
      "y": 331.0
    }
  ],
  [
    {
      "x": 429.0,
      "y": 176.0
    },
    {
      "x": 437.0,
      "y": 223.0
    },
    {
      "x": 437.0,
      "y": 260.0
    },
    {
      "x": 442.0,
      "y": 283.0
    },
    {
      "x": 451.0,
      "y": 307.0
    },
    {
      "x": 454.0,
      "y": 330.0
    },
    {
      "x": 458.0,
      "y": 333.0
    },
    {
      "x": 471.0,
      "y": 331.0
    }
  ],
  [
    {
      "x": 429.0,
      "y": 176.0
    },
    {
      "x": 437.0,
      "y": 223.0
    },
    {
      "x": 437.0,
      "y": 260.0
    },
    {
      "x": 442.0,
      "y": 283.0
    },
    {
      "x": 451.0,
      "y": 307.0
    },
    {
      "x": 454.0,
      "y": 330.0
    },
    {
      "x": 458.0,
      "y": 333.0
    },
    {
      "x": 471.0,
      "y": 331.0
    }
  ],
  [
    {
      "x": 429.0,
      "y": 176.0
    },
    {
      "x": 437.0,
      "y": 223.0
    },
    {
      "x": 437.0,
      "y": 260.0
    },
    {
      "x": 442.0,
      "y": 283.0
    },
    {
      "x": 451.0,
      "y": 307.0
    },
    {
      "x": 454.0,
      "y": 330.0
    },
    {
      "x": 458.0,
      "y": 333.0
    },
    {
      "x": 471.0,
      "y": 331.0
    }
  ],
  [
    {
      "x": 429.0,
      "y": 176.0
    },
    {
      "x": 437.0,
      "y": 223.0
    },
    {
      "x": 437.0,
      "y": 260.0
    },
    {
      "x": 442.0,
      "y": 283.0
    },
    {
      "x": 451.0,
      "y": 307.0
    },
    {
      "x": 454.0,
      "y": 330.0
    },
    {
      "x": 458.0,
      "y": 333.0
    },
    {
      "x": 471.0,
      "y": 331.0
    }
  ],
  [
    {
      "x": 429.0,
      "y": 176.0
    },
    {
      "x": 437.0,
      "y": 223.0
    },
    {
      "x": 437.0,
      "y": 260.0
    },
    {
      "x": 442.0,
      "y": 283.0
    },
    {
      "x": 451.0,
      "y": 307.0
    },
    {
      "x": 454.0,
      "y": 330.0
    },
    {
      "x": 458.0,
      "y": 333.0
    },
    {
      "x": 471.0,
      "y": 331.0
    }
  ]
]
