<svg version="1.1" baseProfile="full" width="547" height="410" xmlns="http://www.w3.org/2000/svg"><polyline points="  368,321  367,322  362,322  361,323  359,323  358,324  357,324  356,325  354,325  353,326  350,326  349,327  346,327  345,328  341,328  340,329  338,329  337,330  334,330  333,331  331,331  330,332  327,332  326,333  323,333  322,334  318,334  317,335  310,335  309,336  307,336  306,337  304,337  303,338  301,338  300,339  298,339  297,340  294,340  293,341  289,341  288,342  284,342  283,343  278,343  277,344  269,344  268,345  258,345  257,344  250,344  249,345  248,345  247,344  246,345  233,345  246,345  247,344  248,345  249,345  250,344  257,344  258,345  268,345  269,344  277,344  278,343  283,343  284,342  288,342  289,341  293,341  294,340  297,340  298,339  300,339  301,338  303,338  304,337  306,337  307,336  309,336  310,335  317,335  318,334  322,334  323,333  326,333  327,332  330,332  331,331  333,331  334,330  337,330  338,329  340,329  341,328  345,328  346,327  349,327  350,326  354,326  355,325  356,325  357,324  359,324  360,323  361,323  362,322  368,322  369,321  373,321"   style="fill:none;stroke:rgb(83,113,59);stroke-width:3" />
<polyline points="  178,261  178,262  179,263  179,264  180,265  180,266  181,267  181,271  182,272  182,276  181,277  180,277  179,276  179,273  178,272  178,271  177,272  179,274  179,276  180,277  180,278  181,279  181,281  182,282  182,283  183,284  183,285  184,286  184,287  184,286  183,285  183,283  182,282  182,281  181,280  181,279  180,278  182,276  183,277  183,278  185,280  185,282  186,283  186,285  187,286  187,288  188,289  188,290  190,292  190,293  191,294  191,296  192,297  192,298  193,299  193,300  195,302  195,303  196,304  196,306  197,307  197,310  203,316  204,316  212,324  213,324  215,326  216,326  218,328  219,328  221,330  223,330  224,331  227,331  229,333  228,334  226,334  225,333  224,333  225,333  227,335  227,336  226,337  225,337  227,337  227,335  229,333  231,335  233,335  234,336  236,336  237,337  241,337  242,338  244,338  245,339  247,339  248,340  252,340  253,341  258,341  259,342  271,342  272,341  279,341  280,340  284,340  285,339  289,339  290,338  293,338  294,337  295,337  293,337  292,338  290,338  289,339  285,339  284,340  280,340  279,341  272,341  271,342  259,342  258,341  253,341  252,340  248,340  247,339  246,339  245,338  242,338  241,337  237,337  236,336  234,336  233,335  232,335  229,332  228,332  227,331  225,331  224,330  222,330  220,328  219,328  217,326  216,326  214,324  213,324  205,316  204,316  197,309  197,306  196,305  196,303  194,301  194,300  192,298  192,297  191,296  191,294  190,293  190,291  187,288  187,286  186,285  186,283  185,282  185,280  184,279  184,278  183,277  183,276  182,275  182,272  181,271  181,267  180,266  180,265  179,264  179,262"   style="fill:none;stroke:rgb(72,190,12);stroke-width:3" />
<polyline points="  329,125  326,128  326,129  322,133  322,134  317,139  317,140  316,141  316,142  315,143  317,145  317,147  316,148  316,149  315,150  315,151  313,153  313,154  308,159  307,159  301,165  301,166  297,170  297,171  296,172  296,173  295,174  295,175  293,177  293,179  291,181  291,182  289,184  289,185  285,189  285,190  282,193  281,193  277,197  276,197  274,199  272,199  271,200  268,200  267,201  265,201  264,202  263,202  262,203  260,203  262,203  263,202  265,202  266,201  268,201  269,200  271,200  272,199  275,199  278,196  279,196  283,192  284,192  285,191  285,190  289,186  289,185  291,183  291,182  292,181  292,180  293,179  293,178  295,176  295,175  296,174  296,173  297,172  297,171  301,167  301,166  308,159  309,159  313,155  313,154  315,152  315,151  316,150  316,148  317,147  317,144  322,139  322,138  326,134  326,133  331,128  330,128  327,131  327,132  323,136  323,137  319,141  319,142  317,144  316,143  316,142  317,141  317,140  321,136  321,135  325,131  325,130  329,126  332,126  333,127  331,125  330,126"   style="fill:none;stroke:rgb(195,4,93);stroke-width:3" />
<polyline points="  278,116  277,117  274,117  273,118  268,118  267,119  264,119  263,120  261,120  260,121  257,121  256,122  254,122  253,123  252,123  251,124  250,124  249,125  248,125  247,126  246,126  245,127  244,127  243,128  241,128  240,129  239,129  238,130  237,130  236,131  235,131  231,135  230,135  230,136  229,137  228,137  223,142  222,142  218,146  217,146  210,153  210,154  206,158  206,159  205,160  204,160  203,159  203,158  203,159  204,160  204,161  202,163  202,164  199,167  199,168  198,169  198,170  196,172  196,173  194,175  194,176  193,177  193,178  191,180  191,182  189,184  189,188  188,189  188,191  187,192  187,194  184,197  183,196  183,195  182,194  182,192  185,189  186,189  185,188  185,187  184,188  185,189  184,190  183,190  182,191  182,195  184,197  183,198  183,201  182,202  182,206  181,207  181,212  180,213  180,215  178,217  178,218  179,219  179,224  177,226  176,225  176,219  176,225  178,227  178,226  179,225  179,216  180,215  180,213  181,212  181,207  182,206  182,203  183,202  183,200  185,198  185,197  186,196  186,195  187,194  187,192  188,191  188,189  189,188  189,185  190,184  190,183  191,182  191,181  193,179  193,178  194,177  194,176  195,175  195,174  198,171  198,170  199,169  199,168  202,165  202,163  204,161  205,161  206,160  206,159  210,155  210,154  219,145  220,145  223,142  224,142  229,137  230,137  230,136  231,135  232,135  232,134  233,133  234,133  236,131  237,131  238,130  239,130  240,129  241,129  242,128  243,128  244,127  245,127  246,126  248,126  249,125  250,125  251,124  252,124  253,123  255,123  256,122  257,122  258,121  260,121  261,120  263,120  264,119  267,119  268,118  273,118  274,117  277,117  278,116  279,116"   style="fill:none;stroke:rgb(42,82,71);stroke-width:3" />
<polyline points="  327,108  326,109  324,109  322,111  321,111  316,116  315,116  314,117  313,117  312,116  310,116  309,115  307,115  306,114  304,114  303,113  300,113  299,112  298,112  297,111  293,111  292,110  287,110  286,109  278,109  277,110  269,110  268,111  264,111  263,112  260,112  259,113  256,113  255,114  253,114  252,115  250,115  249,116  247,116  246,117  243,117  242,118  237,118  236,119  234,119  233,120  231,120  230,121  229,121  228,122  227,122  226,123  225,123  224,124  223,124  222,125  221,125  220,126  219,126  218,127  217,127  216,128  215,128  214,129  213,129  211,131  210,131  208,133  207,133  203,137  202,137  201,138  200,138  188,150  188,151  184,155  184,156  181,159  181,160  179,162  179,164  178,165  178,166  176,168  176,169  175,170  175,171  174,172  174,173  173,174  173,176  172,177  172,178  171,179  171,181  170,182  170,184  169,185  169,187  168,188  168,190  167,191  167,194  166,195  166,199  165,200  165,207  164,208  164,214  165,215  165,233  166,234  166,245  167,246  167,253  168,254  168,260  169,261  169,264  170,265  170,268  171,269  171,271  172,272  172,274  173,275  173,277  174,278  174,279  175,280  175,282  176,283  176,284  177,285  177,286  178,287  178,288  181,291  181,292  185,296  185,297  186,298  187,298  191,302  191,303  193,305  193,309  191,311  191,312  190,313  190,314  189,315  189,318  188,319  188,321  189,322  189,325  190,326  190,327  193,330  194,330  196,332  197,332  199,334  200,334  201,335  202,335  203,336  206,336  207,337  212,337  213,336  216,336  217,335  218,335  219,334  220,334  221,333  222,333  222,332  221,333  220,333  219,334  218,334  216,336  213,336  212,337  207,337  206,336  204,336  203,335  202,335  201,334  200,334  198,332  197,332  195,330  194,330  190,326  190,325  189,324  189,322  188,321  188,319  189,318  189,316  190,315  190,314  191,313  191,312  194,309  193,308  193,304  191,302  191,301  188,298  187,298  185,296  185,295  181,291  181,290  178,287  178,286  177,285  177,284  176,283  176,282  175,281  175,280  174,279  174,277  173,276  173,275  172,274  172,272  171,271  171,269  170,268  170,265  169,264  169,261  168,260  168,254  167,253  167,246  166,245  166,234  165,233  165,215  164,214  164,208  165,207  165,200  166,199  166,195  167,194  167,191  168,190  168,188  169,187  169,185  170,184  170,182  171,181  171,179  172,178  172,177  173,176  173,175  174,174  174,173  175,172  175,171  176,170  176,169  178,167  178,166  179,165  179,163  181,161  181,160  184,157  184,156  188,152  188,151  201,138  202,138  203,137  204,137  208,133  209,133  211,131  212,131  214,129  215,129  216,128  217,128  218,127  219,127  220,126  221,126  222,125  223,125  224,124  225,124  226,123  227,123  228,122  229,122  230,121  231,121  232,120  233,120  234,119  236,119  237,118  242,118  243,117  246,117  247,116  249,116  250,115  252,115  253,114  255,114  256,113  259,113  260,112  263,112  264,111  268,111  269,110  277,110  278,109  286,109  287,110  292,110  293,111  297,111  298,112  299,112  300,113  302,113  303,114  305,114  306,115  307,115  308,116  312,116  313,117  314,117  315,116  316,117  322,111  323,111  325,109  326,109  327,108  336,108  337,109  338,109  340,111  341,111  346,116  346,117  347,118  347,119  348,120  348,121  349,122  349,125  350,126  350,131  351,132  351,134  352,135  352,136  353,137  353,138  354,139  354,140  361,147  362,147  363,148  364,148  367,151  367,152  368,153  368,156  369,157  369,158  370,159  370,160  372,162  372,163  373,164  373,165  374,166  374,167  375,168  375,170  376,171  376,172  377,173  377,174  378,175  378,176  379,177  379,180  380,181  380,184  381,185  381,187  382,188  382,191  383,192  383,195  384,196  384,201  385,202  385,205  386,206  385,207  385,209  386,210  386,230  385,231  385,236  384,237  384,242  383,243  383,246  382,247  382,249  381,250  381,253  380,254  380,256  379,257  379,259  378,260  378,261  377,262  377,264  376,265  376,266  375,267  375,268  374,269  374,270  373,271  373,272  372,273  372,278  371,279  372,280  371,281  371,283  370,284  370,285  369,286  369,287  368,288  368,289  361,296  360,296  359,297  358,297  357,298  356,298  353,301  353,302  349,306  349,307  347,309  346,309  344,311  344,312  347,309  348,309  349,308  349,307  353,303  353,302  357,298  358,298  360,296  362,296  368,290  368,289  369,288  369,287  370,286  370,284  371,283  371,281  372,280  371,279  372,278  372,274  373,273  373,272  374,271  374,270  375,269  375,268  376,267  376,265  377,264  377,263  378,262  378,260  379,259  379,257  380,256  380,254  381,253  381,250  382,249  382,247  383,246  383,243  384,242  384,237  385,236  385,231  386,230  386,210  385,209  385,207  386,206  385,205  385,202  384,201  384,196  383,195  383,192  382,191  382,188  381,187  381,184  380,183  380,181  379,180  379,177  378,176  378,174  377,173  377,172  376,171  376,170  375,169  375,168  374,167  374,165  373,164  373,163  372,162  372,161  370,159  370,158  369,157  369,156  368,155  368,153  367,152  367,150  365,148  364,148  363,147  362,147  354,139  354,138  352,136  352,135  351,134  351,132  350,131  350,126  349,125  349,122  348,121  348,119  347,118  347,117  346,116  346,115  342,111  341,111  339,109  337,109  336,108"   style="fill:none;stroke:rgb(89,122,171);stroke-width:3" />
</svg>
